{
  "version": 1,
  "rules": [
    {
      "ip_cidr": [
        "5.62.56.9/32",
        "5.62.56.10/31",
        "5.62.58.9/32",
        "5.62.58.10/31",
        "5.62.58.12/32",
        "45.138.10.44/30",
        "69.57.224.0/21",
        "69.57.234.0/23",
        "69.57.240.0/24",
        "69.57.242.0/23",
        "69.57.244.0/22",
        "69.57.248.0/22",
        "69.57.252.0/23",
        "76.76.176.0/20",
        "104.28.8.13/32",
        "104.28.8.14/31",
        "104.28.76.48/32",
        "104.28.76.55/32",
        "104.28.92.68/32",
        "104.28.208.181/32",
        "104.28.208.182/31",
        "104.28.240.181/32",
        "104.28.240.182/31",
        "104.192.93.0/24",
        "104.192.94.0/23",
        "104.193.196.0/22",
        "104.255.176.0/23",
        "136.23.22.50/32",
        "136.23.26.34/32",
        "140.248.44.4/31",
        "140.248.56.4/32",
        "140.248.57.4/32",
        "140.248.58.4/32",
        "140.248.59.4/32",
        "140.248.60.4/32",
        "140.248.61.4/32",
        "140.248.62.4/32",
        "140.248.63.4/32",
        "146.75.148.2/31",
        "146.75.236.2/31",
        "146.75.244.2/31",
        "157.5.67.102/31",
        "157.5.91.101/32",
        "157.5.91.102/32",
        "157.167.112.0/24",
        "162.120.196.232/32",
        "162.120.202.198/32",
        "163.116.250.79/32",
        "163.116.250.80/32",
        "172.225.204.0/27",
        "172.225.238.16/28",
        "172.226.13.144/28",
        "192.30.124.0/24",
        "194.50.99.5/32",
        "195.149.107.0/24",
        "199.195.220.0/22",
        "204.14.248.0/22",
        "204.14.252.0/23",
        "204.14.255.0/24",
        "204.155.30.0/24",
        "205.217.232.0/23",
        "205.217.246.0/23",
        "206.214.0.0/21",
        "206.214.12.0/22",
        "208.66.49.0/24",
        "208.66.50.0/23",
        "208.66.52.0/22",
        "209.59.76.0/22",
        "209.59.120.0/23",
        "2001:470:5:45::/64",
        "2001:470:b:12a::/64",
        "2001:470:d:13c::/64",
        "2001:470:d:23e::/64",
        "2001:470:d:fea::/64",
        "2001:470:d:1b0c::/64",
        "2001:470:19:4f2::/64",
        "2001:470:19:683::/64",
        "2001:470:19:c42::/64",
        "2001:470:1d:2bf::/64",
        "2001:470:24:194::/64",
        "2001:470:24:3e4::/64",
        "2001:470:24:3fb::/64",
        "2001:470:26:2e8::/64",
        "2001:470:26:572::/64",
        "2001:470:28:6f5::/64",
        "2001:470:36:894::/64",
        "2001:470:6d:915::/64",
        "2001:470:6f:348::/64",
        "2001:470:71:4f9::/64",
        "2001:470:1f05:344::/64",
        "2001:470:1f07:4a8::/64",
        "2001:470:1f0b:58f::/64",
        "2001:470:1f0b:68a::/64",
        "2001:470:1f0b:10ca::/64",
        "2001:470:1f11:2a9::/64",
        "2001:470:1f11:41c::/64",
        "2001:470:1f13:8b4::/64",
        "2001:470:1f13:caf::/64",
        "2001:470:1f15:1f::/64",
        "2001:470:1f15:e3::/64",
        "2001:470:1f15:7cc::/64",
        "2001:470:1f1b:8f::/64",
        "2001:470:1f1d:16f::/64",
        "2001:470:1f21:26b::/64",
        "2001:470:1f29:2cc::/64",
        "2001:470:1f29:30a::/64",
        "2001:470:1f29:312::/64",
        "2001:470:1f2f:53::/64",
        "2001:470:6270::/48",
        "2001:470:8a2a::/48",
        "2001:470:b6e0::/48",
        "2001:470:c191::/48",
        "2001:470:c1c4::/48",
        "2001:470:d80d::/48",
        "2001:470:ee6c::/48",
        "2001:470:f071::/48",
        "2001:470:f0e8::/48",
        "2001:470:f392::/48",
        "2001:470:fd0a::/48",
        "2602:f871::/40",
        "2602:fd72::/36",
        "2606:40:f00::/43",
        "2606:40:209d::/51",
        "2606:40:2148:c000::/51",
        "2606:54c0:48::/45",
        "2606:54c3:0:c84::/64",
        "2607:8940:4023:6600::/55",
        "2607:8940:4143:6500::/56",
        "2607:8940:4143:6600::/56",
        "2a02:26f7:eb80:4000::/64",
        "2a02:26f7:eb80:c020::/64",
        "2a02:26f7:eb81:4000::/64",
        "2a02:26f7:eb84:4000::/64",
        "2a02:26f7:eb84:c020::/64",
        "2a02:26f7:eb85:4000::/64",
        "2a02:26f7:eb8c:4000::/64",
        "2a02:26f7:eb8c:c020::/64",
        "2a02:26f7:eb8d:4000::/64",
        "2a04:4e41:2:1100::/56",
        "2a04:4e41:9:1100::/56",
        "2a04:4e41:a:1100::/56",
        "2a04:4e41:16:1200::/56",
        "2a04:4e41:4010:4000::/52",
        "2a04:4e41:4020:4000::/52",
        "2a04:4e41:4030:4000::/52",
        "2a04:4e41:4040:4000::/52",
        "2a04:4e41:4050:4000::/52",
        "2a04:4e41:4060:4000::/52",
        "2a04:4e41:4070:4000::/52",
        "2a04:4e41:4080:4000::/52",
        "2a05:dfc1:5a0f::/48",
        "2a09:bac1:380::/64",
        "2a09:bac1:3a0::/64",
        "2a09:bac1:3c0::/64",
        "2a09:bac1:3e0::/64",
        "2a09:bac2:48::/45",
        "2a09:bac3:48::/45",
        "2a09:bac4:20::/45",
        "2a09:bac4:1020::/45",
        "2a09:bac5:48::/45",
        "2a09:bac6:48::/45",
        "2a0a:6044:638e::/47",
        "2a0a:6044:6390::/45",
        "2a0a:6044:6398::/46",
        "2a0a:6044:639c::/48",
        "2a0a:6044:f38e::/47",
        "2a0a:6044:f390::/45",
        "2a0a:6044:f398::/46",
        "2a0a:6044:f39c::/48",
        "2a0c:3b80:4149::/48",
        "2a0c:3b80:6169::/48",
        "2a0c:9a40:95b0:7000::/52",
        "2a0f:7803:ff10:8000::/51",
        "2a14:1c6:5800::/37"
      ]
    }
  ]
}
