{
  "version": 1,
  "rules": [
    {
      "ip_cidr": [
        "5.62.56.21/32",
        "5.62.56.22/31",
        "46.243.139.0/24",
        "57.74.102.0/23",
        "57.91.224.0/21",
        "104.28.8.81/32",
        "104.28.8.82/31",
        "104.28.32.80/31",
        "104.28.36.108/31",
        "104.28.76.57/32",
        "104.28.76.58/32",
        "104.28.78.57/32",
        "104.28.78.58/32",
        "104.28.92.114/31",
        "104.28.94.114/31",
        "104.28.126.116/31",
        "104.28.196.159/32",
        "104.28.196.160/30",
        "104.28.196.164/31",
        "104.28.228.159/32",
        "104.28.228.160/30",
        "104.28.228.164/31",
        "136.23.22.48/32",
        "136.23.26.32/32",
        "138.255.252.0/22",
        "140.248.4.2/31",
        "140.248.44.6/31",
        "140.248.56.13/32",
        "140.248.57.13/32",
        "140.248.58.13/32",
        "140.248.59.13/32",
        "140.248.60.13/32",
        "140.248.61.13/32",
        "140.248.62.13/32",
        "140.248.63.13/32",
        "146.75.240.2/31",
        "157.5.67.104/31",
        "157.5.91.103/32",
        "157.5.91.104/32",
        "157.167.113.0/24",
        "162.120.194.236/32",
        "162.120.202.199/32",
        "163.116.134.156/32",
        "163.116.134.165/32",
        "163.116.250.51/32",
        "163.116.250.64/32",
        "170.84.254.0/24",
        "172.111.183.0/24",
        "172.224.234.0/28",
        "172.225.238.32/28",
        "172.225.250.0/27",
        "172.226.13.160/28",
        "179.61.32.0/19",
        "181.41.0.0/19",
        "181.41.32.0/20",
        "181.41.48.0/22",
        "181.41.52.1/32",
        "181.41.52.2/31",
        "181.41.52.4/30",
        "181.41.52.8/29",
        "181.41.52.16/28",
        "181.41.52.32/27",
        "181.41.52.64/26",
        "181.41.52.128/25",
        "181.41.53.1/32",
        "181.41.53.2/31",
        "181.41.53.4/30",
        "181.41.53.8/29",
        "181.41.53.16/28",
        "181.41.53.32/27",
        "181.41.53.64/26",
        "181.41.53.128/25",
        "181.41.54.0/23",
        "181.41.56.0/21",
        "186.96.200.0/21",
        "186.96.224.0/20",
        "186.96.240.0/21",
        "186.189.0.0/18",
        "186.189.128.0/18",
        "190.12.224.0/19",
        "190.104.96.0/21",
        "194.50.99.14/32",
        "201.229.0.0/17",
        "2001:470:5:80::/64",
        "2001:470:8:1ea::/64",
        "2001:470:b:6f::/64",
        "2001:470:b:f6::/64",
        "2001:470:b:419::/64",
        "2001:470:d:f69::/64",
        "2001:470:19:4b1::/64",
        "2001:470:26:125::/64",
        "2001:470:36:291::/64",
        "2001:470:36:292::/64",
        "2001:470:67:5::/64",
        "2001:470:6d:48::/64",
        "2001:470:6d:fd::/64",
        "2001:470:6d:295::/64",
        "2001:470:6d:305::/64",
        "2001:470:6d:50a::/64",
        "2001:470:7c:c8::/64",
        "2001:470:187d::/48",
        "2001:470:1b49::/48",
        "2001:470:1f07:608::/64",
        "2001:470:1f07:98e::/64",
        "2001:470:1f09:dc::/64",
        "2001:470:1f09:c1f::/64",
        "2001:470:1f0b:31d::/64",
        "2001:470:1f0b:a2a::/64",
        "2001:470:1f0b:e4d::/64",
        "2001:470:1f0b:f03::/64",
        "2001:470:1f13:f32::/64",
        "2001:470:1f15:739::/64",
        "2001:470:1f15:116b::/64",
        "2001:470:1f1d:10f::/64",
        "2001:470:1f1d:758::/64",
        "2001:470:1f1d:7be::/64",
        "2001:470:1f27:42::/64",
        "2001:470:3843::/48",
        "2001:470:4806::/48",
        "2001:470:ca28::/48",
        "2001:470:d8f0::/48",
        "2001:470:e862::/48",
        "2001:470:e865::/48",
        "2001:470:ed0a::/48",
        "2001:470:f1a8::/48",
        "2602:2a9:ca0::/44",
        "2602:fd92:b00:196::/64",
        "2606:40:ec0::/43",
        "2606:40:205d:8000::/51",
        "2606:40:2148:e000::/51",
        "2606:54c0:430::/45",
        "2606:54c3:0:16bc::/64",
        "2607:8940:4023:6800::/55",
        "2607:8940:4143:6700::/56",
        "2607:8940:4143:6800::/56",
        "2800:ad0::/32",
        "2801:19:5800::/48",
        "2803:b640::/32",
        "2a02:26f7:f880:4000::/64",
        "2a02:26f7:f880:c080::/64",
        "2a02:26f7:f881:4000::/64",
        "2a02:26f7:f884:4000::/64",
        "2a02:26f7:f884:c080::/64",
        "2a02:26f7:f885:4000::/64",
        "2a02:26f7:f88c:4000::/64",
        "2a02:26f7:f88c:c080::/64",
        "2a02:26f7:f88d:4000::/64",
        "2a02:26f7:f890:4000::/64",
        "2a02:26f7:f890:c080::/64",
        "2a02:26f7:f891:4000::/64",
        "2a04:4e41:16:1300::/56",
        "2a04:4e41:23:1100::/56",
        "2a04:4e41:51:1100::/56",
        "2a04:4e41:4010:d000::/52",
        "2a04:4e41:4020:d000::/52",
        "2a04:4e41:4030:d000::/52",
        "2a04:4e41:4040:d000::/52",
        "2a04:4e41:4050:d000::/52",
        "2a04:4e41:4060:d000::/52",
        "2a04:4e41:4070:d000::/52",
        "2a04:4e41:4080:d000::/52",
        "2a05:dfc1:5a18::/48",
        "2a09:54c1:196::/48",
        "2a09:bac1:880::/64",
        "2a09:bac1:8a0::/64",
        "2a09:bac1:8c0::/64",
        "2a09:bac1:8e0::/64",
        "2a09:bac2:430::/45",
        "2a09:bac3:430::/45",
        "2a09:bac4:68::/45",
        "2a09:bac4:1068::/45",
        "2a09:bac5:448::/45",
        "2a09:bac6:448::/45",
        "2a0a:6044:686d::/48",
        "2a0a:6044:686e::/47",
        "2a0a:6044:6870::/45",
        "2a0a:6044:6878::/46",
        "2a0a:6044:f86d::/48",
        "2a0a:6044:f86e::/47",
        "2a0a:6044:f870::/45",
        "2a0a:6044:f878::/46",
        "2a0c:3b80:4157::/48",
        "2a0c:3b80:6177::/48",
        "2a0c:9a40:95b0:c000::/52",
        "2a0c:9e06:196::/48",
        "2a0f:7803:fec7::/48",
        "2a13:b487:502b::/48",
        "2a14:1c1:c000::/37"
      ]
    }
  ]
}
