{
  "version": 1,
  "rules": [
    {
      "ip_cidr": [
        "3.2.32.128/26",
        "3.2.56.0/24",
        "3.5.220.0/22",
        "5.60.212.0/22",
        "5.62.60.21/32",
        "5.62.60.22/31",
        "5.62.62.21/32",
        "5.62.62.22/31",
        "13.34.15.128/26",
        "13.34.20.0/25",
        "13.34.78.192/26",
        "13.34.82.0/26",
        "13.34.125.0/26",
        "13.248.106.0/24",
        "15.158.9.0/24",
        "15.177.87.0/24",
        "15.184.0.0/15",
        "15.230.10.0/24",
        "15.230.69.64/26",
        "15.230.69.128/25",
        "15.230.98.0/24",
        "15.230.121.0/29",
        "15.230.121.8/31",
        "15.230.122.0/29",
        "15.230.174.0/24",
        "15.230.198.0/24",
        "15.248.20.0/22",
        "16.24.0.0/16",
        "18.68.34.0/25",
        "18.99.224.0/20",
        "31.24.85.224/27",
        "31.217.249.0/24",
        "35.71.99.0/24",
        "37.131.0.0/17",
        "38.54.2.0/23",
        "45.11.72.0/22",
        "45.138.10.216/30",
        "45.197.116.0/24",
        "46.42.64.0/18",
        "46.184.128.0/17",
        "46.235.208.0/21",
        "46.243.150.0/24",
        "52.93.69.0/24",
        "52.93.224.0/22",
        "52.94.249.160/28",
        "52.95.172.0/23",
        "52.95.174.0/24",
        "52.95.228.0/24",
        "52.119.249.0/24",
        "52.129.208.0/22",
        "54.239.1.112/28",
        "57.83.88.0/21",
        "57.88.32.0/20",
        "57.98.96.0/21",
        "57.98.108.0/22",
        "62.209.0.0/19",
        "69.107.7.128/28",
        "74.80.90.0/24",
        "74.118.126.16/30",
        "77.69.128.0/17",
        "77.77.174.36/30",
        "77.83.88.0/22",
        "77.92.168.0/21",
        "77.92.176.0/20",
        "78.110.64.0/20",
        "79.135.105.20/30",
        "79.171.240.0/21",
        "80.88.240.0/20",
        "80.95.208.0/20",
        "80.241.144.0/20",
        "81.22.16.0/20",
        "82.194.32.0/19",
        "83.136.56.0/21",
        "84.235.101.0/24",
        "84.235.102.0/24",
        "84.235.107.0/24",
        "84.255.128.0/18",
        "85.158.128.0/21",
        "87.236.48.0/21",
        "87.236.136.0/21",
        "87.237.192.0/21",
        "87.252.96.0/21",
        "87.252.104.0/23",
        "87.252.126.0/23",
        "88.201.0.0/17",
        "89.31.192.0/21",
        "89.148.0.0/18",
        "91.189.188.0/22",
        "93.188.192.0/21",
        "94.76.0.0/18",
        "94.79.192.0/18",
        "95.84.64.0/18",
        "99.77.147.0/24",
        "99.77.236.0/24",
        "99.78.220.0/22",
        "99.82.128.0/20",
        "99.82.144.0/21",
        "99.82.152.0/22",
        "103.152.99.0/24",
        "104.28.8.116/31",
        "104.28.8.118/32",
        "104.28.37.4/31",
        "104.28.37.10/31",
        "104.28.37.25/32",
        "104.28.37.26/32",
        "104.28.37.29/32",
        "104.28.37.30/31",
        "104.28.51.13/32",
        "104.28.51.14/32",
        "104.28.80.15/32",
        "104.28.80.16/32",
        "104.28.106.15/32",
        "104.28.106.16/32",
        "104.28.147.68/32",
        "104.28.150.117/32",
        "104.28.155.68/32",
        "104.28.158.117/32",
        "104.28.204.11/32",
        "104.28.204.12/30",
        "104.28.204.16/31",
        "104.28.236.11/32",
        "104.28.236.12/30",
        "104.28.236.16/31",
        "104.30.133.143/32",
        "109.63.0.0/18",
        "109.63.64.0/24",
        "109.63.65.0/26",
        "109.63.65.64/27",
        "109.63.65.96/29",
        "109.63.65.104/30",
        "109.63.65.108/31",
        "109.63.65.111/32",
        "109.63.65.112/28",
        "109.63.65.128/25",
        "109.63.66.0/23",
        "109.63.68.0/22",
        "109.63.72.0/21",
        "109.63.80.0/20",
        "109.63.96.0/19",
        "109.161.128.0/17",
        "130.176.2.0/24",
        "140.248.34.16/30",
        "140.248.56.22/32",
        "140.248.57.22/32",
        "140.248.58.22/32",
        "140.248.59.22/32",
        "140.248.60.22/32",
        "140.248.61.22/32",
        "140.248.62.22/32",
        "140.248.63.22/32",
        "146.75.162.24/30",
        "146.75.166.8/30",
        "146.75.169.16/30",
        "148.64.6.64/27",
        "150.222.7.0/24",
        "150.222.45.0/26",
        "150.222.45.64/27",
        "154.14.207.184/30",
        "154.93.68.0/24",
        "154.94.68.0/24",
        "154.205.146.0/24",
        "156.225.113.0/24",
        "156.225.114.0/24",
        "156.244.30.0/24",
        "157.5.101.12/31",
        "157.5.101.14/32",
        "157.5.109.12/31",
        "157.5.109.14/32",
        "157.167.78.0/24",
        "157.167.228.13/32",
        "157.167.228.14/32",
        "157.167.228.137/32",
        "157.167.229.13/32",
        "157.167.229.14/32",
        "157.167.229.137/32",
        "157.167.230.13/32",
        "157.167.230.14/32",
        "157.167.230.137/32",
        "157.167.231.19/32",
        "157.167.231.20/32",
        "157.167.231.178/32",
        "157.167.237.13/32",
        "157.167.237.14/32",
        "157.167.237.137/32",
        "157.167.238.13/32",
        "157.167.238.14/32",
        "157.167.238.137/32",
        "157.167.239.13/32",
        "157.167.239.14/32",
        "157.167.239.137/32",
        "157.167.240.13/32",
        "157.167.240.14/32",
        "157.167.240.137/32",
        "157.175.0.0/16",
        "157.241.0.0/16",
        "161.69.76.0/29",
        "161.69.76.8/31",
        "161.69.76.39/32",
        "161.69.76.40/29",
        "161.69.76.48/28",
        "161.69.76.64/26",
        "161.69.76.128/29",
        "161.69.76.136/31",
        "161.69.76.167/32",
        "161.69.76.168/29",
        "161.69.76.176/28",
        "161.69.76.192/26",
        "163.116.167.109/32",
        "163.116.167.127/32",
        "163.116.191.49/32",
        "163.116.191.53/32",
        "165.1.166.0/24",
        "165.85.66.0/24",
        "165.85.82.0/24",
        "169.224.145.0/24",
        "172.69.228.0/24",
        "172.71.228.0/24",
        "172.111.226.0/24",
        "172.225.160.32/28",
        "172.225.196.0/28",
        "172.225.220.32/28",
        "178.132.32.0/20",
        "185.7.8.0/22",
        "185.33.176.0/22",
        "185.34.228.0/22",
        "185.36.88.0/22",
        "185.49.160.0/22",
        "185.65.174.0/24",
        "185.143.124.0/22",
        "185.156.236.0/22",
        "185.165.176.0/22",
        "185.236.132.0/22",
        "188.116.192.0/18",
        "188.137.128.0/17",
        "193.25.204.0/24",
        "193.84.183.32/28",
        "193.188.12.0/23",
        "193.188.96.0/19",
        "194.50.99.23/32",
        "195.219.152.0/24",
        "196.48.44.0/24",
        "196.56.44.0/24",
        "196.57.44.0/24",
        "196.58.44.0/24",
        "196.196.44.0/24",
        "196.197.44.0/24",
        "196.198.44.0/24",
        "196.199.44.0/24",
        "199.19.254.160/28",
        "208.56.31.0/27",
        "208.56.62.0/24",
        "212.115.188.48/29",
        "217.17.224.0/19",
        "2001:470:8:203::/64",
        "2001:470:26:740::/64",
        "2001:470:6d:f35::/64",
        "2001:470:71:1f1::/64",
        "2001:470:71:3b3::/64",
        "2001:470:71:66e::/64",
        "2001:470:1f07:1fb::/64",
        "2001:470:1f07:7dd::/64",
        "2001:470:1f09:6cc::/64",
        "2001:470:1f0b:2b3::/64",
        "2001:470:1f0b:69a::/64",
        "2001:470:1f0b:6a1::/64",
        "2001:470:1f0b:703::/64",
        "2001:470:1f0b:7ee::/64",
        "2001:470:1f0b:9b9::/64",
        "2001:470:1f0f:72::/64",
        "2001:470:1f0f:348::/64",
        "2001:470:1f0f:4db::/64",
        "2001:470:1f11:1e3::/64",
        "2001:470:1f13:b::/64",
        "2001:470:1f13:70::/64",
        "2001:470:1f13:f20::/64",
        "2001:470:1f15:598::/64",
        "2001:470:1f29:72::/64",
        "2001:470:1f29:1bd::/64",
        "2001:470:1f29:1d5::/64",
        "2001:470:1f29:268::/64",
        "2001:470:1f29:3a2::/64",
        "2001:470:7369::/48",
        "2001:470:8914::/48",
        "2001:470:c119::/48",
        "2001:500:15:5900::/56",
        "2001:67c:a38:f973::/64",
        "2001:1a40::/29",
        "2400:cb00:170::/48",
        "2400:cb00:600::/48",
        "2404:a140:16::/48",
        "2600:1f01:48e0::/47",
        "2600:70ff:d027::/48",
        "2600:70ff:d037::/48",
        "2600:9000:111f::/64",
        "2600:9000:11f2::/48",
        "2600:9000:1dfe::/48",
        "2600:9000:1e25::/64",
        "2606:54c0:4f8::/45",
        "2606:54c0:500::/45",
        "2606:54c3:0:7a3::/64",
        "2606:54c3:0:108c::/64",
        "2606:f4c0:40e0::/44",
        "2606:f4c0:4210::/44",
        "2606:f4c0:4340::/44",
        "2606:f4c0:4470::/44",
        "2606:f4c0:45a0::/44",
        "2606:f4c0:46d0::/44",
        "2606:f4c0:4800::/44",
        "2606:f4c0:4930::/44",
        "2606:f4c0:4a60::/44",
        "2606:f4c0:4b90::/44",
        "2606:f4c0:4cc0::/44",
        "2606:f4c0:4df0::/44",
        "2606:f4c0:4fd0::/44",
        "2606:f4c0:6100::/44",
        "2606:f4c0:6250::/44",
        "2607:8940:4171:c00::/55",
        "2607:8940:4171:e00::/56",
        "2607:8940:4191:c00::/55",
        "2607:8940:4191:e00::/56",
        "2a00:6600::/29",
        "2a00:dde0::/32",
        "2a01:3e0:3c00::/60",
        "2a01:4600::/32",
        "2a01:4900::/29",
        "2a01:5d80::/32",
        "2a01:ce83:1000::/36",
        "2a01:e9c0::/29",
        "2a02:2578::/32",
        "2a02:26f7:d7c0:4000::/64",
        "2a02:26f7:d7c0:c0c0::/64",
        "2a02:26f7:d7c1:4000::/64",
        "2a02:26f7:d7c4:4000::/64",
        "2a02:26f7:d7c4:c0c0::/64",
        "2a02:26f7:d7c5:4000::/64",
        "2a02:26f7:d7c8::/48",
        "2a02:26f7:d7c9:4000::/64",
        "2a02:5740:44::/48",
        "2a02:5741:44::/48",
        "2a02:5742:44::/48",
        "2a02:5743:44::/48",
        "2a02:5744:44::/48",
        "2a02:5745:44::/48",
        "2a02:5746:44::/48",
        "2a02:5747:44::/48",
        "2a02:c3c0::/29",
        "2a02:c400::/29",
        "2a02:d080::/29",
        "2a03:1c00::/29",
        "2a03:9d40:5100::/40",
        "2a04:4e41:10:c::/63",
        "2a04:4e41:10:1500::/56",
        "2a04:4e41:12:4::/63",
        "2a04:4e41:12:1200::/56",
        "2a04:4e41:4e:8::/63",
        "2a04:4e41:4e:1500::/56",
        "2a04:4e41:65:8::/63",
        "2a04:4e41:65:1500::/56",
        "2a04:4e41:4011:6000::/52",
        "2a04:4e41:4021:6000::/52",
        "2a04:4e41:4031:6000::/52",
        "2a04:4e41:4041:6000::/52",
        "2a04:4e41:4051:6000::/52",
        "2a04:4e41:4061:6000::/52",
        "2a04:4e41:4071:6000::/52",
        "2a04:4e41:4081:6000::/52",
        "2a04:8ac0::/29",
        "2a05:d000:e000::/40",
        "2a05:d01e::/36",
        "2a05:d02e::/36",
        "2a05:d030:e000::/40",
        "2a05:d031:e000::/40",
        "2a05:d032:e000::/40",
        "2a05:d034:e000::/40",
        "2a05:d035:e000::/40",
        "2a05:d036:e000::/40",
        "2a05:d038:e000::/40",
        "2a05:d03a:e000::/40",
        "2a05:d050:e000::/40",
        "2a05:d058:e000::/40",
        "2a05:d070:e000::/40",
        "2a05:d071:e000::/40",
        "2a05:d072:e000::/40",
        "2a05:d074:e000::/40",
        "2a05:d075:e000::/40",
        "2a05:d076:e000::/40",
        "2a05:d077:e000::/40",
        "2a05:d078:e000::/40",
        "2a05:d079:e000::/40",
        "2a05:d07a:e000::/40",
        "2a05:d07b:e000::/40",
        "2a05:d07c:e000::/40",
        "2a05:d07e:e000::/40",
        "2a05:d07f:e000::/40",
        "2a05:dfc1:5a21::/48",
        "2a09:bac0:1000:392::/64",
        "2a09:bac1:d00::/41",
        "2a09:bac2:4f8::/45",
        "2a09:bac2:500::/45",
        "2a09:bac3:4f8::/45",
        "2a09:bac3:500::/45",
        "2a09:bac4:b0::/45",
        "2a09:bac4:10b0::/45",
        "2a09:bac5:510::/44",
        "2a09:bac6:510::/44",
        "2a0a:6044:603c::/46",
        "2a0a:6044:6040::/45",
        "2a0a:6044:6048::/47",
        "2a0a:6044:604a::/48",
        "2a0a:6044:a142:696d::/64",
        "2a0a:6044:f03c::/46",
        "2a0a:6044:f040::/45",
        "2a0a:6044:f048::/47",
        "2a0a:6044:f04a::/48",
        "2a0c:3b80:4248::/48",
        "2a0c:3b80:6268::/48",
        "2a0c:9a40:95b1:1000::/52",
        "2a0d:3341:c300::/42",
        "2a0d:3344:1200::/42",
        "2a0e:6700::/29",
        "2a0f:7803:fedb::/48",
        "2a10:500:4000::/40",
        "2a10:9007:2:3::/64",
        "2a13:a5c3:d40c::/46",
        "2a13:b487:5030::/48",
        "2a14:1c2:c800::/37",
        "2a14:7180::/29"
      ]
    }
  ]
}
