{
  "version": 1,
  "rules": [
    {
      "ip_cidr": [
        "5.62.56.41/32",
        "5.62.56.42/31",
        "5.62.58.41/32",
        "5.62.58.42/31",
        "23.249.54.5/32",
        "34.100.4.0/22",
        "34.100.46.0/23",
        "38.142.194.32/29",
        "45.4.98.0/23",
        "45.5.13.0/24",
        "45.68.0.0/22",
        "45.70.180.0/22",
        "45.134.189.0/24",
        "45.148.104.0/22",
        "45.154.153.0/24",
        "45.163.18.0/23",
        "45.183.187.0/24",
        "45.200.175.0/24",
        "45.225.75.0/24",
        "45.226.32.0/24",
        "45.226.34.0/23",
        "45.229.195.0/24",
        "45.229.244.0/23",
        "45.232.46.0/23",
        "45.236.192.0/22",
        "46.36.200.21/32",
        "46.36.200.22/31",
        "46.36.200.24/30",
        "46.36.200.28/31",
        "46.36.200.30/32",
        "46.36.200.81/32",
        "46.36.200.82/31",
        "46.36.200.84/30",
        "46.36.200.88/31",
        "46.36.200.90/32",
        "46.36.202.37/32",
        "46.36.202.38/31",
        "46.36.202.57/32",
        "46.36.202.58/31",
        "46.36.202.60/30",
        "46.36.202.64/31",
        "46.36.202.67/32",
        "46.36.202.68/31",
        "46.36.202.70/32",
        "57.74.240.0/22",
        "57.75.48.0/20",
        "63.246.44.64/26",
        "64.64.99.0/24",
        "66.35.22.175/32",
        "66.35.27.214/32",
        "66.96.115.64/26",
        "66.103.20.137/32",
        "72.14.201.214/32",
        "77.81.118.96/30",
        "81.114.122.163/32",
        "84.247.90.0/23",
        "104.28.8.134/31",
        "104.28.8.136/32",
        "104.28.47.35/32",
        "104.28.47.36/30",
        "104.28.47.40/30",
        "104.28.59.35/32",
        "104.28.59.36/30",
        "104.28.63.35/32",
        "104.28.63.36/31",
        "104.28.63.38/32",
        "104.28.113.35/32",
        "104.28.113.36/30",
        "104.28.113.40/30",
        "104.28.115.35/32",
        "104.28.115.36/30",
        "104.28.115.40/30",
        "104.28.141.49/32",
        "104.28.160.217/32",
        "104.28.209.5/32",
        "104.28.209.6/31",
        "104.28.209.8/30",
        "104.28.217.243/32",
        "104.28.217.244/31",
        "104.28.217.246/32",
        "104.28.218.240/30",
        "104.28.241.5/32",
        "104.28.241.6/31",
        "104.28.241.8/30",
        "104.28.249.243/32",
        "104.28.249.244/31",
        "104.28.249.246/32",
        "104.28.250.240/30",
        "104.224.19.0/24",
        "109.172.127.0/24",
        "128.77.116.224/27",
        "130.41.13.0/26",
        "130.41.13.224/27",
        "130.41.68.192/26",
        "130.41.98.0/24",
        "130.41.213.224/27",
        "131.0.0.0/22",
        "131.0.196.0/22",
        "132.251.224.0/19",
        "134.231.153.192/26",
        "134.238.157.64/26",
        "134.238.157.128/25",
        "134.238.231.192/27",
        "136.227.141.82/31",
        "136.227.141.84/30",
        "138.36.76.0/22",
        "138.204.15.0/24",
        "139.28.234.0/24",
        "139.81.200.0/22",
        "140.248.25.4/31",
        "140.248.32.0/31",
        "140.248.56.28/32",
        "140.248.57.28/32",
        "140.248.58.28/32",
        "140.248.59.28/32",
        "140.248.60.28/32",
        "140.248.61.28/32",
        "140.248.62.28/32",
        "140.248.63.28/32",
        "143.0.101.0/24",
        "143.137.112.0/22",
        "143.137.228.0/22",
        "146.75.179.4/31",
        "146.75.191.4/31",
        "146.75.208.30/31",
        "146.75.221.0/31",
        "154.219.215.0/24",
        "157.5.124.81/32",
        "157.5.124.82/31",
        "157.5.124.84/32",
        "157.167.17.0/24",
        "158.172.152.0/21",
        "158.172.224.0/19",
        "160.20.225.0/24",
        "161.22.128.0/17",
        "161.56.0.0/16",
        "161.69.50.11/32",
        "161.69.50.139/32",
        "161.69.53.23/32",
        "161.69.53.39/32",
        "161.69.54.23/32",
        "161.69.54.39/32",
        "161.69.57.23/32",
        "161.69.57.39/32",
        "161.69.59.23/32",
        "161.69.59.39/32",
        "161.69.60.23/32",
        "161.69.60.39/32",
        "161.69.63.11/32",
        "161.69.63.139/32",
        "161.69.90.23/32",
        "161.69.90.39/32",
        "161.69.91.23/32",
        "161.69.91.39/32",
        "161.69.92.23/32",
        "161.69.92.39/32",
        "161.69.101.11/32",
        "161.69.101.139/32",
        "161.69.103.11/32",
        "161.69.103.139/32",
        "161.69.105.11/32",
        "161.69.105.139/32",
        "161.69.107.11/32",
        "161.69.107.139/32",
        "161.69.113.24/32",
        "161.69.113.38/32",
        "161.69.114.23/32",
        "161.69.114.39/32",
        "161.69.116.23/32",
        "161.69.116.39/32",
        "161.69.121.23/32",
        "161.69.121.39/32",
        "161.69.123.23/32",
        "161.69.123.39/32",
        "161.69.124.11/32",
        "161.69.124.139/32",
        "161.138.0.0/16",
        "163.116.224.94/32",
        "163.116.224.97/32",
        "163.116.225.93/32",
        "163.116.225.95/32",
        "163.116.226.93/32",
        "163.116.226.103/32",
        "163.116.227.90/32",
        "163.116.227.93/32",
        "163.116.228.109/32",
        "163.116.228.110/32",
        "163.116.229.107/32",
        "163.116.229.117/32",
        "163.116.230.98/31",
        "165.1.220.65/32",
        "165.1.220.66/31",
        "165.1.220.68/30",
        "165.1.220.72/29",
        "165.1.220.80/28",
        "165.1.220.96/28",
        "165.1.220.112/29",
        "165.1.220.120/30",
        "165.1.220.124/31",
        "165.1.220.126/32",
        "165.1.222.225/32",
        "165.1.222.226/31",
        "165.1.222.228/30",
        "165.1.222.232/29",
        "165.1.222.240/29",
        "165.1.222.248/30",
        "165.1.222.252/31",
        "165.1.222.254/32",
        "165.1.246.225/32",
        "165.1.246.226/31",
        "165.1.246.228/30",
        "165.1.246.232/29",
        "165.1.246.240/29",
        "165.1.246.248/30",
        "165.1.246.252/31",
        "165.1.246.254/32",
        "165.1.247.209/32",
        "165.1.247.210/31",
        "165.1.247.212/30",
        "165.1.247.216/30",
        "165.1.247.220/31",
        "165.1.247.222/32",
        "165.85.32.64/26",
        "165.85.224.64/26",
        "165.85.238.128/27",
        "166.114.0.0/16",
        "167.157.0.0/16",
        "167.250.135.0/24",
        "168.197.240.0/22",
        "168.205.96.0/22",
        "168.228.132.0/22",
        "170.82.244.0/23",
        "170.239.120.0/22",
        "170.245.35.0/24",
        "170.247.160.0/22",
        "172.68.6.0/24",
        "172.68.178.0/24",
        "172.111.241.0/24",
        "172.225.84.32/28",
        "172.225.222.32/28",
        "172.225.232.0/28",
        "173.244.55.144/28",
        "177.222.32.0/19",
        "177.222.96.0/19",
        "179.0.30.0/24",
        "179.42.80.0/22",
        "179.58.0.0/15",
        "179.60.112.0/20",
        "181.41.144.0/21",
        "181.41.156.0/22",
        "181.114.64.0/18",
        "181.114.160.0/19",
        "181.115.128.0/17",
        "181.177.128.0/18",
        "181.188.128.0/18",
        "181.191.68.0/22",
        "181.227.0.0/16",
        "185.93.173.0/24",
        "185.125.225.24/32",
        "185.125.225.38/32",
        "186.0.156.0/22",
        "186.2.0.0/17",
        "186.27.0.0/17",
        "186.121.192.0/18",
        "186.195.247.0/24",
        "187.102.200.0/22",
        "189.28.64.0/19",
        "190.0.248.0/21",
        "190.3.184.0/21",
        "190.11.64.0/19",
        "190.14.64.0/18",
        "190.52.48.0/21",
        "190.99.92.0/22",
        "190.103.67.138/32",
        "190.104.0.0/19",
        "190.106.240.0/20",
        "190.107.32.0/19",
        "190.111.152.0/22",
        "190.111.178.0/24",
        "190.129.0.0/16",
        "190.171.192.0/18",
        "190.180.0.0/17",
        "190.181.0.0/18",
        "190.186.0.0/16",
        "190.211.224.0/20",
        "191.241.62.0/23",
        "192.223.64.0/18",
        "192.245.121.0/24",
        "193.186.4.214/32",
        "194.50.99.29/32",
        "194.169.171.0/24",
        "196.48.52.0/24",
        "196.56.52.0/24",
        "196.57.52.0/24",
        "196.58.52.0/24",
        "196.197.52.0/24",
        "196.198.52.0/24",
        "196.199.52.0/24",
        "200.7.160.0/20",
        "200.9.165.0/24",
        "200.9.166.0/23",
        "200.9.168.0/24",
        "200.10.156.0/23",
        "200.12.248.0/21",
        "200.13.152.0/21",
        "200.25.80.0/24",
        "200.33.113.0/24",
        "200.58.64.0/19",
        "200.58.160.0/19",
        "200.73.96.0/21",
        "200.75.160.0/20",
        "200.85.128.0/21",
        "200.85.140.0/22",
        "200.85.144.0/21",
        "200.87.0.0/16",
        "200.90.144.0/21",
        "200.105.128.0/18",
        "200.105.192.0/19",
        "200.106.244.0/23",
        "200.107.240.0/21",
        "200.110.48.0/20",
        "200.119.192.0/19",
        "201.71.0.211/32",
        "201.131.41.0/24",
        "201.131.45.0/24",
        "201.150.160.0/19",
        "201.222.64.0/18",
        "202.181.129.88/29",
        "203.88.96.0/22",
        "205.185.214.0/25",
        "2001:470:5:9e::/64",
        "2001:470:5:18f::/64",
        "2001:470:5:1fb::/64",
        "2001:470:5:1fe::/64",
        "2001:470:5:2cc::/64",
        "2001:470:5:308::/64",
        "2001:470:5:3aa::/64",
        "2001:470:5:462::/64",
        "2001:470:d:519::/64",
        "2001:470:1f07:c0::/64",
        "2001:470:1f07:9ff::/64",
        "2001:470:1f09:33d::/64",
        "2001:470:1f0b:660::/64",
        "2001:470:1f0f:b6::/64",
        "2001:470:1f11:957::/64",
        "2001:470:1f1b:6ce::/64",
        "2001:470:735d::/48",
        "2001:470:b868::/48",
        "2001:470:d803::/48",
        "2001:470:d84e::/48",
        "2001:470:d881::/48",
        "2001:470:d8c7::/48",
        "2001:470:d8fe::/48",
        "2001:67c:a38:f591::/64",
        "2001:1378::/32",
        "2001:4860:7:302::/64",
        "2001:4860:7:702::/64",
        "2400:cb00:379::/48",
        "2400:cb00:792::/48",
        "2606:54c0:530::/44",
        "2606:54c0:540::/44",
        "2606:54c3:0:444::/64",
        "2606:54c3:0:552::/64",
        "2606:54c3:0:c42::/64",
        "2606:54c3:0:16ea::/64",
        "2606:f4c0:25e0::/44",
        "2607:8940:4200:5100::/56",
        "2607:8940:4200:5200::/55",
        "2607:8940:4200:5400::/56",
        "2620:0:876:2200::/56",
        "2620:0:877:8100::/64",
        "2800:88::/32",
        "2800:320::/32",
        "2800:390::/32",
        "2800:cd0::/32",
        "2801:0:170::/48",
        "2801:10:2800::/48",
        "2801:10:5000::/48",
        "2801:10:9800::/48",
        "2801:11:a800::/48",
        "2801:12:1000::/48",
        "2801:12:d000::/48",
        "2801:13:3000::/48",
        "2801:14:6000::/48",
        "2801:14:c000::/48",
        "2801:16:9000::/48",
        "2801:17:7000::/48",
        "2801:18:7000::/48",
        "2801:18:9800::/48",
        "2801:18:a000::/48",
        "2801:18:a800::/48",
        "2801:18:d000::/48",
        "2801:19:a000::/48",
        "2801:19:d000::/48",
        "2801:1a:7000::/48",
        "2801:1d:d000::/48",
        "2801:104::/40",
        "2803:b60::/32",
        "2803:be0::/32",
        "2803:1180::/32",
        "2803:1920::/32",
        "2803:2110::/32",
        "2803:2690::/32",
        "2803:2880::/32",
        "2803:2950::/32",
        "2803:3820::/32",
        "2803:38c0::/32",
        "2803:3e20::/32",
        "2803:3ea0::/32",
        "2803:4ac0::/32",
        "2803:5700::/32",
        "2803:5c00::/32",
        "2803:5ce0:200::/40",
        "2803:5e00::/32",
        "2803:6250::/32",
        "2803:6450::/32",
        "2803:7680::/32",
        "2803:8de0::/32",
        "2803:8ec0::/32",
        "2803:9400::/32",
        "2803:c6e0::/32",
        "2803:dc90::/32",
        "2803:fa00::/32",
        "2a02:26f7:e580:4000::/64",
        "2a02:26f7:e580:d080::/61",
        "2a02:26f7:e581:4000::/64",
        "2a02:26f7:e584:4000::/64",
        "2a02:26f7:e584:d080::/61",
        "2a02:26f7:e585:4000::/64",
        "2a02:26f7:e588:4000::/64",
        "2a02:26f7:e588:d080::/61",
        "2a02:26f7:e589:4000::/64",
        "2a02:5740:52::/48",
        "2a02:5741:52::/48",
        "2a02:5742:52::/48",
        "2a02:5743:52::/48",
        "2a02:5744:52::/48",
        "2a02:5745:52::/48",
        "2a02:5746:52::/48",
        "2a02:5747:52::/48",
        "2a04:4e41:1f:2::/64",
        "2a04:4e41:1f:1100::/56",
        "2a04:4e41:2b:2::/64",
        "2a04:4e41:2b:1100::/56",
        "2a04:4e41:3c:15::/64",
        "2a04:4e41:3c:1700::/56",
        "2a04:4e41:49::/64",
        "2a04:4e41:49:1000::/56",
        "2a04:4e41:5e:2::/64",
        "2a04:4e41:5e:1100::/56",
        "2a04:4e41:63::/64",
        "2a04:4e41:63:1000::/56",
        "2a04:4e41:4011:c000::/52",
        "2a04:4e41:4021:c000::/52",
        "2a04:4e41:4031:c000::/52",
        "2a04:4e41:4041:c000::/52",
        "2a04:4e41:4051:c000::/52",
        "2a04:4e41:4061:c000::/52",
        "2a04:4e41:4071:c000::/52",
        "2a04:4e41:4081:c000::/52",
        "2a05:dfc1:5a26::/48",
        "2a09:bac1:1000::/64",
        "2a09:bac1:1000:8::/64",
        "2a09:bac1:1000:10::/64",
        "2a09:bac1:1000:18::/64",
        "2a09:bac1:1020::/64",
        "2a09:bac1:1020:8::/64",
        "2a09:bac1:1020:10::/64",
        "2a09:bac1:1020:18::/64",
        "2a09:bac1:1040::/64",
        "2a09:bac1:1040:8::/64",
        "2a09:bac1:1040:10::/64",
        "2a09:bac1:1040:18::/64",
        "2a09:bac1:1060::/64",
        "2a09:bac1:1060:8::/64",
        "2a09:bac1:1060:10::/64",
        "2a09:bac1:1060:18::/64",
        "2a09:bac2:530::/44",
        "2a09:bac2:540::/44",
        "2a09:bac3:530::/44",
        "2a09:bac3:540::/44",
        "2a09:bac4:e0::/45",
        "2a09:bac4:10e0::/45",
        "2a09:bac5:548::/45",
        "2a09:bac5:550::/44",
        "2a09:bac5:560::/45",
        "2a09:bac6:548::/45",
        "2a09:bac6:550::/44",
        "2a09:bac6:560::/45",
        "2a09:be42:1400::/38",
        "2a09:be44:1400::/38",
        "2a09:be46:1400::/38",
        "2a0a:6042:6100::/40",
        "2a0a:6044:687c::/46",
        "2a0a:6044:6880::/45",
        "2a0a:6044:6888::/47",
        "2a0a:6044:688a::/48",
        "2a0a:6044:6e39::/48",
        "2a0a:6044:6e3a::/47",
        "2a0a:6044:6e3c::/46",
        "2a0a:6044:6e40::/45",
        "2a0a:6044:a142:696e::/64",
        "2a0a:6044:f87c::/46",
        "2a0a:6044:f880::/45",
        "2a0a:6044:f888::/47",
        "2a0a:6044:f88a::/48",
        "2a0a:6044:fe39::/48",
        "2a0a:6044:fe3a::/47",
        "2a0a:6044:fe3c::/46",
        "2a0a:6044:fe40::/45",
        "2a0c:3b80:424f::/48",
        "2a0c:3b80:626f::/48",
        "2a0c:9a40:95b1:a000::/52",
        "2a0e:48c3:1400::/38",
        "2a0e:ec05:89c0::/42",
        "2a0e:ec05:8a00::/40",
        "2a0e:ec05:8b00::/41",
        "2a0e:ec05:8b80::/42",
        "2a12:49c1:1400::/38",
        "2a12:49c3:1400::/38",
        "2a12:49c4:280::/41",
        "2a12:49c5:1400::/38",
        "2a13:6843::/32",
        "2a14:1c4:4000::/37"
      ]
    }
  ]
}
