{
  "version": 1,
  "rules": [
    {
      "ip_cidr": [
        "46.36.203.160/29",
        "104.28.8.137/32",
        "104.28.8.138/31",
        "104.28.30.66/31",
        "104.28.30.92/31",
        "104.28.92.113/32",
        "104.28.204.132/30",
        "104.28.204.136/32",
        "104.28.236.132/30",
        "104.28.236.136/32",
        "136.23.22.51/32",
        "136.23.26.35/32",
        "140.248.4.6/31",
        "140.248.44.12/31",
        "140.248.56.29/32",
        "140.248.57.29/32",
        "140.248.58.29/32",
        "140.248.59.29/32",
        "140.248.60.29/32",
        "140.248.61.29/32",
        "140.248.62.29/32",
        "140.248.63.29/32",
        "143.0.32.0/22",
        "146.75.252.4/31",
        "157.5.67.108/31",
        "157.5.91.107/32",
        "157.5.91.108/32",
        "161.0.80.0/20",
        "162.120.196.233/32",
        "162.120.202.202/32",
        "163.116.129.141/32",
        "163.116.129.142/32",
        "163.116.226.112/32",
        "163.116.226.139/32",
        "172.224.234.32/28",
        "172.225.238.64/28",
        "172.225.250.32/27",
        "172.226.10.64/28",
        "186.159.96.0/22",
        "186.159.100.0/23",
        "186.159.102.0/24",
        "186.159.103.0/26",
        "186.159.103.64/28",
        "186.159.103.80/30",
        "186.159.103.84/31",
        "186.159.103.87/32",
        "186.159.103.88/29",
        "186.159.103.96/27",
        "186.159.103.128/25",
        "186.159.104.0/21",
        "190.4.64.0/20",
        "190.97.112.0/21",
        "190.107.248.0/21",
        "190.123.16.152/29",
        "190.123.17.1/32",
        "190.123.17.3/32",
        "190.123.17.5/32",
        "190.123.18.0/24",
        "194.50.99.30/32",
        "200.6.144.0/21",
        "200.71.248.0/21",
        "200.107.84.0/22",
        "204.157.80.0/20",
        "2001:470:d:628::/64",
        "2001:470:19:98::/64",
        "2001:470:19:7a3::/64",
        "2001:470:19:881::/64",
        "2001:470:1f15:22a::/64",
        "2001:470:f833::/48",
        "2606:40:f20::/43",
        "2606:40:209d:2000::/51",
        "2606:40:2149:4000::/51",
        "2606:54c0:550::/45",
        "2606:54c3:0:101e::/64",
        "2607:8940:4023:6c00::/55",
        "2607:8940:4143:6b00::/56",
        "2607:8940:4143:6c00::/56",
        "2800:b00::/32",
        "2803:1600::/32",
        "2803:a000::/32",
        "2803:f640::/32",
        "2a02:26f7:f840:4000::/64",
        "2a02:26f7:f840:ca60::/63",
        "2a02:26f7:f841:4000::/64",
        "2a02:26f7:f844:4000::/64",
        "2a02:26f7:f844:ca60::/63",
        "2a02:26f7:f845:4000::/64",
        "2a02:26f7:f84c:4000::/64",
        "2a02:26f7:f84c:ca60::/63",
        "2a02:26f7:f84d:4000::/64",
        "2a02:26f7:f850:4000::/64",
        "2a02:26f7:f850:ca60::/63",
        "2a02:26f7:f851:4000::/64",
        "2a04:4e41:16:1600::/56",
        "2a04:4e41:18:1200::/56",
        "2a04:4e41:51:1300::/56",
        "2a04:4e41:4011:d000::/52",
        "2a04:4e41:4021:d000::/52",
        "2a04:4e41:4031:d000::/52",
        "2a04:4e41:4041:d000::/52",
        "2a04:4e41:4051:d000::/52",
        "2a04:4e41:4061:d000::/52",
        "2a04:4e41:4071:d000::/52",
        "2a04:4e41:4081:d000::/52",
        "2a05:dfc1:5a27::/48",
        "2a09:bac1:1080::/64",
        "2a09:bac1:10a0::/64",
        "2a09:bac1:10c0::/64",
        "2a09:bac1:10e0::/64",
        "2a09:bac2:550::/45",
        "2a09:bac3:550::/45",
        "2a09:bac4:e8::/45",
        "2a09:bac4:10e8::/45",
        "2a09:bac5:568::/45",
        "2a09:bac6:568::/45",
        "2a0c:3b80:4251::/48",
        "2a0c:3b80:6271::/48",
        "2a0c:9a40:95b1:b000::/52",
        "2a10:cdc0::/33",
        "2a10:cdc0:8000::/34",
        "2a10:cdc0:c000::/35",
        "2a10:cdc0:e000::/36",
        "2a10:cdc1::/32",
        "2a10:cdc2::/31",
        "2a10:cdc4::/30",
        "2a14:1c0:7000::/37"
      ]
    }
  ]
}
