{
  "version": 1,
  "rules": [
    {
      "ip_cidr": [
        "5.62.60.45/32",
        "5.62.60.46/31",
        "5.62.62.45/32",
        "5.62.62.46/31",
        "38.51.240.0/23",
        "41.74.48.0/20",
        "41.75.0.0/20",
        "41.76.240.0/23",
        "41.76.242.0/27",
        "41.76.242.32/28",
        "41.76.242.64/26",
        "41.76.242.128/25",
        "41.76.243.0/24",
        "41.76.244.0/22",
        "41.77.88.0/21",
        "41.79.32.0/22",
        "41.79.136.0/22",
        "41.87.160.0/20",
        "41.87.176.0/22",
        "41.87.180.0/24",
        "41.87.182.0/23",
        "41.87.184.0/21",
        "41.138.72.0/21",
        "41.190.240.0/21",
        "41.190.249.0/24",
        "41.190.250.0/23",
        "41.190.252.0/22",
        "41.191.64.0/22",
        "41.191.216.0/22",
        "41.216.208.0/21",
        "41.223.72.0/22",
        "41.223.140.0/22",
        "41.223.192.0/22",
        "46.36.200.231/32",
        "46.36.200.232/30",
        "57.82.84.0/23",
        "57.82.94.0/23",
        "66.96.127.64/26",
        "74.118.126.20/30",
        "77.246.59.0/24",
        "83.143.24.0/21",
        "84.254.148.0/24",
        "88.202.91.0/24",
        "102.134.84.0/22",
        "102.134.160.0/20",
        "102.141.112.0/21",
        "102.165.128.0/19",
        "102.207.236.0/22",
        "102.208.32.0/22",
        "102.210.158.0/24",
        "102.210.252.0/24",
        "102.211.140.0/22",
        "102.214.126.0/24",
        "102.215.0.0/22",
        "102.219.75.0/24",
        "102.219.206.0/24",
        "102.222.8.0/22",
        "102.222.173.0/24",
        "104.28.8.239/32",
        "104.28.8.240/31",
        "104.28.37.23/32",
        "104.28.37.24/32",
        "104.28.46.5/32",
        "104.28.46.6/32",
        "104.28.61.7/32",
        "104.28.61.8/32",
        "104.28.63.39/32",
        "104.28.63.40/32",
        "104.28.82.5/32",
        "104.28.82.6/32",
        "104.28.140.215/32",
        "104.28.146.130/32",
        "104.28.154.130/32",
        "104.28.160.122/32",
        "104.28.212.54/31",
        "104.28.212.56/30",
        "104.28.212.60/31",
        "104.28.212.62/32",
        "104.28.244.54/31",
        "104.28.244.56/30",
        "104.28.244.60/31",
        "104.28.244.62/32",
        "105.235.240.0/20",
        "129.205.192.0/18",
        "140.248.40.8/31",
        "140.248.56.34/32",
        "140.248.57.34/32",
        "140.248.58.34/32",
        "140.248.59.34/32",
        "140.248.60.34/32",
        "140.248.61.34/32",
        "140.248.62.34/32",
        "140.248.63.34/32",
        "146.75.168.14/31",
        "146.75.198.4/31",
        "154.0.16.0/21",
        "154.70.144.0/21",
        "154.73.36.0/22",
        "154.73.84.0/22",
        "156.38.4.0/22",
        "156.38.16.0/20",
        "156.251.109.0/24",
        "157.5.101.20/31",
        "157.5.109.20/31",
        "160.242.80.0/20",
        "163.116.164.105/32",
        "163.116.164.111/32",
        "163.116.180.103/32",
        "163.116.180.109/32",
        "168.167.0.0/16",
        "169.255.80.0/22",
        "170.203.222.0/24",
        "172.68.66.0/24",
        "172.71.13.0/24",
        "172.224.230.32/28",
        "172.225.100.16/28",
        "172.225.160.48/28",
        "172.225.220.48/28",
        "194.50.99.35/32",
        "196.45.164.0/22",
        "196.48.54.0/24",
        "196.49.24.0/24",
        "196.56.54.0/24",
        "196.57.54.0/24",
        "196.58.54.0/24",
        "196.60.4.0/24",
        "196.61.208.0/21",
        "196.197.54.0/24",
        "196.198.54.0/24",
        "196.199.54.0/24",
        "196.200.208.0/20",
        "196.216.163.0/24",
        "197.231.192.0/22",
        "197.234.208.0/24",
        "199.19.254.16/28",
        "206.62.0.0/19",
        "213.193.40.0/21",
        "213.193.61.0/24",
        "2001:470:26:7c0::/64",
        "2001:470:1f23:2f::/64",
        "2001:470:1f27:1::/64",
        "2001:470:1f29:3f8::/64",
        "2001:67c:a38:f267::/64",
        "2001:43f8:220::/48",
        "2001:43f8:2a0::/48",
        "2400:cb00:495::/48",
        "2400:cb00:742::/48",
        "2606:54c0:fe0::/45",
        "2606:54c3:0:9ec::/64",
        "2607:8940:4171:1400::/55",
        "2607:8940:4191:1400::/55",
        "2620:0:876:6900::/56",
        "2a02:26f7:d780:4000::/64",
        "2a02:26f7:d780:ca80::/63",
        "2a02:26f7:d781:4000::/64",
        "2a02:26f7:d784:4000::/64",
        "2a02:26f7:d784:ca80::/63",
        "2a02:26f7:d785:4000::/64",
        "2a02:26f7:d788:4000::/64",
        "2a02:26f7:d788:ca80::/63",
        "2a02:26f7:d789:4000::/64",
        "2a02:26f7:d78c:4000::/64",
        "2a02:26f7:d78c:ca80::/63",
        "2a02:26f7:d78d:4000::/64",
        "2a02:5740:54::/48",
        "2a02:5741:54::/48",
        "2a02:5742:54::/48",
        "2a02:5743:54::/48",
        "2a02:5744:54::/48",
        "2a02:5745:54::/48",
        "2a02:5746:54::/48",
        "2a02:5747:54::/48",
        "2a04:4e41:11:1300::/56",
        "2a04:4e41:14:1500::/56",
        "2a04:4e41:32:2::/64",
        "2a04:4e41:32:1200::/56",
        "2a04:4e41:4012:2000::/52",
        "2a04:4e41:4022:2000::/52",
        "2a04:4e41:4032:2000::/52",
        "2a04:4e41:4042:2000::/52",
        "2a04:4e41:4052:2000::/52",
        "2a04:4e41:4062:2000::/52",
        "2a04:4e41:4072:2000::/52",
        "2a04:4e41:4082:2000::/52",
        "2a05:dfc1:5a2c::/48",
        "2a09:bac1:1300::/64",
        "2a09:bac1:1320::/64",
        "2a09:bac1:1340::/64",
        "2a09:bac1:1360::/64",
        "2a09:bac2:fe0::/45",
        "2a09:bac3:fe0::/45",
        "2a09:bac4:110::/45",
        "2a09:bac4:1110::/45",
        "2a09:bac5:1000::/45",
        "2a09:bac6:1000::/45",
        "2a0a:6042:8a00::/40",
        "2a0a:6044:6930::/45",
        "2a0a:6044:6938::/46",
        "2a0a:6044:693c::/47",
        "2a0a:6044:693e::/48",
        "2a0a:6044:f930::/45",
        "2a0a:6044:f938::/46",
        "2a0a:6044:f93c::/47",
        "2a0a:6044:f93e::/48",
        "2a0c:3b80:4257::/48",
        "2a0c:3b80:6277::/48",
        "2a0c:9a40:95b1:d000::/52",
        "2a10:500:d00::/40",
        "2a13:a5c3:d10c::/46",
        "2a14:1c5:9800::/37",
        "2c0f:1340::/32",
        "2c0f:1840::/32",
        "2c0f:2a80:7c0::/42",
        "2c0f:2a80:1300::/42",
        "2c0f:2a80:22c0::/42",
        "2c0f:4780::/32",
        "2c0f:e9d8::/32",
        "2c0f:f160::/32",
        "2c0f:f250::/32",
        "2c0f:f328::/32",
        "2c0f:f678::/32",
        "2c0f:f718::/32",
        "2c0f:f728::/32",
        "2c0f:f9c0::/32",
        "2c0f:fac8::/32",
        "2c0f:ff00::/32"
      ]
    }
  ]
}
