{
  "version": 1,
  "rules": [
    {
      "ip_cidr": [
        "2.18.21.0/24",
        "2.20.52.0/22",
        "2.20.144.0/22",
        "2.20.186.0/24",
        "2.22.148.0/24",
        "2.23.178.0/24",
        "2.57.28.0/22",
        "5.62.56.53/32",
        "5.62.56.54/31",
        "5.62.58.53/32",
        "5.62.58.54/31",
        "5.145.169.92/30",
        "8.14.204.0/24",
        "8.29.109.235/32",
        "8.29.228.115/32",
        "8.36.218.0/24",
        "8.242.200.0/21",
        "8.243.176.0/20",
        "13.104.185.32/30",
        "13.104.185.40/29",
        "13.104.240.0/23",
        "13.107.195.136/29",
        "13.107.195.160/30",
        "17.43.132.0/22",
        "17.45.142.0/23",
        "18.68.20.0/24",
        "18.68.38.0/26",
        "20.20.88.0/25",
        "20.20.88.128/29",
        "20.20.88.136/30",
        "20.33.85.0/24",
        "20.33.236.0/24",
        "20.33.240.0/24",
        "20.38.30.0/24",
        "20.143.92.0/22",
        "20.152.48.0/23",
        "20.201.132.0/23",
        "20.201.134.0/24",
        "23.3.240.0/20",
        "23.6.0.0/20",
        "23.12.112.0/20",
        "23.14.64.0/20",
        "23.14.87.0/24",
        "23.15.184.0/22",
        "23.15.192.0/23",
        "23.32.156.0/22",
        "23.33.144.0/20",
        "23.41.11.0/24",
        "23.41.144.0/20",
        "23.44.231.0/24",
        "23.51.144.0/20",
        "23.53.72.0/21",
        "23.54.248.0/21",
        "23.56.214.0/23",
        "23.56.216.0/22",
        "23.59.228.0/22",
        "23.60.14.0/24",
        "23.60.80.0/22",
        "23.72.251.0/24",
        "23.103.238.64/26",
        "23.160.32.208/29",
        "23.193.166.0/23",
        "23.195.99.0/24",
        "23.204.95.0/24",
        "23.206.112.0/22",
        "23.208.120.0/21",
        "23.212.228.0/22",
        "23.213.29.0/24",
        "23.213.30.0/24",
        "23.213.192.0/23",
        "23.215.168.0/21",
        "23.217.142.0/23",
        "23.219.44.0/22",
        "23.219.148.0/22",
        "23.222.237.0/24",
        "23.222.238.0/24",
        "23.222.252.0/22",
        "24.239.163.0/24",
        "31.169.121.0/24",
        "32.59.28.0/24",
        "32.59.29.8/29",
        "32.59.96.16/29",
        "32.59.96.32/27",
        "32.59.96.96/27",
        "32.59.96.128/28",
        "32.59.96.144/29",
        "32.59.96.176/28",
        "32.59.96.192/27",
        "32.59.98.0/24",
        "32.109.20.64/28",
        "32.115.1.64/28",
        "34.0.48.0/20",
        "34.82.117.148/32",
        "34.98.136.64/30",
        "34.100.20.0/22",
        "34.100.54.0/23",
        "34.104.50.0/23",
        "34.127.178.0/23",
        "34.153.33.0/24",
        "34.153.225.0/24",
        "34.176.0.0/16",
        "37.44.212.0/24",
        "37.139.70.0/24",
        "37.143.128.0/24",
        "37.235.52.0/24",
        "37.252.251.0/24",
        "38.7.192.0/19",
        "38.54.20.0/24",
        "38.54.46.0/23",
        "38.57.132.0/22",
        "38.99.237.0/24",
        "38.172.158.0/23",
        "38.180.176.0/23",
        "38.210.214.0/24",
        "38.210.224.0/24",
        "38.224.178.0/23",
        "38.250.96.0/22",
        "38.250.124.0/22",
        "38.255.76.0/22",
        "40.64.163.128/25",
        "40.96.14.144/28",
        "40.97.14.64/26",
        "40.97.14.128/25",
        "40.102.16.0/24",
        "40.102.17.0/25",
        "40.102.32.0/22",
        "43.249.73.0/24",
        "45.4.0.0/22",
        "45.4.168.0/22",
        "45.5.120.0/21",
        "45.7.228.0/22",
        "45.8.207.0/24",
        "45.57.60.0/24",
        "45.65.240.0/22",
        "45.68.16.0/22",
        "45.68.44.0/22",
        "45.71.8.0/22",
        "45.71.44.0/22",
        "45.74.62.0/24",
        "45.82.103.0/24",
        "45.133.0.0/24",
        "45.160.4.0/22",
        "45.160.12.0/22",
        "45.160.72.0/22",
        "45.160.188.0/22",
        "45.160.212.0/22",
        "45.161.44.0/22",
        "45.161.108.0/22",
        "45.161.112.0/22",
        "45.161.188.0/22",
        "45.162.132.0/22",
        "45.162.184.0/22",
        "45.162.192.0/22",
        "45.162.208.0/22",
        "45.165.40.0/22",
        "45.165.168.0/22",
        "45.166.73.0/24",
        "45.166.74.0/23",
        "45.166.144.0/22",
        "45.167.24.0/22",
        "45.167.192.0/22",
        "45.168.68.0/22",
        "45.169.54.0/23",
        "45.169.148.0/22",
        "45.169.163.0/24",
        "45.170.100.0/22",
        "45.170.135.0/24",
        "45.171.48.0/23",
        "45.171.220.0/22",
        "45.172.136.0/22",
        "45.173.120.0/22",
        "45.173.128.0/22",
        "45.174.104.0/22",
        "45.174.204.0/22",
        "45.175.21.0/24",
        "45.175.137.0/24",
        "45.175.138.0/24",
        "45.176.116.0/22",
        "45.176.164.0/22",
        "45.176.192.0/24",
        "45.177.96.0/22",
        "45.178.132.0/22",
        "45.180.24.0/22",
        "45.180.68.0/22",
        "45.180.175.0/24",
        "45.181.120.0/22",
        "45.182.116.0/24",
        "45.183.179.0/24",
        "45.184.84.0/22",
        "45.186.148.0/22",
        "45.190.16.0/22",
        "45.191.0.0/24",
        "45.191.48.0/22",
        "45.191.100.0/22",
        "45.194.30.0/23",
        "45.199.158.0/23",
        "45.223.9.0/24",
        "45.225.43.0/24",
        "45.225.92.0/22",
        "45.225.132.0/23",
        "45.225.184.0/22",
        "45.225.204.0/22",
        "45.226.168.0/22",
        "45.227.48.0/22",
        "45.227.60.0/24",
        "45.227.62.0/23",
        "45.227.131.0/24",
        "45.227.176.0/22",
        "45.228.208.0/22",
        "45.229.137.0/24",
        "45.229.188.0/22",
        "45.229.247.0/24",
        "45.230.21.0/24",
        "45.230.22.0/23",
        "45.230.36.0/22",
        "45.230.48.0/22",
        "45.231.48.0/22",
        "45.232.32.0/22",
        "45.232.92.0/22",
        "45.232.120.0/22",
        "45.232.176.0/22",
        "45.232.208.0/22",
        "45.233.143.0/24",
        "45.234.156.0/22",
        "45.234.224.0/22",
        "45.235.36.0/22",
        "45.236.88.0/23",
        "45.236.90.0/24",
        "45.236.91.0/25",
        "45.236.91.128/26",
        "45.236.91.192/27",
        "45.236.91.224/28",
        "45.236.91.240/30",
        "45.236.91.244/32",
        "45.236.91.252/30",
        "45.236.124.0/22",
        "45.236.128.0/22",
        "45.236.164.0/22",
        "45.236.174.0/23",
        "45.236.184.0/22",
        "45.237.132.0/22",
        "45.237.136.0/22",
        "45.238.20.0/22",
        "45.238.60.0/22",
        "45.238.152.0/22",
        "45.238.176.0/23",
        "45.238.179.0/24",
        "45.239.28.0/22",
        "45.239.96.0/22",
        "45.239.108.0/23",
        "45.239.111.0/24",
        "45.239.112.0/24",
        "45.239.120.0/22",
        "45.239.208.0/22",
        "45.239.216.0/22",
        "45.250.252.0/24",
        "52.97.21.128/27",
        "52.97.23.128/26",
        "52.97.23.192/27",
        "52.97.23.224/28",
        "52.97.24.0/25",
        "52.97.25.48/28",
        "52.97.25.192/26",
        "52.97.26.0/27",
        "52.97.26.144/28",
        "52.97.26.224/27",
        "52.97.28.0/24",
        "52.97.29.0/26",
        "52.97.29.64/27",
        "52.97.30.112/28",
        "52.97.31.0/26",
        "52.97.31.144/28",
        "52.97.31.192/26",
        "52.97.33.104/29",
        "52.97.34.16/28",
        "52.97.34.32/27",
        "52.97.34.64/28",
        "52.97.34.80/29",
        "52.97.36.232/29",
        "52.97.36.240/28",
        "52.97.37.0/24",
        "52.97.38.0/27",
        "52.97.38.32/29",
        "52.97.38.200/29",
        "52.97.38.208/28",
        "52.97.38.224/27",
        "52.97.39.0/25",
        "52.97.39.128/27",
        "52.97.39.160/28",
        "52.97.39.176/29",
        "52.97.40.8/29",
        "52.97.40.16/28",
        "52.97.40.32/27",
        "52.97.40.64/26",
        "52.97.40.128/25",
        "52.97.41.0/26",
        "52.97.41.64/29",
        "52.97.42.112/28",
        "52.97.42.128/25",
        "52.97.43.0/28",
        "52.97.43.184/29",
        "52.97.43.192/26",
        "52.97.44.0/29",
        "52.97.44.248/29",
        "52.97.45.0/26",
        "52.97.45.64/29",
        "52.97.48.136/29",
        "52.97.48.144/28",
        "52.97.48.160/27",
        "52.97.48.192/29",
        "52.97.49.56/29",
        "52.97.49.64/26",
        "52.97.49.128/26",
        "52.97.49.192/28",
        "52.97.49.208/29",
        "52.97.50.120/29",
        "52.97.50.128/26",
        "52.97.50.192/29",
        "52.97.50.240/28",
        "52.97.51.0/25",
        "52.97.51.128/27",
        "52.97.51.160/28",
        "52.97.106.0/24",
        "52.102.25.112/29",
        "52.102.25.136/29",
        "52.107.10.0/23",
        "52.107.245.32/27",
        "52.108.152.0/24",
        "52.110.14.64/26",
        "52.123.245.32/27",
        "57.74.160.0/19",
        "57.97.72.0/21",
        "57.150.101.0/24",
        "57.150.112.0/22",
        "57.150.116.0/24",
        "63.222.130.0/24",
        "64.76.96.0/21",
        "64.76.136.0/21",
        "64.76.144.0/20",
        "64.76.160.0/20",
        "64.76.180.0/22",
        "64.137.36.0/23",
        "64.137.121.0/24",
        "64.176.0.0/19",
        "64.181.132.0/24",
        "64.252.175.0/24",
        "65.175.15.8/29",
        "65.175.20.232/29",
        "65.175.30.96/30",
        "66.7.161.24/29",
        "66.7.189.128/29",
        "66.22.100.0/23",
        "66.22.106.0/24",
        "66.90.75.0/24",
        "66.90.76.0/23",
        "66.96.32.0/23",
        "66.102.32.64/26",
        "66.103.20.128/30",
        "66.103.20.132/31",
        "66.103.20.138/31",
        "66.103.20.140/30",
        "66.103.20.144/28",
        "66.103.20.160/27",
        "66.103.20.192/26",
        "66.203.113.0/24",
        "67.73.176.0/22",
        "68.142.101.0/24",
        "68.211.0.0/17",
        "68.211.128.0/18",
        "69.31.62.32/29",
        "69.164.51.0/24",
        "69.167.76.96/29",
        "69.197.11.0/24",
        "72.14.201.216/32",
        "72.14.201.251/32",
        "72.21.90.0/24",
        "74.199.149.224/29",
        "74.199.154.64/29",
        "76.74.39.104/29",
        "77.81.118.44/30",
        "79.127.209.0/24",
        "81.92.26.248/29",
        "84.8.78.0/23",
        "85.190.229.0/24",
        "91.216.138.0/24",
        "91.221.38.0/24",
        "91.229.228.0/24",
        "92.123.121.0/24",
        "93.180.208.0/22",
        "94.16.5.0/24",
        "94.125.137.0/24",
        "95.101.88.0/22",
        "95.101.113.0/24",
        "96.0.48.0/21",
        "96.0.56.0/22",
        "96.0.131.0/24",
        "96.0.152.0/21",
        "96.17.16.0/20",
        "96.45.92.0/24",
        "98.97.128.0/23",
        "98.98.9.0/24",
        "98.98.28.0/24",
        "101.44.0.0/20",
        "102.38.199.0/24",
        "103.68.189.32/29",
        "104.28.9.34/31",
        "104.28.9.36/30",
        "104.28.9.40/31",
        "104.28.9.42/32",
        "104.28.47.194/31",
        "104.28.47.196/30",
        "104.28.47.200/29",
        "104.28.47.208/31",
        "104.28.59.124/30",
        "104.28.59.128/29",
        "104.28.59.136/30",
        "104.28.59.168/32",
        "104.28.63.191/32",
        "104.28.63.192/29",
        "104.28.63.200/30",
        "104.28.63.204/31",
        "104.28.63.206/32",
        "104.28.113.182/31",
        "104.28.113.184/29",
        "104.28.113.192/30",
        "104.28.113.196/31",
        "104.28.115.46/31",
        "104.28.115.48/29",
        "104.28.115.56/30",
        "104.28.115.60/31",
        "104.28.115.68/32",
        "104.28.142.15/32",
        "104.28.142.16/32",
        "104.28.144.2/31",
        "104.28.144.4/30",
        "104.28.144.8/31",
        "104.28.149.67/32",
        "104.28.149.207/32",
        "104.28.149.208/32",
        "104.28.150.196/32",
        "104.28.152.2/31",
        "104.28.152.4/30",
        "104.28.152.8/31",
        "104.28.157.67/32",
        "104.28.157.207/32",
        "104.28.157.208/32",
        "104.28.158.196/32",
        "104.28.161.166/31",
        "104.28.193.195/32",
        "104.28.193.196/32",
        "104.28.203.9/32",
        "104.28.203.10/31",
        "104.28.203.12/30",
        "104.28.203.16/32",
        "104.28.214.26/31",
        "104.28.214.28/30",
        "104.28.214.32/31",
        "104.28.214.249/32",
        "104.28.214.250/31",
        "104.28.214.252/31",
        "104.28.214.254/32",
        "104.28.215.1/32",
        "104.28.215.2/32",
        "104.28.215.31/32",
        "104.28.215.32/30",
        "104.28.215.36/31",
        "104.28.215.38/32",
        "104.28.225.195/32",
        "104.28.225.196/32",
        "104.28.235.9/32",
        "104.28.235.10/31",
        "104.28.235.12/30",
        "104.28.235.16/32",
        "104.28.246.26/31",
        "104.28.246.28/30",
        "104.28.246.32/31",
        "104.28.246.249/32",
        "104.28.246.250/31",
        "104.28.246.252/31",
        "104.28.246.254/32",
        "104.28.247.1/32",
        "104.28.247.2/32",
        "104.28.247.31/32",
        "104.28.247.32/30",
        "104.28.247.36/31",
        "104.28.247.38/32",
        "104.29.52.0/24",
        "104.30.135.11/32",
        "104.30.135.12/32",
        "104.30.161.216/32",
        "104.30.176.37/32",
        "104.44.108.192/27",
        "104.132.186.0/24",
        "104.132.197.0/24",
        "104.132.202.0/24",
        "104.133.94.0/24",
        "104.133.166.0/24",
        "104.135.166.0/24",
        "104.234.7.0/24",
        "104.234.110.0/24",
        "104.239.28.0/24",
        "104.239.44.0/24",
        "104.239.88.0/24",
        "104.250.176.0/24",
        "108.163.82.0/24",
        "109.72.119.0/24",
        "110.238.64.0/22",
        "110.238.70.0/24",
        "119.8.144.0/20",
        "128.1.130.0/24",
        "128.77.78.64/26",
        "128.77.78.128/25",
        "128.77.117.0/26",
        "128.94.6.192/26",
        "128.94.8.0/25",
        "128.201.116.0/22",
        "128.201.224.0/22",
        "129.91.0.0/23",
        "129.91.2.0/24",
        "129.148.152.0/22",
        "129.149.32.0/21",
        "129.151.96.0/19",
        "129.222.168.0/21",
        "129.222.180.0/23",
        "129.222.214.0/23",
        "130.41.13.64/26",
        "130.41.69.224/27",
        "130.41.96.0/24",
        "130.41.100.0/25",
        "130.41.155.160/27",
        "130.41.229.0/24",
        "131.0.52.0/22",
        "131.0.108.0/22",
        "131.0.172.0/22",
        "131.72.232.0/21",
        "131.108.68.0/22",
        "131.108.208.0/22",
        "131.161.201.0/24",
        "131.161.202.0/23",
        "131.196.176.0/22",
        "131.221.32.0/22",
        "131.221.164.0/22",
        "131.228.197.48/29",
        "132.255.68.0/22",
        "132.255.236.0/22",
        "134.70.152.0/22",
        "134.171.80.0/20",
        "134.171.96.0/19",
        "134.171.128.0/17",
        "134.231.154.0/25",
        "134.238.158.0/24",
        "134.238.159.0/27",
        "134.238.230.0/26",
        "136.227.141.88/30",
        "136.227.141.92/31",
        "136.228.213.244/31",
        "136.228.213.246/32",
        "136.248.240.0/21",
        "138.0.12.0/22",
        "138.0.120.0/22",
        "138.36.252.0/22",
        "138.84.32.0/22",
        "138.84.37.0/24",
        "138.84.47.0/24",
        "138.99.177.0/24",
        "138.99.209.0/24",
        "138.99.224.0/22",
        "138.113.228.0/24",
        "138.117.68.0/22",
        "138.117.148.0/22",
        "138.121.96.0/22",
        "138.121.108.0/22",
        "138.121.168.0/22",
        "138.121.176.0/22",
        "138.185.12.0/24",
        "138.186.8.0/22",
        "138.186.120.0/22",
        "138.204.228.0/22",
        "138.219.56.0/27",
        "138.219.56.32/28",
        "138.219.56.48/29",
        "138.219.56.56/32",
        "138.219.56.58/31",
        "138.219.56.60/30",
        "138.219.56.64/26",
        "138.219.56.128/25",
        "138.219.57.0/24",
        "138.219.58.0/23",
        "138.219.228.0/22",
        "138.255.97.0/24",
        "138.255.100.0/22",
        "139.81.192.0/21",
        "139.104.223.0/24",
        "140.91.66.0/23",
        "140.91.244.0/23",
        "140.204.86.0/23",
        "140.204.88.0/23",
        "140.209.226.128/25",
        "140.248.25.6/31",
        "140.248.25.8/31",
        "140.248.32.2/31",
        "140.248.32.4/31",
        "140.248.56.45/32",
        "140.248.57.45/32",
        "140.248.58.45/32",
        "140.248.59.45/32",
        "140.248.60.45/32",
        "140.248.61.45/32",
        "140.248.62.45/32",
        "140.248.63.45/32",
        "141.101.100.0/24",
        "142.4.161.24/29",
        "142.4.161.224/29",
        "142.4.161.240/28",
        "142.4.162.0/29",
        "142.4.162.24/29",
        "142.4.162.32/28",
        "142.4.162.64/28",
        "143.202.12.0/22",
        "143.202.140.0/22",
        "143.208.52.0/22",
        "143.255.24.0/22",
        "143.255.104.0/22",
        "143.255.176.0/22",
        "144.22.32.0/19",
        "144.178.28.233/32",
        "145.34.32.0/21",
        "146.70.11.0/24",
        "146.75.179.6/31",
        "146.75.179.8/31",
        "146.75.191.6/31",
        "146.75.191.8/31",
        "146.75.232.8/30",
        "146.82.235.64/29",
        "146.83.0.0/16",
        "146.155.0.0/16",
        "146.235.240.0/21",
        "147.243.45.160/27",
        "147.243.45.192/26",
        "147.243.48.128/26",
        "147.243.48.192/27",
        "147.243.58.224/27",
        "147.243.59.0/27",
        "147.243.220.64/26",
        "147.243.220.128/25",
        "147.243.236.64/26",
        "148.143.127.0/24",
        "148.163.222.0/23",
        "148.222.135.0/24",
        "148.222.198.0/23",
        "148.222.200.0/21",
        "148.222.208.0/20",
        "148.222.224.0/24",
        "148.230.0.0/22",
        "148.253.47.0/24",
        "149.20.193.0/24",
        "149.78.188.0/23",
        "149.88.104.0/24",
        "149.115.124.0/24",
        "149.130.152.0/21",
        "149.130.224.0/19",
        "151.101.220.0/22",
        "152.53.30.0/24",
        "152.65.242.0/24",
        "152.74.0.0/16",
        "152.139.0.0/16",
        "152.172.0.0/14",
        "152.195.27.0/24",
        "152.230.0.0/16",
        "152.231.64.0/18",
        "154.16.154.0/24",
        "154.205.153.0/24",
        "155.190.2.61/32",
        "155.190.3.62/32",
        "155.190.15.23/32",
        "155.190.20.48/32",
        "155.190.20.52/32",
        "155.190.21.66/32",
        "155.190.28.42/31",
        "155.190.29.43/32",
        "155.190.29.44/32",
        "155.204.160.0/21",
        "156.97.0.0/16",
        "156.227.7.0/24",
        "156.245.0.0/24",
        "156.246.174.0/23",
        "157.5.124.85/32",
        "157.5.124.86/31",
        "157.5.124.88/29",
        "157.5.124.96/30",
        "157.5.124.100/31",
        "157.23.240.45/32",
        "157.23.241.45/32",
        "157.23.242.45/32",
        "157.23.243.47/32",
        "157.23.244.45/32",
        "157.30.20.0/22",
        "157.166.143.0/24",
        "157.166.188.0/24",
        "157.167.18.0/24",
        "157.167.27.0/24",
        "157.167.224.13/32",
        "157.167.224.14/32",
        "157.167.224.61/32",
        "157.167.225.13/32",
        "157.167.225.14/32",
        "157.167.225.61/32",
        "157.167.227.13/32",
        "157.167.227.14/32",
        "157.167.227.61/32",
        "157.167.231.35/32",
        "157.167.231.36/32",
        "157.167.231.186/32",
        "157.167.234.13/32",
        "157.167.234.14/32",
        "157.167.234.61/32",
        "157.185.186.0/24",
        "157.191.175.14/32",
        "157.191.175.78/32",
        "157.191.175.142/32",
        "157.191.243.14/32",
        "157.191.243.78/32",
        "157.191.243.142/32",
        "157.240.204.0/24",
        "158.170.0.0/16",
        "158.220.64.0/24",
        "158.251.0.0/16",
        "159.112.128.0/20",
        "159.112.144.0/21",
        "159.138.112.0/21",
        "160.19.200.0/22",
        "160.20.92.0/22",
        "160.20.188.0/22",
        "160.238.212.0/22",
        "160.238.252.0/22",
        "161.0.160.0/20",
        "161.0.184.0/21",
        "161.25.0.0/16",
        "161.69.50.13/32",
        "161.69.50.141/32",
        "161.69.53.25/32",
        "161.69.53.44/32",
        "161.69.54.25/32",
        "161.69.54.44/32",
        "161.69.57.25/32",
        "161.69.57.44/32",
        "161.69.59.25/32",
        "161.69.59.44/32",
        "161.69.60.25/32",
        "161.69.60.44/32",
        "161.69.63.13/32",
        "161.69.63.141/32",
        "161.69.90.25/32",
        "161.69.90.44/32",
        "161.69.91.25/32",
        "161.69.91.44/32",
        "161.69.92.25/32",
        "161.69.92.44/32",
        "161.69.101.13/32",
        "161.69.101.141/32",
        "161.69.103.13/32",
        "161.69.103.141/32",
        "161.69.105.13/32",
        "161.69.105.141/32",
        "161.69.107.13/32",
        "161.69.107.141/32",
        "161.69.113.25/32",
        "161.69.113.39/32",
        "161.69.114.25/32",
        "161.69.114.44/32",
        "161.69.116.25/32",
        "161.69.116.44/32",
        "161.69.122.19/32",
        "161.69.124.13/32",
        "161.69.124.141/32",
        "161.131.0.0/16",
        "161.238.0.0/16",
        "162.10.245.0/24",
        "162.158.30.0/24",
        "162.158.99.0/24",
        "162.158.225.0/24",
        "162.251.219.186/32",
        "163.116.224.93/32",
        "163.116.224.96/32",
        "163.116.225.94/32",
        "163.116.225.96/32",
        "163.116.227.0/26",
        "163.116.227.64/29",
        "163.116.227.72/30",
        "163.116.227.76/31",
        "163.116.227.78/32",
        "163.116.227.81/32",
        "163.116.227.82/31",
        "163.116.227.84/31",
        "163.116.227.86/32",
        "163.116.227.88/32",
        "163.116.227.96/27",
        "163.116.227.128/25",
        "163.116.229.106/32",
        "163.116.229.116/32",
        "163.247.0.0/16",
        "163.250.0.0/16",
        "164.77.0.0/16",
        "164.96.0.0/16",
        "164.98.0.0/16",
        "164.163.80.0/22",
        "164.163.88.0/22",
        "165.1.96.0/21",
        "165.1.104.0/22",
        "165.1.110.0/23",
        "165.1.112.0/22",
        "165.1.120.0/21",
        "165.1.221.65/32",
        "165.1.221.66/31",
        "165.1.221.68/30",
        "165.1.221.72/29",
        "165.1.221.80/28",
        "165.1.221.96/28",
        "165.1.221.112/29",
        "165.1.221.120/30",
        "165.1.221.124/31",
        "165.1.221.126/32",
        "165.1.223.97/32",
        "165.1.223.98/31",
        "165.1.223.100/30",
        "165.1.223.104/29",
        "165.1.223.112/29",
        "165.1.223.120/30",
        "165.1.223.124/31",
        "165.1.223.126/32",
        "165.1.247.1/32",
        "165.1.247.2/31",
        "165.1.247.4/30",
        "165.1.247.8/29",
        "165.1.247.16/29",
        "165.1.247.24/30",
        "165.1.247.28/31",
        "165.1.247.30/32",
        "165.1.247.225/32",
        "165.1.247.226/31",
        "165.1.247.228/30",
        "165.1.247.232/30",
        "165.1.247.236/31",
        "165.1.247.238/32",
        "165.85.32.128/26",
        "165.85.224.128/26",
        "165.85.238.160/27",
        "165.85.238.192/27",
        "165.85.245.128/26",
        "165.85.245.192/27",
        "165.87.36.48/29",
        "165.182.0.0/15",
        "166.1.16.0/24",
        "166.75.0.0/16",
        "166.110.0.0/16",
        "167.28.0.0/16",
        "167.86.51.0/24",
        "167.167.76.0/24",
        "167.249.29.0/24",
        "167.249.30.0/23",
        "167.250.52.0/22",
        "167.250.132.0/23",
        "167.250.196.0/23",
        "168.90.156.0/22",
        "168.90.220.0/22",
        "168.121.80.0/22",
        "168.149.132.192/27",
        "168.194.196.0/23",
        "168.194.199.0/24",
        "168.195.128.0/22",
        "168.196.2.0/24",
        "168.196.184.0/22",
        "168.196.200.0/22",
        "168.197.88.0/22",
        "168.205.204.0/22",
        "168.228.248.0/22",
        "168.231.0.0/16",
        "168.232.164.0/22",
        "168.235.197.0/24",
        "169.57.158.118/32",
        "169.224.176.192/26",
        "169.224.177.0/25",
        "169.224.177.128/26",
        "170.18.0.0/16",
        "170.78.112.0/22",
        "170.78.252.0/22",
        "170.79.40.0/22",
        "170.79.100.0/22",
        "170.79.232.0/22",
        "170.80.72.0/22",
        "170.81.28.0/22",
        "170.82.128.0/22",
        "170.82.188.0/22",
        "170.84.208.0/22",
        "170.150.120.0/22",
        "170.150.140.0/22",
        "170.150.156.0/22",
        "170.200.47.0/24",
        "170.200.48.0/24",
        "170.233.152.0/22",
        "170.233.192.0/22",
        "170.238.24.0/22",
        "170.238.32.0/22",
        "170.238.200.0/22",
        "170.239.64.0/22",
        "170.239.84.0/22",
        "170.239.152.0/23",
        "170.239.188.0/22",
        "170.245.48.0/22",
        "170.246.172.0/22",
        "170.247.92.0/22",
        "170.247.136.0/22",
        "170.247.164.0/22",
        "170.247.204.0/22",
        "170.247.216.0/22",
        "172.68.112.0/24",
        "172.69.56.0/24",
        "172.69.105.0/24",
        "172.70.137.0/24",
        "172.158.224.0/25",
        "172.158.225.128/25",
        "172.217.39.128/26",
        "172.224.71.0/24",
        "172.224.145.0/24",
        "172.225.82.96/27",
        "172.225.83.48/28",
        "172.225.84.48/28",
        "172.225.84.64/28",
        "172.225.84.152/29",
        "172.225.222.48/28",
        "172.225.222.64/28",
        "172.225.222.136/29",
        "172.225.238.80/28",
        "172.226.126.0/24",
        "172.235.114.0/23",
        "172.253.212.128/26",
        "172.253.219.0/25",
        "172.253.220.128/26",
        "173.194.91.0/24",
        "173.222.250.0/23",
        "173.223.36.0/22",
        "173.244.55.16/28",
        "174.35.92.0/24",
        "176.52.128.0/22",
        "176.52.136.0/21",
        "176.52.144.0/21",
        "176.52.156.0/22",
        "177.12.88.0/22",
        "177.128.112.0/22",
        "177.221.140.0/23",
        "178.130.21.0/24",
        "178.130.22.0/24",
        "178.171.36.0/24",
        "179.0.2.0/23",
        "179.0.8.0/24",
        "179.0.16.0/22",
        "179.0.152.0/23",
        "179.0.155.0/24",
        "179.1.176.0/20",
        "179.2.0.0/15",
        "179.4.0.0/16",
        "179.8.0.0/15",
        "179.49.208.0/22",
        "179.49.236.0/22",
        "179.51.168.0/22",
        "179.56.0.0/15",
        "179.60.64.0/19",
        "179.61.12.0/23",
        "179.61.96.0/20",
        "179.61.200.0/24",
        "179.63.224.0/21",
        "179.63.232.0/22",
        "179.63.244.0/22",
        "179.189.216.0/23",
        "179.189.220.0/23",
        "179.191.180.0/24",
        "181.42.0.0/15",
        "181.72.0.0/14",
        "181.78.30.0/24",
        "181.78.91.0/24",
        "181.114.232.0/21",
        "181.118.160.0/20",
        "181.160.0.0/14",
        "181.172.0.0/15",
        "181.177.220.0/22",
        "181.189.20.0/22",
        "181.190.0.0/16",
        "181.200.0.0/14",
        "181.212.0.0/16",
        "181.224.64.0/22",
        "181.225.112.0/20",
        "181.225.140.0/22",
        "181.225.144.0/21",
        "181.226.0.0/16",
        "181.232.148.0/22",
        "182.160.18.0/23",
        "182.160.20.0/22",
        "182.160.24.0/21",
        "184.24.176.0/20",
        "184.28.0.0/23",
        "185.9.3.0/24",
        "185.15.176.0/22",
        "185.56.162.0/28",
        "185.125.225.25/32",
        "185.125.225.39/32",
        "185.181.2.0/24",
        "185.197.24.0/23",
        "185.198.100.0/24",
        "185.198.102.0/23",
        "185.253.25.0/24",
        "186.1.146.0/24",
        "186.5.232.0/21",
        "186.9.0.0/16",
        "186.10.0.0/15",
        "186.20.0.0/15",
        "186.34.0.0/15",
        "186.36.0.0/15",
        "186.40.0.0/15",
        "186.64.112.0/21",
        "186.64.120.0/22",
        "186.65.72.0/21",
        "186.65.128.0/17",
        "186.67.0.0/16",
        "186.78.0.0/15",
        "186.103.128.0/17",
        "186.104.0.0/14",
        "186.148.0.0/18",
        "186.148.208.0/22",
        "186.156.0.0/16",
        "186.172.0.0/14",
        "186.179.80.0/20",
        "186.189.69.0/24",
        "186.189.70.0/23",
        "186.189.72.0/21",
        "186.189.80.0/20",
        "186.189.96.0/19",
        "186.190.236.0/22",
        "186.209.208.0/22",
        "186.250.152.168/30",
        "186.250.152.218/32",
        "186.250.153.0/29",
        "186.250.153.8/30",
        "186.250.153.16/28",
        "186.250.153.36/30",
        "186.250.153.40/29",
        "186.250.153.52/30",
        "186.250.153.56/29",
        "187.49.9.0/24",
        "187.86.195.0/24",
        "187.102.192.0/22",
        "187.103.20.0/22",
        "187.251.12.32/29",
        "187.251.13.154/32",
        "187.251.14.0/23",
        "189.45.240.0/23",
        "189.84.60.0/23",
        "189.126.8.0/23",
        "189.127.136.0/23",
        "190.2.88.0/21",
        "190.3.168.0/21",
        "190.3.176.0/21",
        "190.4.80.0/21",
        "190.4.96.0/20",
        "190.4.192.0/18",
        "190.5.32.0/19",
        "190.6.120.0/21",
        "190.7.65.0/24",
        "190.7.75.0/24",
        "190.8.64.0/18",
        "190.9.56.0/21",
        "190.12.168.0/21",
        "190.13.64.0/20",
        "190.13.116.0/22",
        "190.13.128.0/18",
        "190.14.19.0/24",
        "190.14.20.0/22",
        "190.14.24.0/21",
        "190.14.48.0/20",
        "190.20.0.0/15",
        "190.22.0.0/16",
        "190.44.0.0/14",
        "190.54.0.0/16",
        "190.61.56.0/24",
        "190.82.0.0/16",
        "190.83.124.0/22",
        "190.89.40.0/22",
        "190.91.0.0/16",
        "190.93.105.0/24",
        "190.93.228.0/22",
        "190.93.232.0/21",
        "190.95.0.0/17",
        "190.96.0.0/18",
        "190.96.64.0/19",
        "190.97.168.0/21",
        "190.98.143.68/30",
        "190.98.143.72/29",
        "190.98.143.80/31",
        "190.98.143.82/32",
        "190.98.143.87/32",
        "190.98.143.88/30",
        "190.98.158.0/29",
        "190.98.163.204/30",
        "190.98.163.212/30",
        "190.98.163.220/30",
        "190.98.163.228/30",
        "190.98.163.237/32",
        "190.98.163.238/31",
        "190.98.163.244/32",
        "190.98.177.181/32",
        "190.98.177.182/31",
        "190.98.177.188/30",
        "190.98.177.196/30",
        "190.98.192.0/18",
        "190.99.88.0/22",
        "190.100.0.0/15",
        "190.102.224.0/19",
        "190.103.108.136/29",
        "190.103.108.144/29",
        "190.105.239.0/24",
        "190.107.176.0/22",
        "190.107.224.0/21",
        "190.108.128.0/18",
        "190.110.96.0/20",
        "190.110.120.0/21",
        "190.110.128.0/19",
        "190.110.160.0/20",
        "190.112.48.0/22",
        "190.113.0.0/19",
        "190.113.244.0/22",
        "190.114.32.0/19",
        "190.114.252.0/22",
        "190.120.160.0/20",
        "190.120.230.0/24",
        "190.121.0.0/17",
        "190.124.24.0/22",
        "190.124.48.0/22",
        "190.151.0.0/17",
        "190.153.128.0/17",
        "190.160.0.0/14",
        "190.164.0.0/16",
        "190.171.64.0/22",
        "190.171.128.0/18",
        "190.180.192.0/18",
        "190.196.0.0/17",
        "190.196.128.0/18",
        "190.196.208.0/20",
        "190.208.0.0/17",
        "190.208.128.0/18",
        "190.208.192.0/20",
        "190.208.210.0/23",
        "190.208.212.0/22",
        "190.208.216.0/21",
        "190.208.224.0/19",
        "190.209.0.0/16",
        "190.211.0.0/18",
        "190.211.160.0/20",
        "190.211.248.0/22",
        "190.215.0.0/16",
        "190.216.144.0/21",
        "190.217.32.0/20",
        "190.217.128.0/17",
        "191.37.252.0/24",
        "191.96.184.0/24",
        "191.98.200.0/21",
        "191.102.32.0/22",
        "191.112.0.0/13",
        "191.124.0.0/14",
        "191.196.183.0/24",
        "192.12.118.0/24",
        "192.80.24.0/24",
        "192.140.56.0/22",
        "192.141.48.0/22",
        "192.141.64.0/22",
        "192.141.168.0/22",
        "192.153.119.0/24",
        "192.178.67.64/26",
        "192.178.104.32/32",
        "192.178.104.42/32",
        "192.203.158.0/24",
        "192.207.146.0/24",
        "192.229.136.0/24",
        "192.230.90.0/24",
        "192.231.110.0/24",
        "192.231.140.0/24",
        "192.245.60.0/24",
        "192.251.39.0/24",
        "192.253.247.0/24",
        "193.37.136.0/24",
        "193.105.176.0/24",
        "193.186.4.0/32",
        "193.186.4.8/29",
        "193.186.4.216/32",
        "193.186.4.251/32",
        "193.235.146.0/24",
        "194.50.99.46/32",
        "195.88.213.0/24",
        "196.19.228.0/22",
        "196.48.66.0/24",
        "196.56.66.0/24",
        "196.57.66.0/24",
        "196.58.66.0/24",
        "196.197.66.0/24",
        "196.198.66.0/24",
        "196.199.66.0/24",
        "198.2.16.0/20",
        "198.22.250.0/23",
        "198.41.32.0/21",
        "198.41.40.0/22",
        "198.41.44.0/23",
        "198.41.46.0/24",
        "198.145.153.0/24",
        "198.145.234.0/24",
        "199.33.70.0/24",
        "199.100.16.0/25",
        "199.100.16.128/27",
        "199.100.16.160/28",
        "199.100.16.184/29",
        "199.100.16.192/28",
        "199.100.16.208/29",
        "199.100.16.218/31",
        "199.100.16.224/27",
        "199.100.17.0/26",
        "199.100.17.64/28",
        "199.100.17.80/29",
        "199.100.17.90/31",
        "199.100.17.92/30",
        "199.103.102.0/24",
        "200.0.66.0/24",
        "200.0.82.0/24",
        "200.0.108.0/24",
        "200.0.115.0/24",
        "200.0.116.0/23",
        "200.0.120.0/22",
        "200.0.124.0/24",
        "200.0.140.0/23",
        "200.0.144.0/20",
        "200.0.160.0/22",
        "200.0.174.0/24",
        "200.1.16.0/20",
        "200.1.115.0/24",
        "200.1.120.0/22",
        "200.1.128.0/24",
        "200.1.130.0/23",
        "200.1.132.0/22",
        "200.1.136.0/21",
        "200.1.174.0/24",
        "200.2.0.0/21",
        "200.2.16.0/20",
        "200.2.72.0/21",
        "200.2.80.0/20",
        "200.2.96.0/22",
        "200.2.104.0/21",
        "200.2.112.0/21",
        "200.2.192.0/18",
        "200.3.208.0/21",
        "200.6.18.0/24",
        "200.6.33.0/24",
        "200.6.53.0/24",
        "200.6.54.0/24",
        "200.6.64.0/21",
        "200.6.72.0/22",
        "200.6.76.0/23",
        "200.6.78.0/24",
        "200.6.96.0/19",
        "200.7.4.0/22",
        "200.7.16.0/20",
        "200.7.186.0/24",
        "200.9.3.0/24",
        "200.9.64.0/24",
        "200.9.73.0/24",
        "200.9.79.0/24",
        "200.9.80.0/23",
        "200.9.97.0/24",
        "200.9.98.0/23",
        "200.9.100.0/23",
        "200.9.108.0/22",
        "200.9.114.0/24",
        "200.9.122.0/24",
        "200.9.128.0/24",
        "200.9.141.0/24",
        "200.9.142.0/24",
        "200.9.145.0/24",
        "200.9.146.0/24",
        "200.9.150.0/23",
        "200.9.152.0/23",
        "200.9.177.0/24",
        "200.9.178.0/23",
        "200.9.180.0/24",
        "200.9.193.0/24",
        "200.9.195.0/24",
        "200.9.196.0/23",
        "200.9.198.0/24",
        "200.9.201.0/24",
        "200.9.204.0/23",
        "200.9.215.0/24",
        "200.9.225.0/24",
        "200.9.228.0/24",
        "200.9.230.0/23",
        "200.9.232.0/23",
        "200.9.234.0/24",
        "200.9.238.0/23",
        "200.9.240.0/23",
        "200.9.247.0/24",
        "200.9.250.0/23",
        "200.10.0.0/22",
        "200.10.8.0/22",
        "200.10.12.0/23",
        "200.10.14.0/24",
        "200.10.16.0/21",
        "200.10.24.0/22",
        "200.10.158.0/24",
        "200.10.167.0/24",
        "200.10.168.0/22",
        "200.10.172.0/24",
        "200.10.182.0/24",
        "200.10.184.0/24",
        "200.10.190.0/24",
        "200.10.195.0/24",
        "200.10.208.0/24",
        "200.10.211.0/24",
        "200.10.220.0/22",
        "200.10.224.0/23",
        "200.10.226.0/24",
        "200.10.232.0/24",
        "200.10.234.0/24",
        "200.10.236.0/23",
        "200.10.238.0/24",
        "200.10.242.0/24",
        "200.10.251.0/24",
        "200.10.252.0/23",
        "200.10.255.0/24",
        "200.11.64.0/19",
        "200.11.96.0/21",
        "200.12.16.0/20",
        "200.12.129.0/24",
        "200.12.130.0/24",
        "200.12.132.0/24",
        "200.12.140.0/22",
        "200.12.144.0/23",
        "200.12.147.0/24",
        "200.12.148.0/22",
        "200.12.152.0/24",
        "200.12.171.0/24",
        "200.12.194.0/23",
        "200.13.0.0/21",
        "200.14.0.0/21",
        "200.14.64.0/21",
        "200.14.72.0/23",
        "200.14.76.0/23",
        "200.14.78.0/24",
        "200.14.80.0/23",
        "200.14.82.0/24",
        "200.14.84.0/22",
        "200.14.88.0/21",
        "200.14.96.0/21",
        "200.14.104.0/23",
        "200.14.107.0/24",
        "200.14.108.0/22",
        "200.14.114.0/23",
        "200.14.117.0/24",
        "200.14.118.0/24",
        "200.14.128.0/18",
        "200.14.192.0/21",
        "200.14.200.0/22",
        "200.14.204.0/24",
        "200.14.208.0/20",
        "200.14.224.0/22",
        "200.14.228.0/23",
        "200.14.230.0/24",
        "200.14.240.0/21",
        "200.14.248.0/22",
        "200.14.252.0/24",
        "200.14.254.0/23",
        "200.16.112.0/22",
        "200.22.0.0/16",
        "200.23.140.0/24",
        "200.23.206.0/24",
        "200.24.12.0/22",
        "200.24.124.0/22",
        "200.24.224.0/20",
        "200.25.20.0/22",
        "200.25.88.0/24",
        "200.27.0.0/16",
        "200.28.0.0/16",
        "200.29.0.0/18",
        "200.29.64.0/19",
        "200.29.128.0/18",
        "200.29.192.0/19",
        "200.29.224.0/21",
        "200.30.32.0/22",
        "200.30.60.0/22",
        "200.30.192.0/18",
        "200.31.32.0/19",
        "200.32.160.0/19",
        "200.35.156.0/22",
        "200.36.208.0/22",
        "200.39.136.0/22",
        "200.41.54.0/23",
        "200.41.94.0/23",
        "200.42.160.0/19",
        "200.49.16.0/21",
        "200.50.32.0/19",
        "200.50.96.0/19",
        "200.54.0.0/16",
        "200.55.192.0/19",
        "200.59.208.0/22",
        "200.63.56.0/21",
        "200.63.96.0/21",
        "200.68.0.0/18",
        "200.71.192.0/19",
        "200.72.0.0/16",
        "200.73.0.0/18",
        "200.73.64.0/19",
        "200.73.112.0/20",
        "200.73.208.0/21",
        "200.73.224.0/19",
        "200.74.0.0/17",
        "200.74.160.0/19",
        "200.75.0.0/19",
        "200.77.184.0/22",
        "200.83.0.0/16",
        "200.85.192.0/19",
        "200.86.0.0/16",
        "200.89.32.0/19",
        "200.89.64.0/20",
        "200.90.160.0/19",
        "200.90.192.0/18",
        "200.91.0.0/19",
        "200.91.40.0/21",
        "200.95.184.0/22",
        "200.104.0.0/16",
        "200.106.152.0/21",
        "200.108.120.116/30",
        "200.108.120.154/32",
        "200.108.121.218/32",
        "200.111.0.0/16",
        "200.112.0.0/17",
        "200.112.224.0/19",
        "200.113.0.0/17",
        "200.113.128.0/18",
        "200.114.64.0/20",
        "200.114.88.0/21",
        "200.115.184.0/24",
        "200.119.224.0/19",
        "200.120.0.0/16",
        "200.124.32.0/19",
        "200.126.32.0/20",
        "200.126.49.0/24",
        "200.126.50.0/23",
        "200.126.64.0/18",
        "200.150.240.0/22",
        "200.152.167.160/27",
        "200.152.167.192/26",
        "200.225.124.0/22",
        "201.71.0.0/26",
        "201.71.0.64/30",
        "201.71.0.68/31",
        "201.71.0.70/32",
        "201.71.0.72/29",
        "201.71.0.80/28",
        "201.71.0.96/30",
        "201.71.0.101/32",
        "201.71.0.102/32",
        "201.71.0.106/32",
        "201.71.0.109/32",
        "201.71.0.111/32",
        "201.71.0.115/32",
        "201.71.0.120/29",
        "201.71.0.128/29",
        "201.71.0.136/31",
        "201.71.0.138/32",
        "201.71.0.140/30",
        "201.71.0.144/28",
        "201.71.0.176/28",
        "201.71.0.192/28",
        "201.71.0.208/31",
        "201.71.0.210/32",
        "201.71.0.212/30",
        "201.71.0.216/29",
        "201.71.0.224/27",
        "201.71.1.0/24",
        "201.77.51.0/24",
        "201.94.148.0/22",
        "201.131.38.0/23",
        "201.148.104.0/22",
        "201.148.212.0/22",
        "201.150.28.0/22",
        "201.159.168.0/21",
        "201.186.0.0/15",
        "201.188.0.0/15",
        "201.214.0.0/15",
        "201.217.240.0/22",
        "201.217.248.0/21",
        "201.218.145.0/24",
        "201.218.147.0/24",
        "201.218.149.0/24",
        "201.218.152.0/24",
        "201.218.154.0/23",
        "201.219.128.0/19",
        "201.219.232.0/21",
        "201.220.27.0/24",
        "201.220.96.0/19",
        "201.220.224.0/19",
        "201.221.121.0/24",
        "201.221.123.0/24",
        "201.221.192.0/19",
        "201.222.44.0/22",
        "201.222.128.0/17",
        "201.223.0.0/16",
        "201.236.0.0/17",
        "201.236.128.0/18",
        "201.238.192.0/18",
        "201.239.0.0/16",
        "201.241.0.0/16",
        "201.246.0.0/16",
        "202.181.129.96/29",
        "202.181.133.192/28",
        "204.87.169.0/24",
        "204.119.24.0/24",
        "204.137.128.0/19",
        "204.199.128.0/20",
        "204.237.226.208/29",
        "205.178.147.0/24",
        "205.185.209.0/24",
        "206.0.32.0/19",
        "206.49.40.0/22",
        "206.49.216.0/21",
        "206.62.224.0/19",
        "206.84.0.0/20",
        "206.85.26.0/24",
        "207.223.101.128/29",
        "207.223.101.232/29",
        "207.223.102.64/29",
        "207.223.102.144/29",
        "207.223.103.32/29",
        "207.248.0.0/22",
        "207.248.102.0/24",
        "207.248.192.0/19",
        "208.56.41.0/24",
        "208.97.230.204/30",
        "208.97.230.224/30",
        "208.97.231.76/30",
        "208.97.231.100/30",
        "208.97.231.112/30",
        "208.97.231.224/29",
        "208.97.234.16/29",
        "208.97.241.248/29",
        "208.97.248.192/29",
        "208.111.129.0/24",
        "208.127.150.0/23",
        "209.14.248.0/23",
        "209.14.250.0/24",
        "209.88.102.0/24",
        "209.88.106.0/23",
        "209.88.108.0/23",
        "209.88.144.0/24",
        "209.88.159.0/24",
        "209.88.160.0/23",
        "209.88.170.0/24",
        "209.88.200.0/21",
        "209.120.208.64/29",
        "209.170.108.104/29",
        "209.199.24.224/27",
        "209.199.26.0/24",
        "209.199.27.0/28",
        "209.199.27.64/26",
        "209.199.27.128/26",
        "216.72.8.0/21",
        "216.72.16.0/21",
        "216.72.160.0/19",
        "216.73.159.0/24",
        "216.155.64.0/19",
        "216.241.0.0/19",
        "2001:470:5:1b::/64",
        "2001:470:5:29::/64",
        "2001:470:5:3b::/64",
        "2001:470:5:7b::/64",
        "2001:470:5:2f7::/64",
        "2001:470:5:2fa::/64",
        "2001:470:5:307::/64",
        "2001:470:5:328::/64",
        "2001:470:5:390::/64",
        "2001:470:5:394::/64",
        "2001:470:5:4a9::/64",
        "2001:470:5:4af::/64",
        "2001:470:5:50e::/64",
        "2001:470:5:531::/64",
        "2001:470:5:977::/64",
        "2001:470:8:321::/64",
        "2001:470:8:388::/64",
        "2001:470:8:ea7::/64",
        "2001:470:b:1a3::/64",
        "2001:470:d:141::/64",
        "2001:470:d:c37::/64",
        "2001:470:19:4b::/64",
        "2001:470:19:670::/64",
        "2001:470:19:e2a::/64",
        "2001:470:19:e44::/64",
        "2001:470:1d:2be::/64",
        "2001:470:1d:2f2::/64",
        "2001:470:1d:3c5::/64",
        "2001:470:1d:3cb::/64",
        "2001:470:1d:41f::/64",
        "2001:470:28:113::/64",
        "2001:470:36:4a5::/64",
        "2001:470:67:1b7::/64",
        "2001:470:6d:d0d::/64",
        "2001:470:6f:35d::/64",
        "2001:470:1969::/48",
        "2001:470:1f05:46c::/64",
        "2001:470:1f07:256::/64",
        "2001:470:1f07:370::/64",
        "2001:470:1f07:3cf::/64",
        "2001:470:1f07:46a::/64",
        "2001:470:1f07:753::/64",
        "2001:470:1f09:2b8::/64",
        "2001:470:1f0f:218::/64",
        "2001:470:1f13:236::/64",
        "2001:470:1f13:49e::/64",
        "2001:470:1f15:41c::/64",
        "2001:470:1f1b:733::/64",
        "2001:470:1f1d:255::/64",
        "2001:470:1f1f:12c::/64",
        "2001:470:1f2b:3::/64",
        "2001:470:1f2b:19::/64",
        "2001:470:1f2b:1e::/64",
        "2001:470:1f2b:36::/64",
        "2001:470:1f2b:74::/64",
        "2001:470:1f2b:87::/64",
        "2001:470:1f2b:97::/64",
        "2001:470:1f2b:d8::/64",
        "2001:470:1f2b:f7::/64",
        "2001:470:1f2b:10d::/64",
        "2001:470:1f2b:137::/64",
        "2001:470:1f2b:167::/64",
        "2001:470:1f2b:182::/64",
        "2001:470:1f2b:186::/64",
        "2001:470:1f2b:188::/63",
        "2001:470:1f2b:197::/64",
        "2001:470:1f2b:1d8::/64",
        "2001:470:1f2b:1db::/64",
        "2001:470:1f2b:1f5::/64",
        "2001:470:1f2b:1fc::/64",
        "2001:470:1f2b:21e::/64",
        "2001:470:1f2b:227::/64",
        "2001:470:1f2b:258::/64",
        "2001:470:1f2b:3f5::/64",
        "2001:470:1f2b:462::/64",
        "2001:470:4897::/48",
        "2001:470:8157::/48",
        "2001:470:893a::/48",
        "2001:470:8a04::/48",
        "2001:470:b139::/48",
        "2001:470:b22d::/48",
        "2001:470:b294::/48",
        "2001:470:d852::/48",
        "2001:470:d887::/48",
        "2001:470:d9a4::/48",
        "2001:470:d9c0::/48",
        "2001:470:dbdf::/48",
        "2001:470:e139::/48",
        "2001:470:e1dc::/48",
        "2001:470:fabf::/48",
        "2001:668:1f:fed2::/64",
        "2001:668:1f:fef9::/64",
        "2001:67c:a38:f056::/64",
        "2001:1310::/32",
        "2001:1398::/32",
        "2001:13b0:4000::/34",
        "2001:13b2:4000::/34",
        "2001:19f0:c800::/38",
        "2001:4860:7::/64",
        "2001:4860:7:305::/64",
        "2001:4860:7:705::/64",
        "2400:8800:e00f::/48",
        "2400:cb00:38::/48",
        "2400:cb00:110::/48",
        "2400:cb00:193::/48",
        "2400:cb00:219::/48",
        "2400:cb00:407::/48",
        "2400:cb00:622::/48",
        "2402:9e80:204::/48",
        "2405:f080:2000::/39",
        "2600:1419:200::/48",
        "2600:1419:2c00::/48",
        "2600:1419:9c00::/48",
        "2600:1806:27::/48",
        "2600:1901:4010::/44",
        "2600:3c0f:43::/48",
        "2600:3c12:900::/40",
        "2600:70ff:c802::/48",
        "2600:70ff:c804::/48",
        "2600:70ff:c835::/48",
        "2600:70ff:c842::/48",
        "2600:70ff:c852::/48",
        "2600:70ff:c8a8::/48",
        "2600:70ff:c8c3::/48",
        "2600:70ff:c8c6::/48",
        "2600:70ff:ca63::/48",
        "2600:9000:115e::/64",
        "2600:9000:1e85::/48",
        "2602:2a9:fb0::/44",
        "2602:fd50:f500::/45",
        "2602:fd50:f508::/47",
        "2602:fd50:f510::/45",
        "2602:fd50:f518::/47",
        "2602:fd50:f520::/45",
        "2602:fd50:f528::/47",
        "2602:fd50:f530::/45",
        "2602:fd50:f538::/47",
        "2602:fd50:f540::/45",
        "2602:fd50:f548::/47",
        "2602:fd50:f550::/45",
        "2602:fd50:f558::/47",
        "2602:fd50:f560::/45",
        "2602:fd50:f568::/47",
        "2602:fd50:f570::/45",
        "2602:fd50:f578::/47",
        "2602:fd50:f580::/45",
        "2602:fd50:f588::/47",
        "2602:fd50:f590::/45",
        "2602:fd50:f598::/47",
        "2602:fd50:f5a0::/45",
        "2602:fd50:f5a8::/47",
        "2602:fd50:f5b0::/45",
        "2602:fd50:f5b8::/47",
        "2602:fd50:f5c0::/45",
        "2602:fd50:f5c8::/47",
        "2602:fd50:f5d0::/45",
        "2602:fd50:f5d8::/47",
        "2602:fd50:f5e0::/45",
        "2602:fd50:f5e8::/47",
        "2602:fd50:f5f0::/45",
        "2602:fd50:f5f8::/47",
        "2602:fd50:f600::/45",
        "2602:fd50:f608::/47",
        "2602:fd50:f610::/45",
        "2602:fd50:f618::/47",
        "2602:fd50:f620::/45",
        "2602:fd50:f628::/47",
        "2602:fd50:f630::/45",
        "2602:fd50:f638::/47",
        "2602:fd50:f640::/45",
        "2602:fd50:f648::/47",
        "2602:fd50:f650::/45",
        "2602:fd50:f658::/47",
        "2602:fd50:f660::/45",
        "2602:fd50:f668::/47",
        "2602:fd50:f670::/45",
        "2602:fd50:f678::/47",
        "2602:fd50:f680::/45",
        "2602:fd50:f688::/47",
        "2602:fd50:f690::/45",
        "2602:fd50:f698::/47",
        "2602:fd50:f6a0::/45",
        "2602:fd50:f6a8::/47",
        "2602:fd50:f6b0::/45",
        "2602:fd50:f6b8::/47",
        "2602:fd50:f6c0::/45",
        "2602:fd50:f6c8::/47",
        "2602:fd50:f6d0::/45",
        "2602:fd50:f6d8::/47",
        "2602:fd50:f6e0::/45",
        "2602:fd50:f6e8::/47",
        "2602:fd50:f6f0::/45",
        "2602:fd50:f6f8::/47",
        "2602:fd50:f700::/45",
        "2602:fd50:f708::/47",
        "2602:fd50:f710::/45",
        "2602:fd50:f718::/47",
        "2602:fd50:f720::/45",
        "2602:fd50:f728::/47",
        "2602:fd50:f730::/45",
        "2602:fd50:f738::/47",
        "2602:fd50:f740::/45",
        "2602:fd50:f748::/47",
        "2602:fd50:f750::/45",
        "2602:fd50:f758::/47",
        "2602:fd50:f760::/45",
        "2602:fd50:f768::/47",
        "2602:fd50:f770::/45",
        "2602:fd50:f778::/47",
        "2602:fd50:f780::/45",
        "2602:fd50:f788::/47",
        "2602:fd50:f790::/45",
        "2602:fd50:f798::/47",
        "2602:fd50:f7a0::/45",
        "2602:fd50:f7a8::/47",
        "2602:fd50:f7b0::/45",
        "2602:fd50:f7b8::/47",
        "2602:fd50:f7c0::/45",
        "2602:fd50:f7c8::/47",
        "2602:fd50:f7d0::/45",
        "2602:fd50:f7d8::/47",
        "2602:fd50:f7e0::/45",
        "2602:fd50:f7e8::/47",
        "2602:fd50:f7f0::/45",
        "2602:fd50:f7f8::/47",
        "2602:fd50:f800::/45",
        "2602:fd50:f808::/47",
        "2602:fd50:f810::/45",
        "2602:fd50:f818::/47",
        "2602:fd50:f820::/45",
        "2602:fd50:f828::/47",
        "2602:fd50:f830::/45",
        "2602:fd50:f838::/47",
        "2602:fd50:f840::/45",
        "2602:fd50:f848::/47",
        "2602:fd50:f850::/45",
        "2602:fd50:f858::/47",
        "2602:fd50:f860::/45",
        "2602:fd50:f868::/47",
        "2602:fd50:f870::/45",
        "2602:fd50:f878::/47",
        "2602:fd50:f880::/45",
        "2602:fd50:f888::/47",
        "2602:fd50:f890::/45",
        "2602:fd50:f898::/47",
        "2602:fd50:f8a0::/45",
        "2602:fd50:f8a8::/47",
        "2602:fd50:f8b0::/45",
        "2602:fd50:f8b8::/47",
        "2602:fd50:f8c0::/45",
        "2602:fd50:f8c8::/47",
        "2602:fd50:f8d0::/45",
        "2602:fd50:f8d8::/47",
        "2602:fd50:f8e0::/45",
        "2602:fd50:f8e8::/47",
        "2602:fd50:f8f0::/45",
        "2602:fd50:f8f8::/47",
        "2602:fd50:f900::/45",
        "2602:fd50:f908::/47",
        "2602:fd50:f910::/45",
        "2602:fd50:f918::/47",
        "2602:fd50:f920::/45",
        "2602:fd50:f928::/47",
        "2602:fd50:f930::/45",
        "2602:fd50:f938::/47",
        "2602:fd50:f940::/45",
        "2602:fd50:f948::/47",
        "2602:fd50:f950::/45",
        "2602:fd50:f958::/47",
        "2602:fd50:f960::/45",
        "2602:fd50:f968::/47",
        "2602:fd50:f970::/45",
        "2602:fd50:f978::/47",
        "2602:fd50:f980::/45",
        "2602:fd50:f988::/47",
        "2602:fd50:f990::/45",
        "2602:fd50:f998::/47",
        "2602:fd50:f9a0::/45",
        "2602:fd50:f9a8::/47",
        "2602:fd50:f9b0::/45",
        "2602:fd50:f9b8::/47",
        "2602:fd50:f9c0::/45",
        "2602:fd50:f9c8::/47",
        "2602:fd50:f9d0::/45",
        "2602:fd50:f9d8::/47",
        "2602:fd50:f9e0::/45",
        "2602:fd50:f9e8::/47",
        "2602:fd50:f9f0::/45",
        "2602:fd50:f9f8::/47",
        "2602:fd59:12::/47",
        "2602:fd92:600:9::/64",
        "2602:fd92:b00:82::/64",
        "2602:fd92:b00:107::/64",
        "2602:fd92:b00:109::/64",
        "2602:feda:e31::/48",
        "2603:1016:400:8007::/64",
        "2603:1026:c00:34::/64",
        "2603:1050:210::/44",
        "2603:1050:300::/40",
        "2603:1056:100::/62",
        "2603:1056:100:4::/63",
        "2603:1056:600::/40",
        "2603:1056:c00:8004::/62",
        "2603:1056:c00:8008::/62",
        "2603:1056:c00:800c::/63",
        "2603:1056:c04::/48",
        "2603:1056:1401::/48",
        "2603:1057:0:20::/59",
        "2603:1057:200::/40",
        "2603:1058::/43",
        "2603:1059:1::/48",
        "2603:1059:10::/44",
        "2603:1059:400::/40",
        "2603:1061:1013::/59",
        "2603:1061:1013:20::/60",
        "2603:1061:1013:30::/61",
        "2603:1061:1013:38::/63",
        "2603:1061:1305:c00::/54",
        "2603:1061:1315:c00::/54",
        "2603:1061:13f5:c00::/54",
        "2603:1061:1600:1800::/56",
        "2603:1061:170b::/48",
        "2603:1061:2010:7::/64",
        "2603:1061:2011:7::/64",
        "2603:1062:6:380::/62",
        "2603:1062:6:384::/63",
        "2603:1063:2e::/48",
        "2603:1063:2001:1800::/56",
        "2603:c000:1700::/40",
        "2603:c000:2300::/40",
        "2603:c001:2e00::/39",
        "2603:c001:4400::/39",
        "2603:c002:1700::/40",
        "2603:c002:2200::/40",
        "2603:c002:9700::/40",
        "2603:c002:a400::/40",
        "2603:c012:e000::/36",
        "2603:c017:2000::/36",
        "2603:c025:c000::/35",
        "2603:c029:4000::/35",
        "2604:980:e005::/48",
        "2604:6840:fb00::/40",
        "2604:c980:800::/40",
        "2605:6440:7000::/36",
        "2605:6441:1000::/36",
        "2605:a7c0:292::/48",
        "2606:2800:700c::/47",
        "2606:2800:700f::/48",
        "2606:2800:e43a::/48",
        "2606:54c0:1e70::/44",
        "2606:54c0:1e80::/43",
        "2606:54c0:1ea0::/45",
        "2606:54c3:0:366::/64",
        "2606:54c3:0:752::/64",
        "2606:54c3:0:777::/64",
        "2606:54c3:0:841::/64",
        "2606:54c3:0:c19::/64",
        "2606:54c3:0:1153::/64",
        "2606:54c3:0:193e::/64",
        "2606:82c0:d000::/36",
        "2606:82c0:e00d::/48",
        "2606:f4c0:25f0::/44",
        "2607:740:39::/48",
        "2607:6b80:29::/48",
        "2607:8940:4200:5500::/56",
        "2607:8940:4200:5600::/55",
        "2607:8940:4200:5800::/53",
        "2607:8940:4200:6000::/54",
        "2607:8940:4200:6400::/55",
        "2607:f4e8:14::/48",
        "2607:f740:56::/48",
        "2620:0:876:7300::/56",
        "2620:0:103f::/48",
        "2620:0:10e6::/48",
        "2620:15c:b8::/47",
        "2620:15c:d3::/48",
        "2800:8::/32",
        "2800:150::/32",
        "2800:160::/32",
        "2800:1b0::/32",
        "2800:1e0:1060:3::/64",
        "2800:1e0:1710::/44",
        "2800:1f0::/32",
        "2800:270::/32",
        "2800:290::/32",
        "2800:300::/32",
        "2800:330::/32",
        "2800:3b0::/32",
        "2800:3f0:4003::/48",
        "2800:460::/32",
        "2800:4c0::/32",
        "2800:4d0::/32",
        "2800:4e0::/32",
        "2800:540::/32",
        "2800:550::/32",
        "2800:590::/32",
        "2800:670::/32",
        "2800:8e0::/32",
        "2800:8f0::/32",
        "2800:990::/32",
        "2800:a60::/32",
        "2800:ba0:20::/48",
        "2800:be0::/32",
        "2801:0:10::/48",
        "2801:0:50::/48",
        "2801:0:b0::/45",
        "2801:0:120::/48",
        "2801:0:150::/48",
        "2801:0:380::/48",
        "2801:0:400::/48",
        "2801:2::/32",
        "2801:10:8800::/48",
        "2801:11:b800::/48",
        "2801:12:800::/48",
        "2801:12:3000::/48",
        "2801:13:4000::/48",
        "2801:14:1000::/48",
        "2801:14:7000::/48",
        "2801:14:9000::/48",
        "2801:15:7800::/48",
        "2801:15:d000::/48",
        "2801:15:f000::/48",
        "2801:16:b000::/48",
        "2801:17::/48",
        "2801:17:3000::/48",
        "2801:18:2800::/48",
        "2801:19:2000::/48",
        "2801:1a:1000::/48",
        "2801:1a:8000::/48",
        "2801:1b:1000::/48",
        "2801:1b:4000::/48",
        "2801:1b:6000::/48",
        "2801:1b:8000::/48",
        "2801:1b:9000::/48",
        "2801:1b:b000::/48",
        "2801:1c:5000::/48",
        "2801:1d:7000::/48",
        "2801:1d:a800::/48",
        "2801:1e:f000::/48",
        "2801:1f:1800::/48",
        "2801:1f:a000::/48",
        "2801:1f:b000::/48",
        "2801:161::/44",
        "2801:198::/32",
        "2801:1f0:4008::/47",
        "2801:1f0:4014::/47",
        "2801:1f0:4018::/47",
        "2801:1f0:403e::/47",
        "2801:1f0:4040::/46",
        "2803:50::/32",
        "2803:150::/32",
        "2803:380::/32",
        "2803:410::/32",
        "2803:420::/32",
        "2803:4e0::/32",
        "2803:610::/32",
        "2803:940::/32",
        "2803:aa0::/32",
        "2803:ac0::/32",
        "2803:b90::/32",
        "2803:c10::/32",
        "2803:cc0::/32",
        "2803:d60::/32",
        "2803:e00::/32",
        "2803:ec0::/32",
        "2803:f20::/32",
        "2803:1020::/32",
        "2803:1150::/32",
        "2803:1200::/32",
        "2803:12a0::/32",
        "2803:1340::/32",
        "2803:17c0::/32",
        "2803:1ca0::/32",
        "2803:2120::/32",
        "2803:2210::/32",
        "2803:2260::/32",
        "2803:2350::/32",
        "2803:23a0::/32",
        "2803:25c0::/32",
        "2803:2660::/32",
        "2803:2790::/32",
        "2803:2800::/32",
        "2803:2860::/32",
        "2803:28a0::/32",
        "2803:29e0::/32",
        "2803:2aa0::/32",
        "2803:2bc0::/32",
        "2803:2d40::/32",
        "2803:2de0::/32",
        "2803:2e50::/32",
        "2803:2ea0::/32",
        "2803:2f80::/32",
        "2803:3160::/32",
        "2803:3320::/32",
        "2803:3410::/32",
        "2803:3440::/32",
        "2803:34c0::/32",
        "2803:3510::/32",
        "2803:36c0::/32",
        "2803:3760::/32",
        "2803:3800::/32",
        "2803:3810::/32",
        "2803:39a0::/32",
        "2803:39c0::/32",
        "2803:3a40::/32",
        "2803:3ae0::/32",
        "2803:3b20::/32",
        "2803:3b80::/32",
        "2803:3c80::/32",
        "2803:3c90::/32",
        "2803:3cc0::/32",
        "2803:4050::/32",
        "2803:4060::/32",
        "2803:4120::/32",
        "2803:41c0::/32",
        "2803:4200::/32",
        "2803:42a0::/32",
        "2803:43a0::/32",
        "2803:43c0::/32",
        "2803:43e0::/32",
        "2803:4410::/32",
        "2803:4580:fff0::/44",
        "2803:4640::/32",
        "2803:46a0::/32",
        "2803:4720::/32",
        "2803:4960::/32",
        "2803:49a0::/32",
        "2803:4a40::/32",
        "2803:4aa0::/32",
        "2803:4c10::/32",
        "2803:4d00::/32",
        "2803:4ea0::/32",
        "2803:4f90::/32",
        "2803:5010::/32",
        "2803:5200::/34",
        "2803:5200:4000::/35",
        "2803:5200:6000::/38",
        "2803:5200:6400::/44",
        "2803:5200:6410::/47",
        "2803:5200:6413::/48",
        "2803:5200:6414::/46",
        "2803:5200:6418::/45",
        "2803:5200:6420::/43",
        "2803:5200:6440::/42",
        "2803:5200:6480::/41",
        "2803:5200:6500::/40",
        "2803:5200:6600::/39",
        "2803:5200:6800::/37",
        "2803:5200:7000::/36",
        "2803:5200:8000::/33",
        "2803:54a0::/32",
        "2803:56c0::/32",
        "2803:5710::/32",
        "2803:5b20::/32",
        "2803:5c80::/34",
        "2803:5c80:4000::/36",
        "2803:5c80:5000::/42",
        "2803:5c80:5040::/44",
        "2803:5c80:5050::/48",
        "2803:5c80:5052::/47",
        "2803:5c80:5055::/48",
        "2803:5c80:5056::/48",
        "2803:5c80:5058::/45",
        "2803:5c80:5060::/43",
        "2803:5c80:5080::/41",
        "2803:5c80:5100::/40",
        "2803:5c80:5200::/39",
        "2803:5c80:5400::/38",
        "2803:5c80:5800::/37",
        "2803:5c80:6000::/35",
        "2803:5c80:8000::/42",
        "2803:5c80:8040::/44",
        "2803:5c80:8050::/46",
        "2803:5c80:8055::/48",
        "2803:5c80:8056::/47",
        "2803:5c80:8058::/45",
        "2803:5c80:8060::/43",
        "2803:5c80:8080::/41",
        "2803:5c80:8100::/40",
        "2803:5c80:8200::/39",
        "2803:5c80:8400::/38",
        "2803:5c80:8800::/37",
        "2803:5c80:9000::/36",
        "2803:5c80:a000::/35",
        "2803:5c80:c000::/34",
        "2803:5ce0:400::/40",
        "2803:5e40::/32",
        "2803:60c0::/32",
        "2803:6200::/32",
        "2803:62e0::/32",
        "2803:6360::/32",
        "2803:64a0::/32",
        "2803:6580::/32",
        "2803:65c0::/32",
        "2803:65e0::/32",
        "2803:6690::/32",
        "2803:66a0::/32",
        "2803:67a0::/32",
        "2803:6a10::/32",
        "2803:6a20::/32",
        "2803:6c20::/32",
        "2803:6f00::/32",
        "2803:6f20::/32",
        "2803:7090::/32",
        "2803:7210::/32",
        "2803:7450::/32",
        "2803:7500::/32",
        "2803:76a0::/32",
        "2803:79e0::/32",
        "2803:7a20::/32",
        "2803:7aa0::/32",
        "2803:7b00::/32",
        "2803:7b40::/32",
        "2803:7b50::/32",
        "2803:7ca0::/32",
        "2803:7ce0::/32",
        "2803:7d50::/32",
        "2803:7da0:a::/48",
        "2803:8140::/32",
        "2803:8150::/32",
        "2803:8180::/32",
        "2803:8240::/32",
        "2803:8260::/32",
        "2803:8320::/32",
        "2803:8390::/32",
        "2803:83a0::/32",
        "2803:8540::/32",
        "2803:85a0::/32",
        "2803:8860::/32",
        "2803:8940::/32",
        "2803:89e0::/32",
        "2803:8e00::/32",
        "2803:8e40::/32",
        "2803:9050::/32",
        "2803:91a0::/32",
        "2803:91e0::/32",
        "2803:9380::/32",
        "2803:95c0::/32",
        "2803:9810::/35",
        "2803:9810:2000::/36",
        "2803:9810:3000::/40",
        "2803:9810:3200::/40",
        "2803:9810:3400::/38",
        "2803:9810:3800::/37",
        "2803:9810:4800::/37",
        "2803:9810:5800::/37",
        "2803:9810:62c0::/42",
        "2803:9810:6400::/38",
        "2803:9810:6800::/37",
        "2803:9810:7400::/38",
        "2803:9810:7800::/37",
        "2803:9810:8400::/38",
        "2803:9810:8800::/37",
        "2803:9810:9100::/40",
        "2803:9810:9200::/39",
        "2803:9810:9400::/38",
        "2803:9810:9800::/37",
        "2803:9810:a800::/37",
        "2803:9810:b500::/40",
        "2803:9810:b600::/39",
        "2803:9810:b800::/37",
        "2803:9810:c000::/34",
        "2803:98e0::/32",
        "2803:9b60::/32",
        "2803:9bc0::/32",
        "2803:9c50::/32",
        "2803:9e80::/32",
        "2803:9ee0::/32",
        "2803:9fe0::/32",
        "2803:a090::/32",
        "2803:a100::/32",
        "2803:a2c0::/32",
        "2803:a410:9012::/48",
        "2803:a410:9191::/48",
        "2803:a510::/32",
        "2803:a5a0::/32",
        "2803:a960::/32",
        "2803:a980::/32",
        "2803:a9e0::/32",
        "2803:aa00::/32",
        "2803:ab40::/32",
        "2803:aba0:2100::/40",
        "2803:b110::/32",
        "2803:b180::/32",
        "2803:b1c0::/32",
        "2803:b280::/32",
        "2803:b3c0::/32",
        "2803:b480::/32",
        "2803:b660::/32",
        "2803:b9a0::/32",
        "2803:b9c0:9600::/40",
        "2803:b9e0::/32",
        "2803:baa0::/32",
        "2803:bca0::/32",
        "2803:bd20::/32",
        "2803:bde0::/32",
        "2803:be60::/32",
        "2803:c120::/32",
        "2803:c180::/32",
        "2803:c2a0::/32",
        "2803:c600::/32",
        "2803:c690::/32",
        "2803:c8a0::/32",
        "2803:c910::/32",
        "2803:c950::/32",
        "2803:c980::/32",
        "2803:c9a0::/32",
        "2803:ca80::/32",
        "2803:cca0::/32",
        "2803:cd50::/32",
        "2803:cf20::/32",
        "2803:cfe0::/32",
        "2803:d0a0::/32",
        "2803:d140::/32",
        "2803:d1c0::/32",
        "2803:d2a0::/32",
        "2803:d3c0::/32",
        "2803:d3e0::/32",
        "2803:d580::/32",
        "2803:d5a0::/32",
        "2803:d780::/32",
        "2803:d7e0::/32",
        "2803:d860::/32",
        "2803:d9c0::/32",
        "2803:db80::/32",
        "2803:dbe0::/32",
        "2803:dc60::/32",
        "2803:dca0::/32",
        "2803:dfe0::/32",
        "2803:e180::/32",
        "2803:e260::/32",
        "2803:e320::/32",
        "2803:e4c0::/32",
        "2803:e690::/32",
        "2803:e7a0::/32",
        "2803:e7c0::/32",
        "2803:e7e0::/32",
        "2803:e800::/32",
        "2803:e8a0::/32",
        "2803:e8c0::/32",
        "2803:e8e0::/32",
        "2803:e920::/32",
        "2803:eae0::/32",
        "2803:eb80:8000::/33",
        "2803:ecc0::/32",
        "2803:ed80::/32",
        "2803:ef80::/32",
        "2803:ef90::/32",
        "2803:f390::/32",
        "2803:f3a0::/32",
        "2803:f4a0::/32",
        "2803:f5a0::/32",
        "2803:f810::/32",
        "2803:f8a0::/32",
        "2803:f980::/32",
        "2803:fae0::/32",
        "2803:fcc0::/32",
        "2803:fd80::/32",
        "2803:fda0::/32",
        "2803:ffc0::/32",
        "2804:cf8:f::/48",
        "2804:5330:100::/48",
        "2a00:11c0:18::/48",
        "2a00:11c0:9021::/48",
        "2a00:1d26::/34",
        "2a00:79e0:ffe2:b500::/56",
        "2a00:79e0:ffe3:9b00::/56",
        "2a00:79e0:ffe3:f100::/56",
        "2a00:79e0:ffe4:a700::/56",
        "2a00:79e0:ffe4:a900::/56",
        "2a00:79e1:abc:3200::/56",
        "2a00:79e1:abc:6300::/56",
        "2a00:79e1:abc:af00::/56",
        "2a00:79e1:abd:6100::/56",
        "2a00:79e1:abe:1b00::/56",
        "2a00:79e1:f002:3300::/56",
        "2a00:86c0:2060::/48",
        "2a01:111:2053:2100::/56",
        "2a01:111:f400:2cc1::/64",
        "2a01:111:f400:2cc2::/63",
        "2a01:111:f400:2cc4::/62",
        "2a01:111:f400:2db8::/64",
        "2a01:111:f400:2f5c::/62",
        "2a01:111:f400:2f60::/60",
        "2a01:111:f400:603e::/63",
        "2a01:111:f400:6040::/63",
        "2a01:111:f400:6099::/64",
        "2a01:111:f402:f15f::/64",
        "2a01:111:f402:f160::/64",
        "2a01:111:f403:726c::/64",
        "2a01:111:f403:726f::/64",
        "2a01:ce90:9000::/36",
        "2a02:26f7:70::/48",
        "2a02:26f7:f9::/48",
        "2a02:26f7:d940::/54",
        "2a02:26f7:d940:400::/56",
        "2a02:26f7:d940:500::/60",
        "2a02:26f7:d940:4000::/64",
        "2a02:26f7:d940:4280::/58",
        "2a02:26f7:d940:d700::/63",
        "2a02:26f7:d940:d702::/64",
        "2a02:26f7:d941:4000::/64",
        "2a02:26f7:d944::/54",
        "2a02:26f7:d944:400::/56",
        "2a02:26f7:d944:500::/60",
        "2a02:26f7:d944:4000::/64",
        "2a02:26f7:d944:4280::/58",
        "2a02:26f7:d944:d700::/63",
        "2a02:26f7:d944:d702::/64",
        "2a02:26f7:d945:4000::/64",
        "2a02:26f7:d948::/54",
        "2a02:26f7:d948:400::/56",
        "2a02:26f7:d948:500::/60",
        "2a02:26f7:d948:4000::/64",
        "2a02:26f7:d948:4280::/58",
        "2a02:26f7:d948:d700::/63",
        "2a02:26f7:d948:d702::/64",
        "2a02:26f7:d949:4000::/64",
        "2a02:26f7:d94c::/54",
        "2a02:26f7:d94c:400::/56",
        "2a02:26f7:d94c:500::/60",
        "2a02:26f7:d94c:4000::/64",
        "2a02:26f7:d94c:4280::/58",
        "2a02:26f7:d94c:d700::/63",
        "2a02:26f7:d94c:d702::/64",
        "2a02:26f7:d94d:4000::/64",
        "2a02:26f7:eb00:4000::/64",
        "2a02:26f7:eb01:4000::/64",
        "2a02:26f7:eb04:4000::/64",
        "2a02:26f7:eb05:4000::/64",
        "2a02:26f7:eb08:4000::/64",
        "2a02:26f7:eb09:4000::/64",
        "2a02:5740:66::/48",
        "2a02:5741:66::/48",
        "2a02:5742:66::/48",
        "2a02:5743:66::/48",
        "2a02:5744:66::/48",
        "2a02:5745:66::/48",
        "2a02:5746:66::/48",
        "2a02:5747:66::/48",
        "2a02:6ea0:fc00::/40",
        "2a03:f80:56::/48",
        "2a03:2880:f047::/48",
        "2a03:2880:f147::/48",
        "2a03:2880:f247::/48",
        "2a03:90c0:590::/44",
        "2a04:4e40:9c00::/48",
        "2a04:4e41:5:5::/64",
        "2a04:4e41:5:1400::/56",
        "2a04:4e41:1f:3::/64",
        "2a04:4e41:1f:4::/64",
        "2a04:4e41:1f:1200::/56",
        "2a04:4e41:2b:3::/64",
        "2a04:4e41:2b:4::/64",
        "2a04:4e41:2b:1200::/56",
        "2a04:4e41:5e:3::/64",
        "2a04:4e41:5e:4::/64",
        "2a04:4e41:5e:1200::/56",
        "2a04:4e41:63:1::/64",
        "2a04:4e41:63:2::/64",
        "2a04:4e41:63:1100::/56",
        "2a04:4e41:4012:d000::/52",
        "2a04:4e41:4022:d000::/52",
        "2a04:4e41:4032:d000::/52",
        "2a04:4e41:4042:d000::/52",
        "2a04:4e41:4052:d000::/52",
        "2a04:4e41:4062:d000::/52",
        "2a04:4e41:4072:d000::/52",
        "2a04:4e41:4082:d000::/52",
        "2a04:4e42:34::/48",
        "2a04:4e42:1034::/48",
        "2a04:4e42:2034::/48",
        "2a04:4e42:3034::/48",
        "2a04:4e42:4034::/48",
        "2a04:4e42:5034::/48",
        "2a04:4e42:6034::/48",
        "2a04:4e42:7034::/48",
        "2a04:4e42:8034::/48",
        "2a04:4e42:9034::/48",
        "2a04:4e42:a034::/48",
        "2a04:4e42:b034::/48",
        "2a04:4e42:c034::/48",
        "2a04:4e42:f034::/48",
        "2a05:dfc1:5a37::/48",
        "2a06:a006::/32",
        "2a09:54c1:82::/48",
        "2a09:54c1:107::/48",
        "2a09:54c1:109::/48",
        "2a09:bac0:38::/48",
        "2a09:bac0:193::/48",
        "2a09:bac0:407::/48",
        "2a09:bac0:1000:18c::/64",
        "2a09:bac0:1000:46a::/63",
        "2a09:bac0:1000:6ad::/64",
        "2a09:bac0:1001:2eb::/64",
        "2a09:bac0:1001:ec9::/64",
        "2a09:bac1:1880::/64",
        "2a09:bac1:1880:8::/64",
        "2a09:bac1:1880:10::/64",
        "2a09:bac1:1880:18::/64",
        "2a09:bac1:1880:20::/64",
        "2a09:bac1:1880:28::/64",
        "2a09:bac1:1880:b20::/64",
        "2a09:bac1:1880:f18::/64",
        "2a09:bac1:18a0::/64",
        "2a09:bac1:18a0:8::/64",
        "2a09:bac1:18a0:10::/64",
        "2a09:bac1:18a0:18::/64",
        "2a09:bac1:18a0:20::/64",
        "2a09:bac1:18a0:28::/64",
        "2a09:bac1:18a0:b20::/64",
        "2a09:bac1:18a0:f18::/64",
        "2a09:bac1:18c0::/64",
        "2a09:bac1:18c0:8::/64",
        "2a09:bac1:18c0:10::/64",
        "2a09:bac1:18c0:18::/64",
        "2a09:bac1:18c0:20::/64",
        "2a09:bac1:18c0:28::/64",
        "2a09:bac1:18c0:b20::/64",
        "2a09:bac1:18c0:f18::/64",
        "2a09:bac1:18e0::/64",
        "2a09:bac1:18e0:8::/64",
        "2a09:bac1:18e0:10::/64",
        "2a09:bac1:18e0:18::/64",
        "2a09:bac1:18e0:20::/64",
        "2a09:bac1:18e0:28::/64",
        "2a09:bac1:18e0:b20::/64",
        "2a09:bac1:18e0:f18::/64",
        "2a09:bac2:1e70::/44",
        "2a09:bac2:1e80::/43",
        "2a09:bac2:1ea0::/45",
        "2a09:bac3:1e70::/44",
        "2a09:bac3:1e80::/43",
        "2a09:bac3:1ea0::/45",
        "2a09:bac4:168::/45",
        "2a09:bac4:1168::/45",
        "2a09:bac5:1ea0::/43",
        "2a09:bac5:1ec0::/44",
        "2a09:bac5:1ed0::/45",
        "2a09:bac6:1ea0::/43",
        "2a09:bac6:1ec0::/44",
        "2a09:bac6:1ed0::/45",
        "2a09:be41:7000::/39",
        "2a09:be41:7200::/40",
        "2a09:be41:e200::/39",
        "2a09:be41:e400::/40",
        "2a09:be43:6e00::/39",
        "2a09:be43:7000::/39",
        "2a09:be43:7200::/40",
        "2a09:be43:e200::/39",
        "2a09:be43:e400::/40",
        "2a09:be45:6e00::/39",
        "2a09:be45:7000::/39",
        "2a09:be45:7200::/40",
        "2a09:be45:e200::/39",
        "2a09:be45:e400::/40",
        "2a0a:6044:689a::/47",
        "2a0a:6044:689c::/46",
        "2a0a:6044:68a0::/45",
        "2a0a:6044:68a8::/48",
        "2a0a:6044:6c5e::/47",
        "2a0a:6044:6c60::/45",
        "2a0a:6044:6c68::/46",
        "2a0a:6044:6c6c::/48",
        "2a0a:6044:a142:6973::/64",
        "2a0a:6044:f89a::/47",
        "2a0a:6044:f89c::/46",
        "2a0a:6044:f8a0::/45",
        "2a0a:6044:f8a8::/48",
        "2a0a:6044:fc5e::/47",
        "2a0a:6044:fc60::/45",
        "2a0a:6044:fc68::/46",
        "2a0a:6044:fc6c::/48",
        "2a0a:a701::/32",
        "2a0a:e201:1126::/48",
        "2a0a:e201:1226::/48",
        "2a0a:e201:1426::/48",
        "2a0a:e201:1525::/48",
        "2a0a:e201:1626::/48",
        "2a0a:e201:1726::/48",
        "2a0a:e201:1926::/48",
        "2a0a:e201:1c26::/48",
        "2a0c:3b80:434c::/48",
        "2a0c:3b80:636c::/48",
        "2a0c:9a40:95b2:c000::/52",
        "2a0c:9e06:82::/48",
        "2a0c:9e06:107::/48",
        "2a0c:9e06:109::/48",
        "2a0e:4207::/32",
        "2a0e:48c2:6e00::/39",
        "2a0e:48c2:7000::/39",
        "2a0e:48c2:7200::/40",
        "2a0e:48c2:e200::/39",
        "2a0e:48c2:e400::/40",
        "2a0e:b107:ba7::/48",
        "2a0e:ec05:3700::/40",
        "2a0e:ec05:3800::/40",
        "2a0e:ec05:3900::/41",
        "2a0e:ec05:70c0::/42",
        "2a0e:ec05:7100::/40",
        "2a0e:ec05:7200::/42",
        "2a0f:85c1:265::/48",
        "2a0f:9400:7816::/47",
        "2a10:7405::/32",
        "2a10:9007:3:2::/64",
        "2a12:3c83::/32",
        "2a12:49c0:6e00::/39",
        "2a12:49c0:7000::/39",
        "2a12:49c0:7200::/40",
        "2a12:49c0:e200::/39",
        "2a12:49c0:e400::/40",
        "2a12:49c2:6e00::/39",
        "2a12:49c2:7000::/39",
        "2a12:49c2:7200::/40",
        "2a12:49c2:e200::/39",
        "2a12:49c2:e400::/40",
        "2a12:49c4:2dc0::/42",
        "2a12:49c4:2e00::/42",
        "2a12:49c4:2e40::/43",
        "2a12:49c4:3c40::/42",
        "2a12:49c4:3c80::/43",
        "2a12:49c4:6e00::/39",
        "2a12:49c4:7000::/39",
        "2a12:49c4:7200::/40",
        "2a12:49c4:e200::/39",
        "2a12:49c4:e400::/40",
        "2a14:1c0::/37"
      ]
    }
  ]
}
