{
  "version": 1,
  "rules": [
    {
      "ip_cidr": [
        "2.59.172.0/23",
        "5.62.56.69/32",
        "5.62.56.70/31",
        "5.62.58.65/32",
        "5.62.58.66/31",
        "8.29.109.25/32",
        "8.29.228.23/32",
        "8.242.196.0/26",
        "8.242.196.64/27",
        "8.242.196.96/29",
        "8.242.196.112/28",
        "8.242.196.128/25",
        "8.242.197.0/24",
        "8.242.198.0/23",
        "8.243.238.116/31",
        "8.243.238.160/30",
        "8.243.238.188/31",
        "8.243.240.0/21",
        "17.118.120.0/22",
        "23.15.244.0/24",
        "23.79.232.0/24",
        "34.99.96.0/22",
        "34.99.116.0/23",
        "34.99.126.0/24",
        "38.82.20.192/29",
        "38.88.56.248/29",
        "38.172.40.0/21",
        "38.188.192.0/21",
        "38.188.204.0/23",
        "38.188.206.0/24",
        "38.196.150.0/23",
        "38.210.160.0/21",
        "38.224.22.0/24",
        "38.252.81.0/24",
        "38.254.0.0/21",
        "45.5.60.0/22",
        "45.65.188.0/22",
        "45.138.10.232/30",
        "45.160.132.0/22",
        "45.162.204.0/22",
        "45.163.136.0/22",
        "45.167.17.0/24",
        "45.167.196.0/22",
        "45.168.196.0/22",
        "45.182.43.0/24",
        "45.185.43.0/24",
        "45.188.216.0/23",
        "45.195.15.0/24",
        "45.224.202.0/24",
        "45.226.64.0/22",
        "45.227.200.0/22",
        "45.229.151.0/24",
        "45.229.246.0/24",
        "45.229.252.0/22",
        "45.231.52.0/22",
        "45.232.116.0/22",
        "45.239.64.0/22",
        "57.74.80.0/22",
        "57.75.224.0/20",
        "64.64.117.96/27",
        "64.208.170.154/32",
        "64.209.8.34/32",
        "64.212.113.64/29",
        "64.215.81.240/29",
        "65.38.100.0/24",
        "65.175.21.120/29",
        "66.96.117.128/26",
        "66.218.167.0/24",
        "67.73.254.0/23",
        "69.31.72.176/29",
        "76.74.12.144/29",
        "77.81.118.72/30",
        "81.92.26.232/29",
        "83.171.201.192/26",
        "91.194.204.0/24",
        "94.124.97.114/32",
        "94.137.94.0/24",
        "98.159.232.96/27",
        "102.38.232.0/24",
        "103.225.130.0/24",
        "104.28.9.54/31",
        "104.28.9.56/32",
        "104.28.32.48/31",
        "104.28.36.62/31",
        "104.28.91.46/31",
        "104.28.92.54/31",
        "104.28.94.54/31",
        "104.28.126.54/31",
        "104.28.139.232/32",
        "104.28.145.38/32",
        "104.28.153.38/32",
        "104.28.159.248/32",
        "104.28.214.138/31",
        "104.28.214.140/30",
        "104.28.246.138/31",
        "104.28.246.140/30",
        "104.30.132.21/32",
        "104.30.176.87/32",
        "128.77.67.160/27",
        "128.77.67.192/26",
        "128.77.68.0/26",
        "128.77.108.160/27",
        "128.90.107.0/24",
        "130.41.190.0/26",
        "130.41.206.128/26",
        "130.41.210.192/27",
        "130.41.230.192/27",
        "131.0.72.0/22",
        "131.108.36.0/22",
        "131.196.32.0/29",
        "131.196.32.8/31",
        "131.196.32.11/32",
        "131.196.32.12/30",
        "131.196.32.16/28",
        "131.196.32.32/27",
        "131.196.32.64/26",
        "131.196.32.128/25",
        "131.196.33.0/31",
        "131.196.33.2/32",
        "131.196.33.4/30",
        "131.196.33.8/31",
        "131.196.33.11/32",
        "131.196.33.12/30",
        "131.196.33.16/28",
        "131.196.33.32/27",
        "131.196.33.64/26",
        "131.196.33.128/25",
        "131.196.34.0/24",
        "131.196.35.0/31",
        "131.196.35.3/32",
        "131.196.35.4/30",
        "131.196.35.8/30",
        "131.196.35.14/31",
        "131.196.35.16/28",
        "131.196.35.32/27",
        "131.196.35.64/26",
        "131.196.35.128/25",
        "134.231.133.0/25",
        "134.238.177.96/27",
        "134.238.177.128/25",
        "134.238.178.0/24",
        "134.238.207.128/26",
        "134.238.207.192/27",
        "134.238.207.224/28",
        "134.238.207.240/29",
        "134.238.207.248/30",
        "134.238.207.252/31",
        "134.238.207.254/32",
        "136.23.22.38/32",
        "136.23.26.22/32",
        "136.227.141.120/30",
        "136.227.141.124/31",
        "138.59.16.0/22",
        "138.59.132.0/22",
        "138.84.59.0/26",
        "138.84.59.128/27",
        "138.94.56.0/22",
        "138.118.80.0/22",
        "138.118.156.0/22",
        "138.121.140.0/22",
        "138.122.24.0/22",
        "138.122.244.0/22",
        "138.185.248.0/22",
        "140.248.4.12/30",
        "140.248.4.16/30",
        "140.248.44.22/31",
        "140.248.44.24/30",
        "140.248.44.28/31",
        "140.248.56.49/32",
        "140.248.57.49/32",
        "140.248.58.49/32",
        "140.248.59.49/32",
        "140.248.60.49/32",
        "140.248.61.49/32",
        "140.248.62.49/32",
        "140.248.63.49/32",
        "143.0.160.0/22",
        "143.137.148.0/22",
        "143.202.160.0/22",
        "143.208.168.0/22",
        "143.255.28.0/22",
        "144.23.0.0/16",
        "145.14.131.0/24",
        "146.70.10.0/24",
        "146.75.208.4/30",
        "146.75.208.8/30",
        "146.252.107.0/24",
        "152.231.128.0/17",
        "154.6.23.96/27",
        "154.6.175.0/24",
        "154.197.77.0/24",
        "157.5.124.141/32",
        "157.5.124.142/31",
        "157.5.124.144/30",
        "157.167.11.0/24",
        "157.167.224.17/32",
        "157.167.224.18/32",
        "157.167.224.63/32",
        "157.167.225.17/32",
        "157.167.225.18/32",
        "157.167.225.63/32",
        "157.167.227.17/32",
        "157.167.227.18/32",
        "157.167.227.63/32",
        "157.167.231.43/32",
        "157.167.231.44/32",
        "157.167.231.190/32",
        "157.167.234.17/32",
        "157.167.234.18/32",
        "157.167.234.63/32",
        "157.191.44.200/30",
        "157.191.44.210/31",
        "157.191.44.212/32",
        "157.191.45.200/30",
        "157.191.45.210/31",
        "157.191.45.212/32",
        "157.191.81.200/30",
        "157.191.81.210/31",
        "157.191.81.212/32",
        "157.191.175.38/32",
        "157.191.175.42/31",
        "157.191.175.44/32",
        "157.191.175.48/30",
        "157.191.175.102/32",
        "157.191.175.106/31",
        "157.191.175.108/32",
        "157.191.175.112/30",
        "157.191.175.166/32",
        "157.191.175.170/31",
        "157.191.175.172/32",
        "157.191.175.176/30",
        "160.20.246.16/28",
        "160.20.246.64/27",
        "160.223.203.0/24",
        "161.69.53.15/32",
        "161.69.53.48/32",
        "161.69.54.15/32",
        "161.69.54.48/32",
        "161.69.60.15/32",
        "161.69.60.48/32",
        "162.120.194.240/32",
        "162.120.202.205/32",
        "162.158.81.0/24",
        "162.251.217.8/30",
        "163.116.129.99/32",
        "163.116.129.108/32",
        "163.116.134.99/32",
        "163.116.134.153/32",
        "163.116.137.141/32",
        "163.116.137.152/32",
        "163.116.226.99/32",
        "163.116.226.109/32",
        "163.116.229.113/32",
        "163.116.229.123/32",
        "163.116.231.106/32",
        "163.116.231.112/32",
        "163.178.0.0/16",
        "165.1.174.128/25",
        "165.1.175.192/26",
        "165.1.227.129/32",
        "165.1.227.130/31",
        "165.1.227.132/30",
        "165.1.227.136/29",
        "165.1.227.144/28",
        "165.1.227.160/27",
        "165.1.227.192/27",
        "165.1.227.224/28",
        "165.1.227.240/29",
        "165.1.227.248/30",
        "165.1.227.252/31",
        "165.1.227.254/32",
        "165.85.36.64/26",
        "165.85.190.64/26",
        "165.85.225.96/27",
        "165.85.225.128/26",
        "167.167.78.0/24",
        "167.250.192.0/22",
        "168.181.160.0/22",
        "168.195.124.0/22",
        "168.197.96.0/22",
        "168.197.132.0/22",
        "168.205.64.0/22",
        "168.228.48.0/22",
        "168.232.28.0/22",
        "169.224.173.64/26",
        "170.80.88.0/22",
        "170.81.32.0/22",
        "170.83.8.0/22",
        "170.84.108.0/22",
        "170.84.255.0/24",
        "170.150.56.0/22",
        "170.244.168.0/22",
        "170.245.240.0/22",
        "170.246.100.0/22",
        "170.246.148.0/22",
        "170.246.156.0/22",
        "172.69.167.0/24",
        "172.225.32.32/27",
        "172.225.33.224/28",
        "172.225.84.232/29",
        "172.225.84.240/28",
        "172.225.92.64/28",
        "172.225.93.88/29",
        "172.225.215.232/29",
        "172.226.13.216/29",
        "172.226.13.240/28",
        "172.226.78.16/28",
        "174.215.44.7/32",
        "176.227.241.0/24",
        "177.93.0.0/19",
        "179.0.20.0/22",
        "179.0.202.0/24",
        "179.0.208.0/20",
        "179.48.248.0/22",
        "179.50.128.0/20",
        "179.50.144.0/24",
        "179.50.145.0/25",
        "179.50.145.128/26",
        "179.50.145.192/28",
        "179.50.145.208/32",
        "179.50.145.210/31",
        "179.50.145.212/30",
        "179.50.145.216/29",
        "179.50.145.224/27",
        "179.50.146.0/23",
        "179.50.148.0/22",
        "179.50.152.0/21",
        "179.50.160.0/19",
        "179.50.192.0/18",
        "179.60.160.0/21",
        "179.60.174.0/24",
        "179.60.175.0/26",
        "179.189.223.0/24",
        "181.41.154.0/24",
        "181.78.56.0/22",
        "181.78.112.0/21",
        "181.78.218.0/24",
        "181.79.194.0/24",
        "181.174.168.0/22",
        "181.193.0.0/17",
        "181.193.128.0/20",
        "181.193.160.0/19",
        "181.193.192.0/18",
        "181.194.0.0/15",
        "181.215.230.0/24",
        "181.224.72.0/22",
        "185.149.145.0/24",
        "185.190.80.0/24",
        "185.213.220.0/23",
        "186.2.240.0/22",
        "186.4.0.0/18",
        "186.5.160.0/20",
        "186.15.0.0/16",
        "186.26.112.0/20",
        "186.32.0.0/21",
        "186.32.9.0/24",
        "186.32.12.0/22",
        "186.32.16.0/20",
        "186.32.32.0/19",
        "186.32.160.0/19",
        "186.32.192.0/19",
        "186.64.128.0/17",
        "186.96.80.0/20",
        "186.148.212.0/22",
        "186.151.94.0/24",
        "186.151.96.0/20",
        "186.159.128.0/17",
        "186.176.0.0/16",
        "186.177.0.0/17",
        "186.177.128.0/18",
        "186.179.64.0/20",
        "187.49.248.0/21",
        "187.251.21.0/24",
        "190.0.224.0/21",
        "190.2.216.0/21",
        "190.4.88.0/21",
        "190.5.212.0/22",
        "190.7.160.0/20",
        "190.7.192.0/19",
        "190.9.124.0/23",
        "190.10.0.0/17",
        "190.14.152.0/22",
        "190.52.110.0/23",
        "190.57.48.0/21",
        "190.61.35.0/24",
        "190.61.36.0/24",
        "190.61.52.0/23",
        "190.61.83.0/24",
        "190.61.84.0/24",
        "190.61.87.0/24",
        "190.61.104.0/21",
        "190.93.160.0/20",
        "190.93.240.0/20",
        "190.98.133.200/29",
        "190.99.120.0/21",
        "190.106.64.0/20",
        "190.108.72.0/22",
        "190.108.220.0/22",
        "190.110.228.0/24",
        "190.112.220.0/22",
        "190.113.80.0/21",
        "190.113.96.0/19",
        "190.113.248.0/21",
        "190.115.200.0/22",
        "190.120.240.0/22",
        "190.123.14.0/24",
        "190.123.128.0/20",
        "190.124.248.0/22",
        "190.148.85.0/24",
        "190.149.134.0/24",
        "190.149.152.0/24",
        "190.171.0.0/18",
        "190.171.96.0/19",
        "190.184.196.0/22",
        "190.211.92.0/22",
        "190.211.96.0/19",
        "190.217.121.0/24",
        "190.217.123.0/24",
        "190.217.125.0/24",
        "190.217.126.0/24",
        "190.241.0.0/16",
        "190.242.155.176/28",
        "190.242.155.194/32",
        "190.242.156.194/32",
        "190.242.174.0/24",
        "191.102.36.0/22",
        "191.102.56.0/22",
        "192.100.182.0/24",
        "192.142.169.0/24",
        "192.153.167.0/24",
        "192.242.156.176/28",
        "194.50.99.50/32",
        "194.169.162.0/24",
        "196.40.0.0/18",
        "196.40.64.0/19",
        "196.48.70.0/24",
        "196.56.70.0/24",
        "196.57.70.0/24",
        "196.58.70.0/24",
        "196.197.70.0/24",
        "196.198.70.0/24",
        "196.199.70.0/24",
        "198.49.164.0/24",
        "198.145.67.0/24",
        "199.33.68.0/24",
        "199.60.215.0/24",
        "200.0.129.0/24",
        "200.5.48.0/20",
        "200.9.32.0/19",
        "200.9.209.0/24",
        "200.9.210.0/23",
        "200.10.145.0/24",
        "200.10.176.0/23",
        "200.12.167.0/24",
        "200.16.66.0/23",
        "200.23.205.0/24",
        "200.25.13.0/24",
        "200.25.68.0/24",
        "200.30.189.2/32",
        "200.33.85.0/24",
        "200.41.14.46/31",
        "200.41.14.192/31",
        "200.59.16.0/21",
        "200.74.248.0/21",
        "200.91.64.0/18",
        "200.91.128.0/18",
        "200.105.96.0/22",
        "200.105.100.0/24",
        "200.105.101.0/26",
        "200.105.101.64/27",
        "200.105.101.96/29",
        "200.105.101.104/30",
        "200.105.101.112/28",
        "200.105.101.128/25",
        "200.105.102.0/23",
        "200.107.82.0/23",
        "200.115.18.0/24",
        "200.119.151.0/24",
        "200.119.152.0/23",
        "200.119.184.0/21",
        "200.122.128.0/18",
        "200.189.18.0/25",
        "200.189.18.192/26",
        "200.192.236.0/22",
        "200.229.0.0/21",
        "200.229.8.0/22",
        "200.229.12.0/23",
        "200.229.14.0/24",
        "200.229.144.0/23",
        "200.229.147.0/24",
        "201.131.37.0/24",
        "201.131.64.0/24",
        "201.148.232.0/22",
        "201.182.55.0/24",
        "201.182.76.0/23",
        "201.182.78.0/24",
        "201.182.226.0/23",
        "201.191.0.0/16",
        "201.192.0.0/12",
        "201.220.29.0/24",
        "201.237.0.0/16",
        "202.181.129.120/29",
        "204.199.208.0/21",
        "204.199.225.186/32",
        "207.223.101.240/29",
        "209.120.237.32/29",
        "209.170.100.56/29",
        "213.109.109.0/24",
        "213.182.198.0/24",
        "216.75.249.76/30",
        "216.194.101.0/24",
        "2001:470:5:2::/64",
        "2001:470:5:2c::/64",
        "2001:470:5:3a::/64",
        "2001:470:5:b7::/64",
        "2001:470:5:10e::/64",
        "2001:470:5:153::/64",
        "2001:470:5:1a4::/64",
        "2001:470:5:1b2::/64",
        "2001:470:5:205::/64",
        "2001:470:5:410::/64",
        "2001:470:5:412::/64",
        "2001:470:5:42b::/64",
        "2001:470:5:4b8::/64",
        "2001:470:5:729::/64",
        "2001:470:8:197::/64",
        "2001:470:8:211::/64",
        "2001:470:8:25a::/64",
        "2001:470:d:ad4::/64",
        "2001:470:67:122::/64",
        "2001:470:187f::/48",
        "2001:470:1f0f:fc::/64",
        "2001:470:1f19:1cf::/64",
        "2001:470:1f1b:23c::/64",
        "2001:470:1f1b:339::/64",
        "2001:470:1f1d:129::/64",
        "2001:470:1f2b:1f::/64",
        "2001:470:2892::/48",
        "2001:470:48a7::/48",
        "2001:470:b8a0::/48",
        "2001:470:d80e::/48",
        "2001:470:d861::/48",
        "2001:470:d8cd::/48",
        "2001:470:d8dd::/48",
        "2001:470:d92d::/48",
        "2001:470:d9c5::/48",
        "2001:470:db25::/48",
        "2001:470:db4b::/48",
        "2001:470:e0cb::/48",
        "2001:470:e0df::/48",
        "2001:470:e128::/48",
        "2001:67c:a38:f506::/64",
        "2001:1330::/29",
        "2001:13b2:c000::/34",
        "2001:13c7:7004::/48",
        "2001:13d8::/32",
        "2001:4878:151::/48",
        "2001:4878:2151::/48",
        "2001:4878:4151::/48",
        "2001:4878:8151::/48",
        "2001:4878:a151::/48",
        "2001:4878:b151::/48",
        "2001:4878:c151::/48",
        "2400:cb00:258::/48",
        "2400:cb00:733::/48",
        "2600:1414::/48",
        "2602:2a9:c30::/44",
        "2602:fd92:b00:156::/64",
        "2604:c980:1200::/40",
        "2605:59c0:1680::/42",
        "2605:59c8:7240::/42",
        "2606:40:d80::/43",
        "2606:40:205e::/51",
        "2606:40:2149:a000::/51",
        "2606:54c0:2708::/45",
        "2606:54c0:2710::/45",
        "2606:54c3:0:7e6::/64",
        "2606:54c3:0:14bf::/64",
        "2606:f4c0:2630::/44",
        "2607:740:38::/48",
        "2607:6b80:2a::/48",
        "2607:8940:4200:8d00::/56",
        "2607:8940:4200:8e00::/55",
        "2607:8940:4200:9000::/54",
        "2620:0:876:2800::/56",
        "2800:f0::/32",
        "2800:1e0:2100::/40",
        "2800:510::/32",
        "2800:640::/32",
        "2800:860::/32",
        "2800:9b0::/32",
        "2800:b90::/32",
        "2800:c20::/32",
        "2800:d300::/29",
        "2801:0:4a0::/48",
        "2801:1::/32",
        "2801:11:3000::/48",
        "2801:13:1800::/48",
        "2801:13:c800::/48",
        "2801:13:f000::/48",
        "2801:15:2000::/48",
        "2801:15:8000::/44",
        "2801:16:a000::/48",
        "2801:17:8000::/48",
        "2801:18:800::/48",
        "2801:1c:800::/48",
        "2801:1c:4800::/48",
        "2801:1d:a000::/44",
        "2801:1e:8000::/48",
        "2801:1f:2000::/48",
        "2801:1f:c000::/48",
        "2801:151::/36",
        "2801:195::/44",
        "2801:1d4::/36",
        "2801:1f0:401c::/47",
        "2801:1f0:4024::/47",
        "2801:1f0:403a::/47",
        "2801:1f0:403c::/47",
        "2803:210::/32",
        "2803:4c0::/32",
        "2803:540::/32",
        "2803:980::/32",
        "2803:c50::/32",
        "2803:1300::/38",
        "2803:1300:400::/39",
        "2803:1300:600::/42",
        "2803:1300:640::/43",
        "2803:1300:660::/46",
        "2803:1300:664::/47",
        "2803:1300:666:200::/55",
        "2803:1300:666:400::/54",
        "2803:1300:666:800::/53",
        "2803:1300:666:1000::/52",
        "2803:1300:666:2000::/51",
        "2803:1300:666:4000::/50",
        "2803:1300:666:8000::/49",
        "2803:1300:667::/48",
        "2803:1300:668::/45",
        "2803:1300:670::/44",
        "2803:1300:680::/41",
        "2803:1300:700::/40",
        "2803:1300:800::/37",
        "2803:1300:1000::/36",
        "2803:1300:2000::/35",
        "2803:1300:4000::/34",
        "2803:1300:8000::/34",
        "2803:1300:c000::/36",
        "2803:1300:e000::/35",
        "2803:1b20::/32",
        "2803:1da0::/32",
        "2803:1de0::/32",
        "2803:2040::/32",
        "2803:21a0::/32",
        "2803:22a0::/32",
        "2803:2cc0::/32",
        "2803:3100::/32",
        "2803:3200::/32",
        "2803:3600::/32",
        "2803:3710::/32",
        "2803:4580::/33",
        "2803:4580:8000::/39",
        "2803:4580:8200::/44",
        "2803:4580:8220::/43",
        "2803:4580:8240::/42",
        "2803:4580:8280::/41",
        "2803:4580:8300::/40",
        "2803:4580:8400::/38",
        "2803:4580:8800::/37",
        "2803:4580:9000::/36",
        "2803:4580:a000::/35",
        "2803:4580:c000::/35",
        "2803:4580:e000::/36",
        "2803:4580:f000::/37",
        "2803:4580:f800::/38",
        "2803:4580:fc00::/39",
        "2803:4580:fe00::/40",
        "2803:4580:ff00::/41",
        "2803:4580:ff80::/42",
        "2803:4580:ffc0::/43",
        "2803:4580:ffe0::/44",
        "2803:4910::/32",
        "2803:4920::/32",
        "2803:4e80::/32",
        "2803:50c0::/32",
        "2803:5180::/32",
        "2803:5420::/32",
        "2803:5580::/32",
        "2803:5840::/32",
        "2803:5b00::/32",
        "2803:6000::/32",
        "2803:6340::/32",
        "2803:6350::/32",
        "2803:6900::/32",
        "2803:6e10::/32",
        "2803:7810::/32",
        "2803:7a00::/32",
        "2803:7a80::/32",
        "2803:7f60::/32",
        "2803:8040::/32",
        "2803:8800::/32",
        "2803:8b20::/32",
        "2803:8e10::/32",
        "2803:9690::/32",
        "2803:9810:5400::/40",
        "2803:9810:5600::/39",
        "2803:9920::/32",
        "2803:9b20::/32",
        "2803:9ec0::/32",
        "2803:a6c0::/32",
        "2803:aa80::/32",
        "2803:ad40::/32",
        "2803:ae20::/32",
        "2803:b100::/32",
        "2803:b140::/32",
        "2803:b440::/32",
        "2803:b560::/32",
        "2803:b800::/32",
        "2803:c940::/32",
        "2803:d020::/32",
        "2803:d200::/32",
        "2803:d880::/32",
        "2803:d900::/32",
        "2803:daa0::/32",
        "2803:dcc0::/32",
        "2803:e300::/32",
        "2803:e750::/32",
        "2803:eac0::/32",
        "2803:ee40::/32",
        "2803:f150::/32",
        "2803:f340::/32",
        "2803:f600::/32",
        "2803:f800::/32",
        "2803:f8e0::/32",
        "2803:fb40::/32",
        "2803:fe40::/32",
        "2804:5330:2:a::/64",
        "2804:5330:101::/48",
        "2a01:ce94:1000::/36",
        "2a02:26f7:bec0:4000::/64",
        "2a02:26f7:bec0:42c0::/61",
        "2a02:26f7:bec0:42c8::/62",
        "2a02:26f7:bec0:42cc::/63",
        "2a02:26f7:bec0:42ce::/64",
        "2a02:26f7:bec1:4000::/64",
        "2a02:26f7:bec4:4000::/64",
        "2a02:26f7:bec4:42c0::/61",
        "2a02:26f7:bec4:42c8::/62",
        "2a02:26f7:bec4:42cc::/63",
        "2a02:26f7:bec4:42ce::/64",
        "2a02:26f7:bec5:4000::/64",
        "2a02:26f7:bec8:4000::/64",
        "2a02:26f7:bec8:42c0::/61",
        "2a02:26f7:bec8:42c8::/62",
        "2a02:26f7:bec8:42cc::/63",
        "2a02:26f7:bec8:42ce::/64",
        "2a02:26f7:bec9:4000::/64",
        "2a02:26f7:becc:4000::/64",
        "2a02:26f7:becc:42c0::/61",
        "2a02:26f7:becc:42c8::/62",
        "2a02:26f7:becc:42cc::/63",
        "2a02:26f7:becc:42ce::/64",
        "2a02:26f7:becd:4000::/64",
        "2a02:26f7:bed0:4000::/64",
        "2a02:26f7:bed0:42c0::/61",
        "2a02:26f7:bed0:42c8::/62",
        "2a02:26f7:bed0:42cc::/63",
        "2a02:26f7:bed0:42ce::/64",
        "2a02:26f7:bed1:4000::/64",
        "2a02:5740:70::/48",
        "2a02:5741:70::/48",
        "2a02:5742:70::/48",
        "2a02:5743:70::/48",
        "2a02:5744:70::/48",
        "2a02:5745:70::/48",
        "2a02:5746:70::/48",
        "2a02:5747:70::/48",
        "2a04:4e41:16:c::/63",
        "2a04:4e41:16:e::/64",
        "2a04:4e41:16:1a00::/56",
        "2a04:4e41:3c:2::/63",
        "2a04:4e41:3c:4::/63",
        "2a04:4e41:3c:1200::/56",
        "2a04:4e41:51:7::/64",
        "2a04:4e41:51:8::/63",
        "2a04:4e41:51:1600::/56",
        "2a04:4e41:4013:1000::/52",
        "2a04:4e41:4023:1000::/52",
        "2a04:4e41:4033:1000::/52",
        "2a04:4e41:4043:1000::/52",
        "2a04:4e41:4053:1000::/52",
        "2a04:4e41:4063:1000::/52",
        "2a04:4e41:4073:1000::/52",
        "2a04:4e41:4083:1000::/52",
        "2a05:dfc1:5a3c::/48",
        "2a09:54c1:156::/48",
        "2a09:bac0:1000:ad::/64",
        "2a09:bac0:1000:218::/64",
        "2a09:bac0:1001:aa::/64",
        "2a09:bac0:1001:32c::/64",
        "2a09:bac1:1a80::/64",
        "2a09:bac1:1a80:8::/64",
        "2a09:bac1:1aa0::/64",
        "2a09:bac1:1aa0:8::/64",
        "2a09:bac1:1ac0::/64",
        "2a09:bac1:1ac0:8::/64",
        "2a09:bac1:1ae0::/64",
        "2a09:bac1:1ae0:8::/64",
        "2a09:bac2:2708::/45",
        "2a09:bac2:2710::/45",
        "2a09:bac3:2708::/45",
        "2a09:bac3:2710::/45",
        "2a09:bac4:188::/45",
        "2a09:bac4:1188::/45",
        "2a09:bac5:2740::/44",
        "2a09:bac6:2740::/44",
        "2a09:be42:2000::/38",
        "2a09:be44:2000::/38",
        "2a09:be46:2000::/38",
        "2a0a:6044:675f::/48",
        "2a0a:6044:6760::/45",
        "2a0a:6044:6768::/46",
        "2a0a:6044:676c::/47",
        "2a0a:6044:a142:6975::/64",
        "2a0a:6044:f75f::/48",
        "2a0a:6044:f760::/45",
        "2a0a:6044:f768::/46",
        "2a0a:6044:f76c::/47",
        "2a0c:3b80:4352::/48",
        "2a0c:3b80:6372::/48",
        "2a0c:9a40:95b3:4000::/52",
        "2a0c:9e06:156::/48",
        "2a0e:48c3:2000::/38",
        "2a0e:ec05:8fc0::/42",
        "2a0e:ec05:9000::/40",
        "2a0e:ec05:9100::/41",
        "2a0e:ec05:9180::/42",
        "2a10:500:9f00::/40",
        "2a10:9007:3:3::/64",
        "2a12:49c1:2000::/38",
        "2a12:49c3:2000::/38",
        "2a12:49c4:400::/41",
        "2a12:49c5:2000::/38",
        "2a14:1c5:9000::/37"
      ]
    }
  ]
}
