{
  "version": 1,
  "rules": [
    {
      "ip_cidr": [
        "2.56.120.0/21",
        "2.56.140.0/22",
        "2.56.172.0/22",
        "2.56.176.0/22",
        "5.42.205.0/24",
        "5.59.181.0/24",
        "5.62.60.109/32",
        "5.62.60.110/31",
        "5.62.62.105/32",
        "5.62.62.106/31",
        "5.104.0.0/20",
        "5.180.33.0/24",
        "5.180.35.0/24",
        "5.180.45.0/24",
        "5.180.48.0/24",
        "5.180.51.0/24",
        "5.180.233.0/24",
        "5.180.234.0/24",
        "5.253.43.0/24",
        "5.253.46.0/23",
        "8.29.231.126/32",
        "31.153.0.0/16",
        "31.209.96.0/24",
        "31.216.64.0/18",
        "31.222.70.0/23",
        "37.1.188.176/29",
        "37.9.176.0/21",
        "37.34.0.0/19",
        "37.149.0.0/16",
        "38.73.228.0/22",
        "38.135.84.0/27",
        "38.142.222.16/29",
        "45.8.184.0/23",
        "45.8.188.0/22",
        "45.8.196.0/24",
        "45.8.205.0/24",
        "45.8.252.0/24",
        "45.9.0.0/24",
        "45.9.4.0/24",
        "45.9.12.0/22",
        "45.9.16.0/22",
        "45.12.108.0/22",
        "45.12.112.0/22",
        "45.12.128.0/20",
        "45.13.26.0/24",
        "45.13.220.0/22",
        "45.15.128.0/22",
        "45.15.144.0/22",
        "45.15.152.0/22",
        "45.15.160.0/21",
        "45.15.168.0/22",
        "45.15.184.0/23",
        "45.15.186.0/24",
        "45.15.187.0/28",
        "45.15.187.16/31",
        "45.15.187.18/32",
        "45.15.187.20/30",
        "45.15.187.24/29",
        "45.15.187.32/27",
        "45.15.187.64/26",
        "45.15.187.128/25",
        "45.66.152.0/24",
        "45.67.214.0/24",
        "45.67.236.0/22",
        "45.82.245.0/24",
        "45.82.246.0/23",
        "45.82.248.0/21",
        "45.83.20.0/24",
        "45.83.21.0/26",
        "45.83.21.64/27",
        "45.83.21.96/32",
        "45.83.21.98/31",
        "45.83.21.100/30",
        "45.83.21.104/29",
        "45.83.21.112/28",
        "45.83.21.128/25",
        "45.83.22.0/23",
        "45.83.24.0/22",
        "45.83.84.0/22",
        "45.83.128.0/22",
        "45.83.140.0/23",
        "45.83.142.0/24",
        "45.84.232.0/22",
        "45.86.60.0/22",
        "45.86.64.0/23",
        "45.86.67.0/24",
        "45.86.68.0/22",
        "45.86.76.0/22",
        "45.88.160.0/22",
        "45.88.168.0/22",
        "45.89.23.0/24",
        "45.89.96.0/23",
        "45.89.98.0/24",
        "45.89.105.0/24",
        "45.89.106.0/23",
        "45.89.196.0/22",
        "45.128.48.0/21",
        "45.130.120.0/24",
        "45.131.92.0/22",
        "45.132.132.0/22",
        "45.133.132.0/22",
        "45.139.132.0/22",
        "45.140.7.0/24",
        "45.142.200.0/24",
        "45.150.115.0/24",
        "45.155.123.0/24",
        "45.156.136.0/22",
        "46.16.136.0/21",
        "46.21.48.0/20",
        "46.28.176.0/21",
        "46.198.0.0/17",
        "46.199.0.0/16",
        "46.235.156.64/27",
        "46.243.229.0/24",
        "46.251.96.0/19",
        "46.255.121.0/24",
        "46.255.122.0/24",
        "46.255.126.0/23",
        "57.79.196.0/23",
        "62.3.32.0/24",
        "62.12.64.0/19",
        "62.122.188.0/24",
        "62.152.0.0/19",
        "62.204.37.0/24",
        "62.228.0.0/16",
        "64.39.224.0/24",
        "64.59.208.0/20",
        "65.18.208.0/20",
        "66.205.64.0/19",
        "69.6.0.0/19",
        "69.94.112.0/20",
        "74.118.126.40/30",
        "77.77.177.32/29",
        "77.77.177.64/26",
        "77.83.248.0/22",
        "77.243.189.168/29",
        "77.246.240.0/24",
        "78.108.212.0/22",
        "78.135.0.0/19",
        "78.135.32.0/20",
        "78.135.48.0/22",
        "78.135.52.0/24",
        "78.135.53.0/25",
        "78.135.53.128/26",
        "78.135.53.192/32",
        "78.135.53.194/31",
        "78.135.53.196/30",
        "78.135.53.200/29",
        "78.135.53.208/28",
        "78.135.53.224/27",
        "78.135.54.0/23",
        "78.135.56.0/21",
        "78.136.200.0/24",
        "78.158.128.0/19",
        "80.85.16.0/20",
        "80.89.240.0/20",
        "80.240.106.0/24",
        "80.244.16.0/20",
        "81.4.128.0/18",
        "81.21.32.0/20",
        "82.102.32.0/19",
        "82.102.64.0/18",
        "82.114.32.0/19",
        "82.116.192.0/19",
        "83.168.0.0/18",
        "85.132.224.0/19",
        "85.190.230.0/24",
        "85.208.106.0/23",
        "85.208.112.0/24",
        "85.208.115.0/24",
        "85.239.40.0/23",
        "86.110.204.0/22",
        "87.56.64.0/18",
        "87.228.128.0/17",
        "87.239.184.240/29",
        "88.218.232.0/22",
        "89.149.154.112/28",
        "89.232.172.0/22",
        "89.248.71.0/24",
        "91.92.108.0/24",
        "91.92.111.0/24",
        "91.92.137.0/24",
        "91.92.144.0/25",
        "91.92.144.128/29",
        "91.92.144.136/30",
        "91.92.144.140/32",
        "91.92.144.142/31",
        "91.92.144.144/28",
        "91.92.144.160/27",
        "91.92.144.192/26",
        "91.106.208.0/21",
        "91.148.135.0/24",
        "91.184.192.0/19",
        "91.188.248.0/22",
        "91.197.12.0/22",
        "91.197.44.0/23",
        "91.198.57.0/24",
        "91.199.41.0/24",
        "91.199.54.0/24",
        "91.202.245.0/24",
        "91.202.246.0/23",
        "91.208.6.0/24",
        "91.212.145.0/24",
        "91.214.236.0/22",
        "91.217.246.0/24",
        "91.223.164.0/24",
        "91.223.208.0/24",
        "91.224.2.0/23",
        "91.224.78.0/23",
        "91.225.125.0/24",
        "91.230.190.0/24",
        "91.238.8.0/24",
        "91.239.195.0/24",
        "91.245.222.0/24",
        "92.255.56.0/24",
        "92.255.68.0/22",
        "92.255.84.0/24",
        "93.109.0.0/16",
        "93.182.116.0/24",
        "94.46.196.0/22",
        "94.46.200.0/22",
        "94.46.204.0/23",
        "94.46.208.0/21",
        "94.46.224.0/20",
        "94.78.89.70/32",
        "94.79.64.0/22",
        "94.79.69.0/24",
        "94.79.70.0/23",
        "94.79.72.0/21",
        "94.79.80.0/20",
        "94.79.96.0/20",
        "94.79.112.0/21",
        "94.79.120.0/24",
        "94.79.122.0/23",
        "94.79.124.0/22",
        "94.125.144.0/21",
        "94.140.14.0/23",
        "94.156.35.0/24",
        "94.156.144.0/24",
        "94.156.189.0/24",
        "95.214.248.0/22",
        "102.38.233.0/24",
        "103.35.178.0/23",
        "103.80.10.0/23",
        "103.126.48.0/23",
        "103.209.255.128/27",
        "104.28.9.69/32",
        "104.28.9.70/31",
        "104.28.60.40/31",
        "104.28.60.46/31",
        "104.28.80.50/31",
        "104.28.106.39/32",
        "104.28.106.40/32",
        "104.28.130.21/32",
        "104.28.130.22/32",
        "104.28.131.24/31",
        "104.28.146.226/31",
        "104.28.146.228/32",
        "104.28.154.226/31",
        "104.28.154.228/32",
        "104.28.202.100/30",
        "104.28.202.104/32",
        "104.28.234.100/30",
        "104.28.234.104/32",
        "104.30.160.21/32",
        "104.30.161.112/32",
        "109.105.224.0/19",
        "109.110.224.0/19",
        "116.199.224.0/20",
        "128.0.42.0/23",
        "128.0.107.0/24",
        "128.0.108.0/22",
        "128.0.200.0/21",
        "128.0.208.0/20",
        "128.0.224.0/19",
        "129.222.117.0/24",
        "129.222.190.0/23",
        "130.250.197.0/24",
        "134.255.210.0/24",
        "136.23.6.98/32",
        "136.23.20.10/32",
        "139.28.233.0/24",
        "139.28.235.0/24",
        "139.138.192.0/19",
        "140.248.0.4/30",
        "140.248.4.20/30",
        "140.248.34.242/31",
        "140.248.36.40/30",
        "140.248.56.54/32",
        "140.248.57.54/32",
        "140.248.58.54/32",
        "140.248.59.54/32",
        "140.248.60.54/32",
        "140.248.61.54/32",
        "140.248.62.54/32",
        "140.248.63.54/32",
        "141.98.160.0/22",
        "141.98.164.0/23",
        "141.98.166.0/24",
        "145.224.82.0/23",
        "146.19.202.0/24",
        "146.252.121.0/24",
        "147.75.146.0/24",
        "149.14.140.88/29",
        "150.48.129.18/31",
        "150.48.129.20/30",
        "150.48.129.24/30",
        "150.48.147.98/31",
        "150.48.149.38/31",
        "153.92.0.0/24",
        "153.92.2.0/24",
        "154.6.162.0/24",
        "154.14.55.112/29",
        "154.14.254.16/29",
        "154.84.151.0/24",
        "155.254.216.0/24",
        "156.246.203.0/24",
        "156.246.204.0/23",
        "157.5.96.77/32",
        "157.5.96.78/32",
        "157.5.99.225/32",
        "157.5.104.77/32",
        "157.5.104.78/32",
        "157.5.107.225/32",
        "157.97.132.0/24",
        "157.167.63.0/24",
        "157.167.228.21/32",
        "157.167.228.22/32",
        "157.167.228.141/32",
        "157.167.229.21/32",
        "157.167.229.22/32",
        "157.167.229.141/32",
        "157.167.230.21/32",
        "157.167.230.22/32",
        "157.167.230.141/32",
        "157.167.231.45/32",
        "157.167.231.46/32",
        "157.167.231.191/32",
        "157.167.237.21/32",
        "157.167.237.22/32",
        "157.167.237.141/32",
        "157.167.238.21/32",
        "157.167.238.22/32",
        "157.167.238.141/32",
        "157.167.239.21/32",
        "157.167.239.22/32",
        "157.167.239.141/32",
        "157.167.240.21/32",
        "157.167.240.22/32",
        "157.167.240.141/32",
        "159.253.182.0/23",
        "159.255.40.0/21",
        "162.120.213.1/32",
        "162.120.216.51/32",
        "163.116.166.159/32",
        "163.116.166.167/32",
        "163.116.169.89/32",
        "163.116.169.93/32",
        "163.116.172.161/32",
        "163.116.172.175/32",
        "163.116.174.116/32",
        "163.116.174.127/32",
        "163.116.179.98/32",
        "163.116.179.105/32",
        "164.138.96.0/22",
        "164.215.0.0/19",
        "165.220.148.176/29",
        "165.220.148.216/29",
        "165.220.149.136/29",
        "165.220.233.72/29",
        "165.220.233.160/29",
        "168.151.142.0/24",
        "169.255.66.0/24",
        "171.22.112.0/20",
        "171.22.129.0/24",
        "171.22.130.0/23",
        "171.22.132.0/22",
        "171.22.136.0/23",
        "171.22.138.0/24",
        "172.68.45.0/24",
        "172.68.130.0/24",
        "172.68.171.0/24",
        "172.225.26.32/27",
        "172.225.94.0/28",
        "172.225.160.96/28",
        "173.194.60.194/32",
        "173.194.60.196/31",
        "176.53.144.0/24",
        "176.56.170.0/23",
        "176.92.224.0/19",
        "176.97.156.0/23",
        "176.103.128.0/22",
        "176.103.132.0/24",
        "176.103.134.0/23",
        "176.103.136.0/21",
        "176.103.144.0/20",
        "176.111.175.0/24",
        "176.124.191.0/24",
        "176.227.224.0/20",
        "178.170.136.0/24",
        "178.175.182.0/23",
        "178.255.200.0/21",
        "185.2.96.0/22",
        "185.5.40.0/23",
        "185.5.72.0/22",
        "185.7.156.0/22",
        "185.8.180.0/22",
        "185.20.36.0/22",
        "185.23.111.0/24",
        "185.42.32.0/22",
        "185.51.24.0/22",
        "185.52.88.0/22",
        "185.60.237.0/24",
        "185.60.238.0/23",
        "185.61.240.0/22",
        "185.66.160.0/22",
        "185.66.213.0/24",
        "185.68.129.0/24",
        "185.68.130.0/23",
        "185.71.216.0/22",
        "185.76.49.0/26",
        "185.78.128.0/22",
        "185.80.126.0/24",
        "185.81.32.0/22",
        "185.86.93.0/24",
        "185.86.94.0/23",
        "185.97.160.0/22",
        "185.98.107.0/24",
        "185.99.24.240/30",
        "185.99.26.240/30",
        "185.105.172.0/22",
        "185.106.100.0/22",
        "185.106.205.0/24",
        "185.106.207.64/26",
        "185.106.207.128/25",
        "185.109.28.0/22",
        "185.113.28.0/22",
        "185.117.132.0/22",
        "185.118.88.0/22",
        "185.121.20.0/22",
        "185.130.48.0/24",
        "185.134.116.0/22",
        "185.135.96.0/22",
        "185.141.61.0/24",
        "185.141.62.0/23",
        "185.141.194.0/24",
        "185.153.128.0/23",
        "185.153.130.0/24",
        "185.153.180.0/23",
        "185.153.182.0/25",
        "185.153.182.128/26",
        "185.153.182.192/29",
        "185.153.182.201/32",
        "185.153.182.202/31",
        "185.153.182.204/30",
        "185.153.182.208/28",
        "185.153.182.224/27",
        "185.153.183.0/24",
        "185.156.108.0/22",
        "185.160.204.0/24",
        "185.161.69.0/24",
        "185.161.70.0/23",
        "185.162.16.0/22",
        "185.166.64.0/22",
        "185.166.116.0/22",
        "185.166.152.0/22",
        "185.170.232.0/22",
        "185.171.92.0/23",
        "185.171.94.0/24",
        "185.173.157.0/24",
        "185.173.190.0/24",
        "185.173.226.0/24",
        "185.175.40.0/22",
        "185.177.73.0/24",
        "185.177.88.0/22",
        "185.184.9.0/24",
        "185.184.10.0/23",
        "185.187.60.0/24",
        "185.187.148.0/22",
        "185.191.206.0/24",
        "185.193.148.0/22",
        "185.199.12.0/22",
        "185.200.196.0/22",
        "185.203.4.0/22",
        "185.204.101.0/24",
        "185.205.184.0/22",
        "185.206.144.0/22",
        "185.207.160.0/23",
        "185.207.163.0/24",
        "185.216.4.0/22",
        "185.227.182.0/23",
        "185.230.112.0/22",
        "185.235.252.0/22",
        "185.237.228.0/24",
        "185.237.229.0/27",
        "185.237.229.32/29",
        "185.237.229.40/32",
        "185.237.229.42/32",
        "185.237.229.44/30",
        "185.237.229.48/28",
        "185.237.229.64/26",
        "185.237.229.128/28",
        "185.237.229.144/29",
        "185.237.229.152/30",
        "185.237.229.156/31",
        "185.237.229.158/32",
        "185.237.229.160/27",
        "185.237.229.192/26",
        "185.237.230.0/23",
        "185.240.140.0/23",
        "185.249.152.0/22",
        "185.253.162.0/24",
        "188.72.119.0/24",
        "188.212.251.0/24",
        "188.214.34.0/24",
        "188.215.32.0/24",
        "192.144.48.0/22",
        "192.192.193.0/24",
        "193.19.204.0/24",
        "193.22.30.0/24",
        "193.24.98.0/24",
        "193.33.87.0/24",
        "193.37.212.0/23",
        "193.37.214.0/24",
        "193.37.215.0/28",
        "193.37.215.16/30",
        "193.37.215.21/32",
        "193.37.215.22/31",
        "193.37.215.24/29",
        "193.37.215.32/27",
        "193.37.215.64/26",
        "193.37.215.128/25",
        "193.43.0.64/27",
        "193.58.0.0/27",
        "193.58.0.32/28",
        "193.58.0.64/26",
        "193.58.0.128/25",
        "193.58.116.0/24",
        "193.105.129.0/24",
        "193.105.224.0/24",
        "193.161.24.0/23",
        "193.161.28.0/23",
        "193.162.107.0/24",
        "193.163.71.0/24",
        "193.164.232.160/27",
        "193.186.14.0/24",
        "193.186.160.0/24",
        "193.186.163.0/24",
        "193.186.211.0/24",
        "193.186.215.0/24",
        "193.188.134.168/29",
        "193.188.134.176/28",
        "193.188.134.192/29",
        "193.192.12.128/25",
        "193.201.15.0/24",
        "193.201.147.160/27",
        "193.201.148.0/26",
        "193.201.149.192/26",
        "193.201.150.64/26",
        "193.201.150.128/26",
        "193.201.151.0/26",
        "193.201.157.0/25",
        "193.218.205.64/26",
        "193.218.205.128/26",
        "193.218.205.192/27",
        "193.218.207.80/28",
        "193.218.207.96/27",
        "193.242.214.0/24",
        "194.0.146.0/24",
        "194.5.30.0/23",
        "194.5.36.0/22",
        "194.9.20.0/23",
        "194.26.223.0/24",
        "194.27.73.0/24",
        "194.27.74.0/23",
        "194.30.128.0/19",
        "194.31.10.0/24",
        "194.42.0.0/19",
        "194.42.32.0/21",
        "194.42.55.32/27",
        "194.42.55.64/26",
        "194.42.55.128/27",
        "194.42.128.0/19",
        "194.50.99.55/32",
        "194.50.114.0/24",
        "194.64.144.0/22",
        "194.76.136.0/22",
        "194.76.154.0/24",
        "194.104.122.0/24",
        "194.117.52.0/25",
        "194.145.202.0/24",
        "194.146.156.0/22",
        "194.147.216.0/24",
        "194.153.156.64/26",
        "194.153.156.128/25",
        "194.153.157.192/26",
        "194.154.128.0/19",
        "194.164.176.0/22",
        "194.165.24.0/23",
        "194.233.16.0/22",
        "194.233.24.0/22",
        "194.233.60.0/22",
        "195.14.128.0/19",
        "195.26.229.0/24",
        "195.47.194.0/24",
        "195.60.81.192/26",
        "195.60.82.0/26",
        "195.60.83.64/27",
        "195.60.83.160/27",
        "195.60.84.0/25",
        "195.60.87.128/25",
        "195.60.93.0/26",
        "195.60.93.192/26",
        "195.60.95.0/25",
        "195.85.59.0/24",
        "195.88.176.0/23",
        "195.95.138.0/24",
        "195.137.173.0/24",
        "195.170.176.0/24",
        "195.178.4.0/23",
        "195.179.96.0/20",
        "195.189.46.127/32",
        "195.200.238.0/23",
        "195.206.250.0/23",
        "195.225.112.0/22",
        "196.48.73.0/24",
        "196.56.73.0/24",
        "196.57.73.0/24",
        "196.58.73.0/24",
        "196.197.73.0/24",
        "196.198.73.0/24",
        "196.199.73.0/24",
        "202.50.102.0/24",
        "203.13.32.0/24",
        "203.17.126.0/24",
        "203.22.223.0/24",
        "203.23.104.0/24",
        "203.23.106.0/24",
        "203.24.108.0/24",
        "203.28.8.0/23",
        "203.29.53.0/24",
        "208.167.192.40/29",
        "209.206.4.0/24",
        "212.23.210.0/24",
        "212.31.96.0/19",
        "212.32.16.0/21",
        "212.32.56.0/21",
        "212.50.96.0/19",
        "212.73.150.0/24",
        "212.108.128.0/24",
        "212.108.129.1/32",
        "212.108.129.2/31",
        "212.108.129.4/30",
        "212.108.129.8/29",
        "212.108.129.16/28",
        "212.108.129.32/27",
        "212.108.129.64/26",
        "212.108.129.128/25",
        "212.108.130.0/23",
        "212.108.132.0/22",
        "212.108.136.0/21",
        "212.108.144.0/20",
        "212.222.155.72/29",
        "213.7.0.0/16",
        "213.39.65.96/28",
        "213.59.112.0/20",
        "213.109.193.0/24",
        "213.109.205.0/24",
        "213.133.80.0/20",
        "213.140.192.0/19",
        "213.148.0.0/24",
        "213.148.18.0/24",
        "213.149.160.0/19",
        "213.169.128.0/20",
        "213.169.144.0/22",
        "213.169.148.0/23",
        "213.169.150.0/24",
        "213.169.152.0/21",
        "213.182.200.0/24",
        "213.198.107.40/29",
        "213.207.128.0/18",
        "216.87.41.0/24",
        "216.241.128.0/19",
        "217.16.224.0/20",
        "217.26.220.0/24",
        "217.27.32.0/19",
        "217.65.142.0/24",
        "217.72.12.0/22",
        "217.175.208.0/20",
        "217.197.104.0/24",
        "2001:470:26:524::/64",
        "2001:470:28:3cc::/63",
        "2001:470:28:3d1::/64",
        "2001:470:28:65b::/64",
        "2001:470:28:71e::/64",
        "2001:470:28:d62::/64",
        "2001:470:6d:104::/64",
        "2001:470:6d:127::/64",
        "2001:470:6d:a6b::/64",
        "2001:470:6d:d2f::/64",
        "2001:470:6f:23b::/64",
        "2001:470:71:61b::/64",
        "2001:470:71:769::/64",
        "2001:470:18d1::/48",
        "2001:470:1dc9::/48",
        "2001:470:1f09:6df::/64",
        "2001:470:1f0b:307::/64",
        "2001:470:1f0b:377::/64",
        "2001:470:1f0b:3be::/64",
        "2001:470:1f0b:1120::/64",
        "2001:470:1f0b:165e::/64",
        "2001:470:1f11:36d::/64",
        "2001:470:1f13:3e1::/64",
        "2001:470:1f13:55c::/64",
        "2001:470:1f15:362::/64",
        "2001:470:1f15:6e9::/64",
        "2001:470:1f15:793::/64",
        "2001:470:1f15:128d::/64",
        "2001:470:1f1b:25e::/64",
        "2001:470:1f1b:3e1::/64",
        "2001:470:1f1b:414::/64",
        "2001:470:1f1d:233::/64",
        "2001:470:1f1d:e76::/64",
        "2001:470:1f21:222::/64",
        "2001:470:1f23:21::/64",
        "2001:470:20e5::/48",
        "2001:470:5371::/48",
        "2001:470:58d4::/48",
        "2001:470:6077::/48",
        "2001:470:64c2::/48",
        "2001:470:742e::/48",
        "2001:470:786a::/48",
        "2001:470:c143::/48",
        "2001:470:dd7f::/48",
        "2001:668:1f:fdbc::/64",
        "2001:678:e08::/48",
        "2001:67c:310::/48",
        "2001:67c:a38:f357::/64",
        "2001:67c:1350::/48",
        "2001:67c:17d8::/48",
        "2001:7f8:ec::/48",
        "2001:df1:8140::/48",
        "2001:1a18::/29",
        "2400:cb00:203::/48",
        "2400:cb00:235::/48",
        "2400:cb00:502::/48",
        "2600:70ff:b077::/48",
        "2600:70ff:b25a::/48",
        "2600:70ff:e80d::/48",
        "2600:70ff:f0a2::/48",
        "2602:2a9:c10::/44",
        "2602:fd92:b00:185::/64",
        "2606:40:19b0::/44",
        "2606:40:19c0::/44",
        "2606:40:22a0:2000::/51",
        "2606:40:22fe:6000::/51",
        "2606:54c0:2740::/44",
        "2606:54c3:0:102c::/64",
        "2606:54c3:0:11ee::/64",
        "2607:740:12::/48",
        "2607:8940:2e4e::/47",
        "2607:8940:2e50::/46",
        "2607:8940:4160:4d00::/56",
        "2607:8940:4160:4e00::/56",
        "2607:8940:4163:e100::/56",
        "2607:8940:4180:4d00::/56",
        "2607:8940:4180:4e00::/56",
        "2607:8940:4183:e100::/56",
        "2a00:1358::/29",
        "2a00:1ec0::/32",
        "2a00:48a0::/29",
        "2a00:4b60::/32",
        "2a00:9c00::/32",
        "2a00:aea0::/32",
        "2a01:5120::/32",
        "2a01:62c0::/32",
        "2a01:6700::/32",
        "2a01:79c0::/32",
        "2a01:a420::/29",
        "2a01:a440::/32",
        "2a01:ce83:a000::/36",
        "2a01:f680::/32",
        "2a02:540::/32",
        "2a02:640::/29",
        "2a02:be0::/32",
        "2a02:26f7:c200:4000::/64",
        "2a02:26f7:c200:cd60::/63",
        "2a02:26f7:c200:cd62::/64",
        "2a02:26f7:c201:4000::/64",
        "2a02:26f7:c204::/48",
        "2a02:26f7:c205:4000::/64",
        "2a02:26f7:c208::/48",
        "2a02:26f7:c209:4000::/64",
        "2a02:4780::/48",
        "2a02:4780:5::/48",
        "2a02:4780:7::/48",
        "2a02:4780:52::/47",
        "2a02:4780:54::/46",
        "2a02:4780:58::/45",
        "2a02:4780:60::/43",
        "2a02:4780:80::/41",
        "2a02:4780:100::/40",
        "2a02:4780:200::/39",
        "2a02:4780:400::/38",
        "2a02:4780:800::/39",
        "2a02:4780:a00::/40",
        "2a02:4780:b00::/41",
        "2a02:4780:b80::/43",
        "2a02:4780:ba0::/45",
        "2a02:4780:ba8::/46",
        "2a02:4780:bac::/48",
        "2a02:4780:bae::/47",
        "2a02:4780:bb0::/44",
        "2a02:4780:bc0::/42",
        "2a02:4780:c00::/38",
        "2a02:4780:1000::/36",
        "2a02:4780:2000::/35",
        "2a02:4780:4000::/34",
        "2a02:4780:8000::/34",
        "2a02:4780:c000::/36",
        "2a02:4780:d000::/37",
        "2a02:4780:d800::/38",
        "2a02:4780:dc00::/39",
        "2a02:4780:de00::/41",
        "2a02:4780:de80::/43",
        "2a02:4780:dea0::/45",
        "2a02:4780:dea8::/46",
        "2a02:4780:deac::/48",
        "2a02:4780:deae::/47",
        "2a02:4780:deb0::/44",
        "2a02:4780:dec0::/42",
        "2a02:4780:df00::/40",
        "2a02:4780:e000::/35",
        "2a02:5740:73::/48",
        "2a02:5741:73::/48",
        "2a02:5742:73::/48",
        "2a02:5743:73::/48",
        "2a02:5744:73::/48",
        "2a02:5745:73::/48",
        "2a02:5746:73::/48",
        "2a02:5747:73::/48",
        "2a02:76c0::/32",
        "2a02:7cc0::/32",
        "2a03:f80:357::/48",
        "2a03:1740::/32",
        "2a03:3b20::/32",
        "2a03:9d40:2f00::/40",
        "2a03:a7a0::/32",
        "2a03:db41::/32",
        "2a03:db42::/31",
        "2a03:db44::/30",
        "2a04:1480::/29",
        "2a04:4e41:50:3::/64",
        "2a04:4e41:50:1200::/56",
        "2a04:4e41:51:b::/64",
        "2a04:4e41:51:1700::/56",
        "2a04:4e41:65:79::/64",
        "2a04:4e41:65:3600::/56",
        "2a04:4e41:66:14::/63",
        "2a04:4e41:66:1b00::/56",
        "2a04:4e41:4013:6000::/52",
        "2a04:4e41:4023:6000::/52",
        "2a04:4e41:4033:6000::/52",
        "2a04:4e41:4043:6000::/52",
        "2a04:4e41:4053:6000::/52",
        "2a04:4e41:4063:6000::/52",
        "2a04:4e41:4073:6000::/52",
        "2a04:4e41:4083:6000::/52",
        "2a04:5f80::/29",
        "2a04:f140::/29",
        "2a04:f6c0::/29",
        "2a05:7880::/32",
        "2a05:7c42::/48",
        "2a05:8280::/29",
        "2a05:8500::/29",
        "2a05:b7c0::/29",
        "2a05:dfc1:5a41::/48",
        "2a05:f300::/29",
        "2a06:2a00::/29",
        "2a06:3040:f::/48",
        "2a06:3b00::/29",
        "2a06:3c80::/29",
        "2a06:4b80::/29",
        "2a06:75c0::/29",
        "2a06:7780::/29",
        "2a06:9dc0::/32",
        "2a06:9dc2::/31",
        "2a06:9dc4::/30",
        "2a06:ba00::/29",
        "2a06:e5c0::/29",
        "2a07:340::/29",
        "2a07:34c0::/29",
        "2a07:35c0::/31",
        "2a07:35c4::/30",
        "2a07:6680::/41",
        "2a07:6680:80::/44",
        "2a07:6680:91::/48",
        "2a07:6680:92::/47",
        "2a07:6680:94::/46",
        "2a07:6680:98::/45",
        "2a07:6680:a0::/43",
        "2a07:6680:c0::/42",
        "2a07:6680:100::/40",
        "2a07:6680:200::/39",
        "2a07:6680:400::/38",
        "2a07:6680:800::/37",
        "2a07:6680:1000::/36",
        "2a07:6680:2000::/35",
        "2a07:6680:4000::/34",
        "2a07:6680:8000::/33",
        "2a07:6681::/32",
        "2a07:6682::/31",
        "2a07:6684::/30",
        "2a07:8200::/29",
        "2a07:cac0::/29",
        "2a09:940::/29",
        "2a09:cc0::/29",
        "2a09:1140::/29",
        "2a09:1240::/29",
        "2a09:12c0::/29",
        "2a09:13c0::/29",
        "2a09:4040::/29",
        "2a09:40c0::/29",
        "2a09:41c0::/29",
        "2a09:4740::/29",
        "2a09:47c0::/29",
        "2a09:4cc0::/29",
        "2a09:4f40::/29",
        "2a09:4fc0::/29",
        "2a09:5040::/29",
        "2a09:50c0::/29",
        "2a09:5140::/29",
        "2a09:5240::/29",
        "2a09:54c1:185::/48",
        "2a09:6a80::/29",
        "2a09:6dc0::/29",
        "2a09:73c0::/29",
        "2a09:7700::/29",
        "2a09:7a40::/29",
        "2a09:7d40::/32",
        "2a09:8540::/29",
        "2a09:8a40::/29",
        "2a09:8a80::/29",
        "2a09:95c0::/29",
        "2a09:96c0::/29",
        "2a09:9740::/29",
        "2a09:97c0::/29",
        "2a09:9840::/29",
        "2a09:98c0::/29",
        "2a09:9940::/29",
        "2a09:9ac0::/29",
        "2a09:9b40::/29",
        "2a09:9cc0::/29",
        "2a09:9d40::/29",
        "2a09:9dc0::/29",
        "2a09:9e40::/29",
        "2a09:a080::/29",
        "2a09:a400::/29",
        "2a09:a840::/29",
        "2a09:a9c0::/29",
        "2a09:ae80::/29",
        "2a09:b440::/29",
        "2a09:b900::/29",
        "2a09:bac0:1000:1e9::/64",
        "2a09:bac0:1000:645::/64",
        "2a09:bac0:1001:239::/64",
        "2a09:bac1:1d00::/64",
        "2a09:bac1:1d00:58::/64",
        "2a09:bac1:1d20::/64",
        "2a09:bac1:1d20:58::/64",
        "2a09:bac1:1d40::/64",
        "2a09:bac1:1d40:58::/64",
        "2a09:bac1:1d60::/64",
        "2a09:bac1:1d60:58::/64",
        "2a09:bac2:2740::/44",
        "2a09:bac3:2740::/44",
        "2a09:bac4:1b0::/45",
        "2a09:bac4:11b0::/45",
        "2a09:bac5:2778::/45",
        "2a09:bac5:2780::/45",
        "2a09:bac6:2778::/45",
        "2a09:bac6:2780::/45",
        "2a09:be42:2400::/38",
        "2a09:be44:2400::/38",
        "2a09:be46:2400::/38",
        "2a09:c300::/29",
        "2a09:c540::/32",
        "2a09:cd40::/29",
        "2a09:f180::/29",
        "2a0a:1900::/29",
        "2a0a:38c0::/29",
        "2a0a:3ec0::/29",
        "2a0a:6042:5300::/40",
        "2a0a:6044:6414::/46",
        "2a0a:6044:6418::/45",
        "2a0a:6044:6420::/47",
        "2a0a:6044:6422::/48",
        "2a0a:6044:a142:6976::/64",
        "2a0a:6044:f414::/46",
        "2a0a:6044:f418::/45",
        "2a0a:6044:f420::/47",
        "2a0a:6044:f422::/48",
        "2a0a:6cc0::/29",
        "2a0a:8f00::/29",
        "2a0a:8f40:3::/48",
        "2a0a:92c0::/29",
        "2a0a:aa00::/30",
        "2a0a:b800::/29",
        "2a0a:cfc0::/29",
        "2a0a:d040::/29",
        "2a0a:d600::/29",
        "2a0a:dd80::/29",
        "2a0b:8c0::/29",
        "2a0b:12c0::/29",
        "2a0b:1500::/29",
        "2a0b:2180::/32",
        "2a0b:3d40::/29",
        "2a0b:4e40::/29",
        "2a0b:74c0:1::/48",
        "2a0b:74c0:2::/47",
        "2a0b:74c0:4::/46",
        "2a0b:74c0:8::/45",
        "2a0b:74c0:10::/44",
        "2a0b:74c0:20::/43",
        "2a0b:74c0:40::/42",
        "2a0b:74c0:80::/41",
        "2a0b:74c0:100::/40",
        "2a0b:74c0:200::/39",
        "2a0b:74c0:400::/38",
        "2a0b:74c0:800::/37",
        "2a0b:74c0:1000::/36",
        "2a0b:74c0:2000::/35",
        "2a0b:74c0:4000::/34",
        "2a0b:74c0:8000::/33",
        "2a0b:8b80::/29",
        "2a0b:9240::/29",
        "2a0b:9600::/29",
        "2a0b:a0c0::/29",
        "2a0b:a680::/32",
        "2a0b:c2c0::/29",
        "2a0b:ce00::/29",
        "2a0b:e380::/29",
        "2a0b:f280::/29",
        "2a0c:4c0::/29",
        "2a0c:3b80:4359::/48",
        "2a0c:3b80:6379::/48",
        "2a0c:3e40::/29",
        "2a0c:4bc0::/29",
        "2a0c:52c0::/29",
        "2a0c:5b80::/29",
        "2a0c:5cc0::/29",
        "2a0c:6ec0::/32",
        "2a0c:7300::/32",
        "2a0c:8140::/29",
        "2a0c:8280::/29",
        "2a0c:9a40:95b3:9000::/52",
        "2a0c:9e06:185::/48",
        "2a0c:ad80::/29",
        "2a0c:b9c0::/29",
        "2a0c:cc40::/29",
        "2a0c:fa80::/29",
        "2a0c:fc40::/29",
        "2a0d:11c0::/32",
        "2a0d:3344:1240::/42",
        "2a0d:3344:3640::/42",
        "2a0d:53c0::/29",
        "2a0d:5e40::/29",
        "2a0d:7d80::/29",
        "2a0d:8180::/29",
        "2a0d:8700::/29",
        "2a0d:9e80::/29",
        "2a0d:c3c0::/29",
        "2a0d:c500::/29",
        "2a0d:d000::/29",
        "2a0d:dbc0::/29",
        "2a0d:ddc0::/29",
        "2a0d:e000::/29",
        "2a0d:fd80::/29",
        "2a0e:300::/29",
        "2a0e:3dc1::/32",
        "2a0e:3dc2::/31",
        "2a0e:3dc4::/30",
        "2a0e:4640::/29",
        "2a0e:48c3:2400::/38",
        "2a0e:4e00::/29",
        "2a0e:6300::/29",
        "2a0e:7c00::/29",
        "2a0e:83c0::/29",
        "2a0e:9bc0::/29",
        "2a0e:9d80::/29",
        "2a0e:a100::/29",
        "2a0e:ae40::/32",
        "2a0e:b3c0::/29",
        "2a0e:cf80::/29",
        "2a0e:e200::/29",
        "2a0e:ec05:91c0::/42",
        "2a0e:ec05:9200::/40",
        "2a0e:ec05:9300::/41",
        "2a0e:ec05:9380::/42",
        "2a0f:1c0::/29",
        "2a0f:240::/29",
        "2a0f:c40::/29",
        "2a0f:cc0::/29",
        "2a0f:d40::/29",
        "2a0f:dc0::/29",
        "2a0f:e40::/29",
        "2a0f:1040::/29",
        "2a0f:1240::/29",
        "2a0f:12c0::/29",
        "2a0f:2040::/29",
        "2a0f:20c0::/29",
        "2a0f:2140::/29",
        "2a0f:21c0::/29",
        "2a0f:2240::/29",
        "2a0f:2800::/29",
        "2a0f:2ac0::/29",
        "2a0f:2b40::/29",
        "2a0f:2bc0::/29",
        "2a0f:2c40::/29",
        "2a0f:2cc0::/29",
        "2a0f:5b80::/29",
        "2a0f:9640::/29",
        "2a0f:d280::/29",
        "2a0f:d500::/29",
        "2a0f:e480::/29",
        "2a0f:f380::/29",
        "2a0f:f480::/29",
        "2a0f:f580::/29",
        "2a0f:f680::/29",
        "2a0f:f780::/29",
        "2a0f:f980::/29",
        "2a0f:f9c0::/29",
        "2a0f:fa80::/29",
        "2a0f:fb80::/29",
        "2a0f:fbc0::/29",
        "2a0f:fc40::/29",
        "2a0f:fcc0::/29",
        "2a0f:fd40::/29",
        "2a0f:fe80::/29",
        "2a10:500:7500::/40",
        "2a10:16c0::/29",
        "2a10:2480::/29",
        "2a10:2f80::/29",
        "2a10:38c0::/29",
        "2a10:3940::/29",
        "2a10:39c0::/29",
        "2a10:3a40::/29",
        "2a10:3ac0::/29",
        "2a10:3b40::/29",
        "2a10:3bc0::/29",
        "2a10:3c40::/29",
        "2a10:3cc0::/29",
        "2a10:3d40::/29",
        "2a10:3dc0::/29",
        "2a10:4200::/29",
        "2a10:4300::/29",
        "2a10:4400::/29",
        "2a10:4500::/29",
        "2a10:4600::/29",
        "2a10:4c00::/29",
        "2a10:50c0::/32",
        "2a10:51c0::/29",
        "2a10:5480::/29",
        "2a10:5600::/29",
        "2a10:5680::/29",
        "2a10:5780::/29",
        "2a10:5880::/29",
        "2a10:5980::/29",
        "2a10:5a00::/29",
        "2a10:5b80::/29",
        "2a10:6180::/29",
        "2a10:6200::/29",
        "2a10:6280::/29",
        "2a10:6600::/29",
        "2a10:6880::/29",
        "2a10:6980::/29",
        "2a10:6a00::/29",
        "2a10:6a80::/29",
        "2a10:6e00::/29",
        "2a10:7200::/29",
        "2a10:7280::/29",
        "2a10:7600::/29",
        "2a10:7800::/29",
        "2a10:7880::/29",
        "2a10:7c00::/29",
        "2a10:7e00::/29",
        "2a10:8400::/29",
        "2a10:89c0::/29",
        "2a10:a880::/29",
        "2a10:a980::/29",
        "2a10:ec00::/29",
        "2a11:dc0::/29",
        "2a11:16c0::/29",
        "2a11:33c0::/29",
        "2a11:3880::/29",
        "2a11:3980::/29",
        "2a11:3a80::/29",
        "2a11:3f40::/29",
        "2a11:5900::/29",
        "2a11:6780::/29",
        "2a11:6880::/29",
        "2a11:6980::/29",
        "2a11:6c40::/29",
        "2a11:7600::/29",
        "2a11:8140::/29",
        "2a11:9080::/29",
        "2a11:9180::/29",
        "2a11:9280::/29",
        "2a11:9680::/29",
        "2a11:a100::/29",
        "2a11:a680::/29",
        "2a11:a780::/29",
        "2a11:a880::/29",
        "2a11:a980::/29",
        "2a11:b280::/29",
        "2a11:b380::/29",
        "2a11:b480::/29",
        "2a11:b580::/29",
        "2a11:b9c0::/29",
        "2a11:ba40::/29",
        "2a11:d800::/29",
        "2a11:df80::/29",
        "2a11:e080::/29",
        "2a11:e180::/29",
        "2a11:e280::/29",
        "2a11:e900::/29",
        "2a11:ec00::/29",
        "2a11:f780::/29",
        "2a11:f980::/29",
        "2a11:fa80::/29",
        "2a12:1ac0::/29",
        "2a12:1b40::/29",
        "2a12:3c40::/29",
        "2a12:49c1:2400::/38",
        "2a12:49c3:2400::/38",
        "2a12:49c4:480::/41",
        "2a12:49c5:2400::/38",
        "2a12:4b40::/29",
        "2a12:5780::/29",
        "2a12:7a80::/29",
        "2a12:7b80::/29",
        "2a12:7d80::/29",
        "2a12:7e80::/29",
        "2a12:bec0:39b::/48",
        "2a12:c040::/29",
        "2a12:e740::/29",
        "2a13:f80::/29",
        "2a13:41c0::/29",
        "2a13:4bc0::/29",
        "2a13:58c0::/29",
        "2a13:6ac4::/32",
        "2a13:8280::/29",
        "2a13:8e00::/29",
        "2a13:8ec0::/29",
        "2a13:9200::/29",
        "2a13:9300::/29",
        "2a13:a5c3:d020::/46",
        "2a13:a5c3:d42c::/46",
        "2a13:a700::/29",
        "2a13:ab00::/29",
        "2a13:b100::/29",
        "2a13:b500::/29",
        "2a13:b700::/29",
        "2a13:b900::/29",
        "2a13:c400::/29",
        "2a13:c800::/29",
        "2a13:da00::/29",
        "2a13:df80:6802::/48",
        "2a13:e200::/29",
        "2a13:e400::/29",
        "2a13:f7c0::/29",
        "2a13:fe00::/29",
        "2a14:1c6::/37",
        "2a14:d80::/29",
        "2a14:e80::/29",
        "2a14:18c0::/29",
        "2a14:2b40::/29",
        "2a14:3d40::/29"
      ]
    }
  ]
}
