{
  "version": 1,
  "rules": [
    {
      "ip_cidr": [
        "5.102.79.0/24",
        "37.35.105.206/31",
        "45.169.164.0/22",
        "46.193.3.116/32",
        "46.193.53.128/32",
        "46.193.54.15/32",
        "46.193.201.66/32",
        "46.193.201.229/32",
        "57.74.248.0/23",
        "57.75.96.0/20",
        "81.248.32.0/19",
        "82.123.128.0/17",
        "82.197.112.0/26",
        "82.197.112.64/27",
        "82.197.112.96/28",
        "82.197.112.112/29",
        "82.197.112.120/31",
        "82.197.112.123/32",
        "82.197.112.124/30",
        "82.197.112.128/25",
        "82.197.113.0/24",
        "82.197.114.0/24",
        "82.197.115.0/28",
        "82.197.115.16/30",
        "82.197.115.21/32",
        "82.197.115.22/31",
        "82.197.115.24/29",
        "82.197.115.32/27",
        "82.197.115.64/26",
        "82.197.115.128/25",
        "82.197.116.0/25",
        "82.197.116.128/26",
        "82.197.116.192/27",
        "82.197.116.224/28",
        "82.197.116.240/30",
        "82.197.116.244/32",
        "82.197.116.246/31",
        "82.197.116.248/29",
        "82.197.117.0/24",
        "82.197.118.0/23",
        "90.31.135.194/32",
        "90.82.48.0/20",
        "92.142.0.0/17",
        "93.176.32.0/21",
        "93.176.56.0/21",
        "94.124.156.0/24",
        "94.198.182.0/24",
        "104.28.10.67/32",
        "104.28.10.68/31",
        "104.28.36.87/32",
        "104.28.36.88/32",
        "104.28.47.210/31",
        "104.28.61.75/32",
        "104.28.61.76/32",
        "104.28.63.207/32",
        "104.28.63.208/32",
        "104.28.221.51/32",
        "104.28.221.52/30",
        "104.28.221.56/32",
        "104.28.253.51/32",
        "104.28.253.52/30",
        "104.28.253.56/32",
        "109.62.24.0/21",
        "109.62.56.0/21",
        "109.62.66.0/24",
        "109.62.69.64/26",
        "109.62.108.0/22",
        "128.201.88.0/22",
        "138.84.57.0/24",
        "140.248.24.48/31",
        "140.248.34.104/31",
        "140.248.41.48/31",
        "140.248.44.46/31",
        "140.248.56.79/32",
        "140.248.57.79/32",
        "140.248.58.79/32",
        "140.248.59.79/32",
        "140.248.60.79/32",
        "140.248.61.79/32",
        "140.248.62.79/32",
        "140.248.63.79/32",
        "146.75.169.104/31",
        "157.5.124.164/31",
        "157.167.19.0/24",
        "161.22.64.0/18",
        "163.116.226.140/31",
        "163.116.250.98/31",
        "170.233.72.0/22",
        "172.225.120.160/27",
        "172.225.238.192/28",
        "172.226.10.128/28",
        "185.21.213.0/24",
        "186.2.244.0/22",
        "188.115.112.0/22",
        "193.248.17.0/24",
        "193.248.64.0/20",
        "193.251.231.120/30",
        "194.3.192.0/18",
        "194.50.99.81/32",
        "200.13.136.0/21",
        "212.115.153.96/30",
        "212.222.117.172/30",
        "212.222.118.0/29",
        "213.188.160.0/22",
        "2001:470:1d:22::/64",
        "2001:470:1d:319::/64",
        "2001:470:1d:351::/64",
        "2001:470:1d:35f::/64",
        "2001:470:1f15:26::/64",
        "2001:470:7a39::/48",
        "2605:59c8:6840::/42",
        "2606:54c0:3840::/45",
        "2606:54c3:0:228::/64",
        "2607:8940:4200:a400::/55",
        "2803:3a0::/32",
        "2803:1680::/32",
        "2803:1740::/32",
        "2803:53c0::/32",
        "2803:5900::/32",
        "2803:9810:5300::/42",
        "2803:9810:a300::/42",
        "2803:c700::/32",
        "2a01:cb20:8000::/34",
        "2a01:cb20:c400::/38",
        "2a01:cb20:c800::/37",
        "2a01:cb20:d000::/36",
        "2a01:cb20:e000::/35",
        "2a02:26f7:e980:4000::/64",
        "2a02:26f7:e980:c280::/64",
        "2a02:26f7:e981:4000::/64",
        "2a02:26f7:e988:4000::/64",
        "2a02:26f7:e988:c280::/64",
        "2a02:26f7:e989:4000::/64",
        "2a02:26f7:e98c:4000::/64",
        "2a02:26f7:e98c:c280::/64",
        "2a02:26f7:e98d:4000::/64",
        "2a04:4e41:13:18::/64",
        "2a04:4e41:13:1700::/56",
        "2a04:4e41:16:2000::/56",
        "2a04:4e41:4e:34::/64",
        "2a04:4e41:4e:1f00::/56",
        "2a04:4e41:5d:18::/64",
        "2a04:4e41:5d:1700::/56",
        "2a04:4e41:65:34::/64",
        "2a04:4e41:65:1f00::/56",
        "2a04:4e41:4014:f000::/52",
        "2a04:4e41:4024:f000::/52",
        "2a04:4e41:4034:f000::/52",
        "2a04:4e41:4044:f000::/52",
        "2a04:4e41:4054:f000::/52",
        "2a04:4e41:4064:f000::/52",
        "2a04:4e41:4074:f000::/52",
        "2a04:4e41:4084:f000::/52",
        "2a05:dfc1:5a5c::/48",
        "2a09:bac1:2a00::/64",
        "2a09:bac1:2a20::/64",
        "2a09:bac1:2a40::/64",
        "2a09:bac1:2a60::/64",
        "2a09:bac2:3840::/45",
        "2a09:bac3:3840::/45",
        "2a09:bac4:278::/45",
        "2a09:bac4:1278::/45",
        "2a09:bac5:38a8::/45",
        "2a09:bac6:38a8::/45",
        "2a0a:6044:647d::/48",
        "2a0a:6044:647e::/47",
        "2a0a:6044:6480::/45",
        "2a0a:6044:6488::/46",
        "2a0a:6044:f47d::/48",
        "2a0a:6044:f47e::/47",
        "2a0a:6044:f480::/45",
        "2a0a:6044:f488::/46",
        "2a0c:3b80:4746::/48",
        "2a0c:3b80:6766::/48",
        "2a0c:9a40:95b4:c000::/52",
        "2a14:1c7:9000::/37"
      ]
    }
  ]
}
