{
  "version": 1,
  "rules": [
    {
      "ip_cidr": [
        "5.62.60.161/32",
        "5.62.60.162/31",
        "5.62.62.157/32",
        "5.62.62.158/31",
        "37.18.44.0/22",
        "37.230.164.0/22",
        "37.230.214.0/23",
        "37.230.216.0/22",
        "37.230.220.0/23",
        "46.16.16.0/21",
        "46.243.151.0/24",
        "88.83.0.0/19",
        "91.90.120.0/24",
        "92.62.123.0/24",
        "104.28.10.79/32",
        "104.28.10.80/31",
        "104.28.31.23/32",
        "104.28.31.24/32",
        "104.28.39.19/32",
        "104.28.39.20/32",
        "104.28.53.4/31",
        "104.28.53.8/31",
        "104.28.55.49/32",
        "104.28.55.50/32",
        "104.28.57.49/32",
        "104.28.57.50/32",
        "104.28.65.21/32",
        "104.28.65.22/32",
        "104.28.86.31/32",
        "104.28.86.32/32",
        "104.28.86.53/32",
        "104.28.86.54/32",
        "104.28.89.8/31",
        "104.28.105.18/31",
        "104.28.132.47/32",
        "104.28.132.48/31",
        "104.28.132.50/32",
        "104.28.133.49/32",
        "104.28.133.50/32",
        "104.28.197.87/32",
        "104.28.197.88/30",
        "104.28.197.92/32",
        "104.28.203.136/31",
        "104.28.203.138/32",
        "104.28.210.204/30",
        "104.28.210.208/32",
        "104.28.220.166/31",
        "104.28.220.168/32",
        "104.28.229.87/32",
        "104.28.229.88/30",
        "104.28.229.92/32",
        "104.28.235.136/31",
        "104.28.235.138/32",
        "104.28.242.204/30",
        "104.28.242.208/32",
        "104.28.252.166/31",
        "104.28.252.168/32",
        "128.0.70.0/24",
        "140.248.36.122/31",
        "140.248.56.83/32",
        "140.248.57.83/32",
        "140.248.58.83/32",
        "140.248.59.83/32",
        "140.248.60.83/32",
        "140.248.61.83/32",
        "140.248.62.83/32",
        "140.248.63.83/32",
        "146.75.194.0/31",
        "146.75.200.16/31",
        "157.167.127.0/24",
        "172.225.70.96/27",
        "172.225.70.192/27",
        "172.225.138.224/27",
        "172.225.139.0/27",
        "172.225.182.32/27",
        "172.225.182.128/27",
        "172.225.196.48/28",
        "172.225.196.64/27",
        "172.225.196.96/28",
        "172.225.210.64/27",
        "172.225.236.0/26",
        "172.225.255.96/27",
        "172.225.255.128/27",
        "176.53.177.0/24",
        "178.170.132.0/22",
        "178.170.147.0/24",
        "178.170.160.0/22",
        "178.170.199.0/24",
        "178.170.200.0/22",
        "178.170.204.0/23",
        "178.170.210.0/23",
        "178.170.212.0/22",
        "178.170.216.0/24",
        "185.18.188.0/22",
        "185.21.228.0/22",
        "185.57.160.0/22",
        "185.93.20.0/22",
        "185.157.200.0/22",
        "188.72.71.0/24",
        "194.50.99.85/32",
        "194.177.224.0/19",
        "2602:2a9:b90::/44",
        "2606:54c0:3870::/44",
        "2606:54c0:3880::/44",
        "2606:54c3:0:2d6::/64",
        "2606:54c3:0:ae8::/64",
        "2606:54c3:0:10f5::/64",
        "2606:54c3:0:1621::/64",
        "2a00:1fa8::/32",
        "2a02:26f7:d000:4000::/64",
        "2a02:26f7:d001:4000::/64",
        "2a02:26f7:d004:4000::/64",
        "2a02:26f7:d005:4000::/64",
        "2a02:26f7:d008:4000::/64",
        "2a02:26f7:d009:4000::/64",
        "2a02:26f7:d00c:4000::/64",
        "2a02:26f7:d00d:4000::/64",
        "2a02:26f7:d040:4000::/64",
        "2a02:26f7:d041:4000::/64",
        "2a02:26f7:d044:4000::/64",
        "2a02:26f7:d045:4000::/64",
        "2a02:26f7:d048:4000::/64",
        "2a02:26f7:d049:4000::/64",
        "2a02:26f7:d04c:4000::/64",
        "2a02:26f7:d04d:4000::/64",
        "2a02:26f7:e600:4000::/64",
        "2a02:26f7:e600:d120::/62",
        "2a02:26f7:e600:d125::/64",
        "2a02:26f7:e600:d126::/63",
        "2a02:26f7:e600:d128::/64",
        "2a02:26f7:e601:4000::/64",
        "2a02:26f7:e602:4000::/64",
        "2a02:26f7:e602:d120::/62",
        "2a02:26f7:e602:d125::/64",
        "2a02:26f7:e602:d126::/63",
        "2a02:26f7:e602:d128::/64",
        "2a02:26f7:e603:4000::/64",
        "2a02:26f7:e604:4000::/64",
        "2a02:26f7:e604:d120::/62",
        "2a02:26f7:e604:d125::/64",
        "2a02:26f7:e604:d126::/63",
        "2a02:26f7:e604:d128::/64",
        "2a02:26f7:e605:4000::/64",
        "2a02:26f7:e608:4000::/64",
        "2a02:26f7:e608:d120::/62",
        "2a02:26f7:e608:d125::/64",
        "2a02:26f7:e608:d126::/63",
        "2a02:26f7:e608:d128::/64",
        "2a02:26f7:e609:4000::/64",
        "2a02:26f7:e640:4000::/64",
        "2a02:26f7:e641:4000::/64",
        "2a02:26f7:e642:4000::/64",
        "2a02:26f7:e643:4000::/64",
        "2a02:26f7:e644:4000::/64",
        "2a02:26f7:e645:4000::/64",
        "2a02:26f7:e648:4000::/64",
        "2a02:26f7:e649:4000::/64",
        "2a03:fdc0::/32",
        "2a04:4e41:2e::/64",
        "2a04:4e41:2e:1000::/56",
        "2a04:4e41:34:8::/64",
        "2a04:4e41:34:1200::/56",
        "2a04:4e41:66:3d::/64",
        "2a04:4e41:66:2700::/56",
        "2a04:4e41:4015:3000::/52",
        "2a04:4e41:4025:3000::/52",
        "2a04:4e41:4035:3000::/52",
        "2a04:4e41:4045:3000::/52",
        "2a04:4e41:4055:3000::/52",
        "2a04:4e41:4065:3000::/52",
        "2a04:4e41:4075:3000::/52",
        "2a04:4e41:4085:3000::/52",
        "2a05:4140:223::/48",
        "2a05:4140:224::/47",
        "2a05:dfc1:5a60::/48",
        "2a09:bac1:2c00::/64",
        "2a09:bac1:2c00:8::/64",
        "2a09:bac1:2c00:10::/64",
        "2a09:bac1:2c00:530::/64",
        "2a09:bac1:2c20::/64",
        "2a09:bac1:2c20:8::/64",
        "2a09:bac1:2c20:10::/64",
        "2a09:bac1:2c20:530::/64",
        "2a09:bac1:2c40::/64",
        "2a09:bac1:2c40:8::/64",
        "2a09:bac1:2c40:10::/64",
        "2a09:bac1:2c40:530::/64",
        "2a09:bac1:2c60::/64",
        "2a09:bac1:2c60:8::/64",
        "2a09:bac1:2c60:10::/64",
        "2a09:bac1:2c60:530::/64",
        "2a09:bac2:3870::/44",
        "2a09:bac2:3880::/44",
        "2a09:bac3:3870::/44",
        "2a09:bac3:3880::/44",
        "2a09:bac4:298::/45",
        "2a09:bac4:1298::/45",
        "2a09:bac5:38d8::/45",
        "2a09:bac5:38e0::/44",
        "2a09:bac5:38f0::/45",
        "2a09:bac6:38d8::/45",
        "2a09:bac6:38e0::/44",
        "2a09:bac6:38f0::/45",
        "2a0a:6044:64be::/47",
        "2a0a:6044:64c0::/45",
        "2a0a:6044:64c8::/46",
        "2a0a:6044:64cc::/48",
        "2a0a:6044:f4be::/47",
        "2a0a:6044:f4c0::/45",
        "2a0a:6044:f4c8::/46",
        "2a0a:6044:f4cc::/48",
        "2a0c:3b80:474c::/48",
        "2a0c:3b80:676c::/48",
        "2a0c:9a40:95b5:6000::/52",
        "2a0d:6c2:2200::/40",
        "2a0d:6c2:2e00::/40",
        "2a0e:3b80::/29",
        "2a0f:7803:fb46::/48",
        "2a13:b487:5029::/48",
        "2a14:1c7:5000::/37"
      ]
    }
  ]
}
