{
  "version": 1,
  "rules": [
    {
      "ip_cidr": [
        "2.56.250.0/24",
        "2.57.176.0/22",
        "2.57.236.0/24",
        "2.58.85.0/24",
        "2.59.56.0/23",
        "2.59.58.0/24",
        "2.59.60.0/24",
        "2.59.62.0/23",
        "5.20.0.0/16",
        "5.39.31.68/32",
        "5.39.127.248/30",
        "5.62.60.237/32",
        "5.62.60.238/31",
        "5.62.62.229/32",
        "5.62.62.230/31",
        "5.133.64.0/22",
        "5.135.225.240/30",
        "5.180.153.0/24",
        "5.181.177.0/24",
        "5.181.178.0/23",
        "5.182.12.0/22",
        "5.188.174.0/23",
        "5.196.202.64/30",
        "5.199.160.0/22",
        "5.199.168.0/21",
        "5.252.184.0/22",
        "8.29.230.14/32",
        "14.102.4.0/23",
        "14.102.6.0/24",
        "14.102.7.0/30",
        "14.102.7.4/31",
        "14.102.7.6/32",
        "14.102.7.8/29",
        "14.102.7.16/28",
        "14.102.7.32/27",
        "14.102.7.64/26",
        "14.102.7.128/25",
        "14.102.9.0/24",
        "14.102.10.0/26",
        "14.102.10.64/27",
        "14.102.10.96/30",
        "14.102.10.101/32",
        "14.102.10.102/31",
        "14.102.10.104/29",
        "14.102.10.112/28",
        "14.102.10.128/25",
        "16.166.163.90/32",
        "31.13.214.0/24",
        "31.14.176.0/22",
        "31.41.248.0/24",
        "31.44.96.0/21",
        "31.57.102.0/24",
        "31.135.216.0/21",
        "31.172.224.0/22",
        "31.177.8.0/21",
        "31.193.192.0/21",
        "31.209.64.0/20",
        "34.99.40.0/22",
        "34.103.34.0/23",
        "37.0.208.0/20",
        "37.0.224.0/19",
        "37.60.142.0/24",
        "37.61.225.0/24",
        "37.61.230.0/24",
        "37.156.216.130/32",
        "37.156.216.160/27",
        "37.156.216.192/26",
        "37.156.217.0/24",
        "37.156.218.128/25",
        "37.156.219.0/24",
        "37.156.220.0/22",
        "37.157.144.0/21",
        "37.230.180.0/24",
        "38.89.240.0/22",
        "38.121.108.0/22",
        "38.127.100.0/22",
        "43.229.8.0/22",
        "43.245.116.0/23",
        "45.8.172.0/24",
        "45.10.158.0/23",
        "45.12.80.0/24",
        "45.12.83.0/24",
        "45.13.52.0/22",
        "45.13.148.0/23",
        "45.40.122.0/24",
        "45.66.60.0/23",
        "45.66.63.0/24",
        "45.66.196.0/22",
        "45.81.58.0/24",
        "45.81.252.0/24",
        "45.81.254.0/24",
        "45.82.32.0/22",
        "45.84.204.0/22",
        "45.84.244.0/22",
        "45.85.105.128/25",
        "45.87.175.0/24",
        "45.88.196.0/22",
        "45.88.224.0/23",
        "45.91.136.0/24",
        "45.91.138.0/23",
        "45.92.104.0/22",
        "45.93.136.0/22",
        "45.95.32.0/22",
        "45.95.144.0/23",
        "45.95.212.0/23",
        "45.95.215.0/24",
        "45.113.238.0/24",
        "45.123.190.0/24",
        "45.125.65.0/24",
        "45.125.66.0/24",
        "45.128.160.0/22",
        "45.130.76.0/22",
        "45.133.56.0/22",
        "45.135.35.0/24",
        "45.135.248.0/22",
        "45.137.96.0/24",
        "45.138.12.0/22",
        "45.142.236.0/24",
        "45.143.8.0/24",
        "45.143.11.0/24",
        "45.145.32.0/22",
        "45.146.80.0/23",
        "45.146.160.0/24",
        "45.146.200.0/22",
        "45.149.184.0/24",
        "45.151.45.0/24",
        "45.153.4.0/24",
        "45.153.7.0/24",
        "45.154.35.0/24",
        "45.154.106.0/24",
        "45.155.16.0/23",
        "45.155.18.0/24",
        "45.157.16.0/22",
        "45.158.9.0/24",
        "45.158.10.0/24",
        "45.251.60.0/22",
        "46.17.174.0/23",
        "46.17.240.0/22",
        "46.29.234.0/24",
        "46.36.64.0/19",
        "46.36.200.0/32",
        "46.36.201.0/32",
        "46.36.201.51/32",
        "46.36.201.52/30",
        "46.36.201.100/32",
        "46.36.201.255/32",
        "46.105.68.40/32",
        "46.148.16.0/20",
        "46.166.160.0/21",
        "46.166.168.0/27",
        "46.166.168.32/29",
        "46.166.168.48/28",
        "46.166.168.64/26",
        "46.166.168.128/25",
        "46.166.169.0/24",
        "46.166.170.0/23",
        "46.166.172.0/22",
        "46.243.160.0/24",
        "46.249.160.0/19",
        "46.251.32.0/19",
        "46.255.208.0/21",
        "51.195.36.117/32",
        "51.195.74.120/29",
        "51.255.58.128/27",
        "54.36.80.75/32",
        "57.86.164.0/22",
        "57.87.160.0/20",
        "62.3.0.0/24",
        "62.3.20.0/24",
        "62.72.20.0/22",
        "62.72.32.0/22",
        "62.77.152.0/21",
        "62.80.224.0/19",
        "62.122.76.0/22",
        "62.128.112.100/30",
        "62.128.113.0/28",
        "62.128.113.17/32",
        "62.128.113.36/31",
        "62.128.113.64/27",
        "62.128.113.176/28",
        "62.128.113.192/30",
        "62.128.113.240/29",
        "62.128.122.16/32",
        "62.128.122.41/32",
        "62.128.122.79/32",
        "62.128.122.80/32",
        "62.128.122.116/32",
        "62.128.122.141/32",
        "62.128.122.179/32",
        "62.128.122.180/32",
        "62.197.149.0/24",
        "62.200.95.185/32",
        "62.212.192.0/19",
        "63.141.34.0/23",
        "64.190.252.0/22",
        "66.102.9.30/32",
        "66.102.9.133/32",
        "66.102.37.192/26",
        "72.14.201.86/32",
        "74.118.126.124/30",
        "77.37.49.0/24",
        "77.37.54.0/23",
        "77.37.70.0/23",
        "77.37.72.0/23",
        "77.67.86.16/28",
        "77.75.40.0/21",
        "77.79.0.0/18",
        "77.87.8.0/21",
        "77.90.64.0/18",
        "77.94.32.0/23",
        "77.94.34.0/24",
        "77.94.40.0/23",
        "77.94.48.0/24",
        "77.94.52.0/23",
        "77.94.56.0/21",
        "77.221.64.0/19",
        "77.240.248.0/21",
        "77.241.192.0/20",
        "78.31.184.0/21",
        "78.31.224.0/21",
        "78.56.0.0/16",
        "78.57.0.0/19",
        "78.57.32.0/21",
        "78.57.40.0/22",
        "78.57.44.0/25",
        "78.57.44.128/27",
        "78.57.44.160/29",
        "78.57.44.168/30",
        "78.57.44.172/31",
        "78.57.44.174/32",
        "78.57.44.176/28",
        "78.57.44.192/26",
        "78.57.45.0/24",
        "78.57.46.0/23",
        "78.57.48.0/20",
        "78.57.64.0/18",
        "78.57.128.0/17",
        "78.58.0.0/15",
        "78.60.0.0/14",
        "78.138.1.0/24",
        "78.153.131.0/24",
        "78.157.64.0/20",
        "78.157.80.0/21",
        "78.157.88.0/22",
        "78.157.92.0/23",
        "78.157.94.0/24",
        "78.157.95.0/26",
        "78.157.95.128/25",
        "78.158.0.0/19",
        "79.98.24.0/21",
        "79.110.239.0/24",
        "79.132.160.0/19",
        "79.133.224.0/19",
        "79.142.112.0/20",
        "80.208.224.0/21",
        "80.209.224.0/20",
        "80.239.148.104/29",
        "80.239.215.48/29",
        "80.239.221.168/29",
        "80.240.0.0/20",
        "80.253.116.0/29",
        "81.7.64.0/18",
        "81.16.224.0/20",
        "81.29.16.0/20",
        "81.92.27.240/29",
        "81.198.189.0/24",
        "82.117.81.0/24",
        "82.135.128.0/17",
        "82.140.128.0/21",
        "82.140.138.0/23",
        "82.140.140.0/23",
        "82.140.143.0/24",
        "82.140.148.0/24",
        "82.140.150.0/24",
        "82.140.152.0/23",
        "82.140.156.0/24",
        "82.140.158.0/23",
        "82.140.160.0/21",
        "82.140.168.0/25",
        "82.140.168.128/32",
        "82.140.168.130/31",
        "82.140.168.132/30",
        "82.140.168.136/29",
        "82.140.168.144/28",
        "82.140.168.160/27",
        "82.140.168.192/26",
        "82.140.169.0/24",
        "82.140.170.0/23",
        "82.140.172.0/23",
        "82.140.174.0/32",
        "82.140.174.2/31",
        "82.140.174.4/30",
        "82.140.174.8/29",
        "82.140.174.16/28",
        "82.140.174.32/27",
        "82.140.174.64/26",
        "82.140.174.128/25",
        "82.140.175.0/24",
        "82.140.176.0/22",
        "82.140.180.0/24",
        "82.140.184.0/21",
        "82.198.1.0/24",
        "82.198.2.0/23",
        "82.198.4.0/22",
        "82.198.14.0/24",
        "82.198.16.128/25",
        "82.198.27.0/24",
        "82.198.29.0/24",
        "82.206.0.0/23",
        "82.206.10.0/23",
        "83.171.0.0/18",
        "83.176.160.0/19",
        "83.176.192.0/18",
        "83.177.188.163/32",
        "83.179.0.0/21",
        "83.179.8.0/23",
        "83.179.10.0/24",
        "83.179.11.64/26",
        "83.179.11.128/25",
        "83.179.12.0/22",
        "83.179.16.0/20",
        "83.179.32.0/19",
        "83.179.64.0/18",
        "83.179.192.0/19",
        "83.179.224.0/23",
        "83.179.226.0/24",
        "83.179.228.0/22",
        "83.179.232.0/21",
        "83.179.240.0/21",
        "83.179.248.0/22",
        "83.179.253.0/24",
        "83.179.254.0/23",
        "83.181.56.0/21",
        "83.181.64.0/18",
        "83.181.160.0/19",
        "83.187.16.0/20",
        "83.187.64.0/18",
        "83.188.64.0/18",
        "83.188.180.0/23",
        "83.189.0.0/18",
        "83.189.104.0/21",
        "83.189.112.0/20",
        "83.189.160.0/19",
        "83.189.192.0/18",
        "83.190.103.176/32",
        "83.190.108.54/32",
        "83.241.180.88/29",
        "84.15.0.0/17",
        "84.15.144.0/20",
        "84.15.160.0/19",
        "84.15.196.0/22",
        "84.15.224.0/19",
        "84.32.0.0/22",
        "84.32.7.0/24",
        "84.32.12.0/23",
        "84.32.15.0/24",
        "84.32.16.0/22",
        "84.32.33.0/24",
        "84.32.35.0/24",
        "84.32.36.0/23",
        "84.32.38.0/24",
        "84.32.40.0/24",
        "84.32.59.0/24",
        "84.32.63.0/24",
        "84.32.70.0/24",
        "84.32.72.0/22",
        "84.32.80.0/23",
        "84.32.84.0/24",
        "84.32.87.0/24",
        "84.32.91.0/24",
        "84.32.96.0/21",
        "84.32.106.0/23",
        "84.32.112.0/20",
        "84.32.132.0/22",
        "84.32.140.0/22",
        "84.32.144.0/22",
        "84.32.148.0/23",
        "84.32.151.0/24",
        "84.32.152.0/24",
        "84.32.154.0/24",
        "84.32.156.0/24",
        "84.32.160.0/21",
        "84.32.168.0/22",
        "84.32.173.0/24",
        "84.32.176.0/21",
        "84.32.192.0/20",
        "84.32.208.0/23",
        "84.32.214.0/23",
        "84.32.217.0/24",
        "84.32.218.0/24",
        "84.32.231.0/24",
        "84.32.236.0/24",
        "84.32.244.0/24",
        "84.32.248.0/24",
        "84.32.250.0/23",
        "84.46.128.0/20",
        "84.46.144.0/21",
        "84.46.152.0/22",
        "84.46.156.0/23",
        "84.46.158.0/24",
        "84.46.160.0/22",
        "84.46.164.0/24",
        "84.46.167.0/24",
        "84.46.168.0/23",
        "84.46.170.0/24",
        "84.46.172.0/22",
        "84.46.176.0/21",
        "84.46.184.0/23",
        "84.46.188.0/22",
        "84.46.192.0/22",
        "84.46.196.0/24",
        "84.46.201.0/24",
        "84.46.202.0/23",
        "84.46.204.0/23",
        "84.46.207.0/24",
        "84.46.208.0/23",
        "84.46.211.0/24",
        "84.46.212.0/22",
        "84.46.216.0/24",
        "84.46.219.0/24",
        "84.46.220.0/24",
        "84.46.222.0/23",
        "84.46.224.0/23",
        "84.46.227.0/24",
        "84.46.228.0/22",
        "84.46.232.0/22",
        "84.55.15.0/24",
        "84.55.18.0/24",
        "84.55.24.0/21",
        "84.55.32.0/19",
        "84.240.0.0/23",
        "84.240.3.0/24",
        "84.240.4.0/22",
        "84.240.8.0/21",
        "84.240.16.0/20",
        "84.240.32.0/19",
        "85.92.104.0/22",
        "85.204.74.0/24",
        "85.206.0.0/16",
        "85.208.224.0/22",
        "85.209.228.0/22",
        "85.232.128.0/19",
        "85.254.94.0/23",
        "85.254.96.0/22",
        "85.254.159.0/25",
        "85.254.160.0/22",
        "85.254.169.0/24",
        "85.255.48.0/20",
        "85.255.96.0/20",
        "86.38.0.0/22",
        "86.38.6.0/24",
        "86.38.8.0/21",
        "86.38.16.0/23",
        "86.38.18.0/24",
        "86.38.20.0/22",
        "86.38.25.0/24",
        "86.38.26.0/24",
        "86.38.28.0/22",
        "86.38.33.0/24",
        "86.38.34.0/23",
        "86.38.36.0/24",
        "86.38.38.0/23",
        "86.38.40.0/21",
        "86.38.48.0/21",
        "86.38.56.0/23",
        "86.38.59.0/24",
        "86.38.60.0/22",
        "86.38.64.0/22",
        "86.38.68.0/23",
        "86.38.72.0/21",
        "86.38.80.0/21",
        "86.38.89.0/24",
        "86.38.90.0/24",
        "86.38.92.0/22",
        "86.38.96.0/23",
        "86.38.98.0/24",
        "86.38.100.0/24",
        "86.38.102.0/23",
        "86.38.104.0/23",
        "86.38.107.0/24",
        "86.38.108.0/23",
        "86.38.110.0/24",
        "86.38.112.0/21",
        "86.38.120.0/22",
        "86.38.124.0/23",
        "86.38.126.0/24",
        "86.38.128.0/23",
        "86.38.130.0/24",
        "86.38.133.0/24",
        "86.38.134.0/23",
        "86.38.136.0/23",
        "86.38.138.0/24",
        "86.38.140.0/22",
        "86.38.145.0/24",
        "86.38.146.0/23",
        "86.38.148.0/23",
        "86.38.150.0/24",
        "86.38.152.0/22",
        "86.38.158.0/23",
        "86.38.160.0/21",
        "86.38.168.0/22",
        "86.38.172.0/23",
        "86.38.174.0/24",
        "86.38.176.0/22",
        "86.38.182.0/23",
        "86.38.184.0/24",
        "86.38.187.0/24",
        "86.38.188.0/24",
        "86.38.191.0/24",
        "86.38.192.0/22",
        "86.38.198.0/24",
        "86.38.201.0/24",
        "86.38.206.0/23",
        "86.38.208.0/23",
        "86.38.211.0/24",
        "86.38.212.0/22",
        "86.38.222.0/23",
        "86.38.224.0/24",
        "86.38.227.0/24",
        "86.38.228.0/22",
        "86.38.233.0/24",
        "86.38.234.0/24",
        "86.38.236.0/22",
        "86.38.240.0/24",
        "86.38.244.0/23",
        "86.38.246.0/24",
        "86.38.248.0/21",
        "86.100.0.0/16",
        "86.104.215.0/24",
        "86.104.227.0/24",
        "87.110.233.0/24",
        "87.120.58.0/24",
        "87.120.62.0/24",
        "87.120.192.0/23",
        "87.120.247.0/24",
        "87.121.62.0/23",
        "87.121.102.0/24",
        "87.239.80.0/21",
        "87.239.112.0/21",
        "87.247.64.0/18",
        "88.80.142.0/23",
        "88.118.0.0/16",
        "88.119.0.0/17",
        "88.119.128.0/19",
        "88.119.160.0/21",
        "88.119.168.0/23",
        "88.119.172.0/22",
        "88.119.176.0/20",
        "88.119.192.0/18",
        "88.135.16.0/20",
        "88.214.52.0/22",
        "88.216.4.0/22",
        "88.216.8.0/21",
        "88.216.24.0/21",
        "88.216.34.0/24",
        "88.216.43.0/24",
        "88.216.48.0/21",
        "88.216.57.0/24",
        "88.216.66.0/23",
        "88.216.68.0/22",
        "88.216.72.0/21",
        "88.216.80.0/21",
        "88.216.88.0/23",
        "88.216.104.0/22",
        "88.216.108.0/24",
        "88.216.112.0/20",
        "88.216.129.0/24",
        "88.216.131.0/24",
        "88.216.132.0/24",
        "88.216.136.0/21",
        "88.216.144.0/20",
        "88.216.160.0/20",
        "88.216.176.0/22",
        "88.216.187.0/24",
        "88.216.192.0/22",
        "88.216.215.0/24",
        "88.216.216.0/22",
        "88.216.221.0/24",
        "88.216.228.0/22",
        "88.216.236.0/22",
        "88.218.164.0/23",
        "88.222.0.0/17",
        "88.222.128.0/18",
        "88.222.192.0/20",
        "88.222.222.0/24",
        "88.222.224.0/20",
        "88.222.248.0/21",
        "88.223.0.0/18",
        "88.223.64.0/20",
        "88.223.96.0/19",
        "88.223.128.0/17",
        "89.32.200.0/24",
        "89.32.204.0/24",
        "89.33.83.0/24",
        "89.40.4.0/23",
        "89.40.6.128/25",
        "89.40.7.247/32",
        "89.40.8.0/21",
        "89.47.34.0/24",
        "89.47.160.0/21",
        "89.47.168.0/23",
        "89.47.170.0/24",
        "89.107.9.0/24",
        "89.116.1.0/24",
        "89.116.2.0/23",
        "89.116.4.0/22",
        "89.116.8.0/21",
        "89.116.16.0/23",
        "89.116.19.0/24",
        "89.116.22.0/23",
        "89.116.41.0/24",
        "89.116.42.0/23",
        "89.116.45.0/24",
        "89.116.56.0/24",
        "89.116.60.0/22",
        "89.116.68.0/24",
        "89.116.71.0/24",
        "89.116.76.0/23",
        "89.116.78.0/24",
        "89.116.90.0/23",
        "89.116.92.0/22",
        "89.116.97.0/24",
        "89.116.98.0/24",
        "89.116.116.0/22",
        "89.116.123.0/24",
        "89.116.124.0/24",
        "89.116.127.0/24",
        "89.116.129.0/24",
        "89.116.131.0/24",
        "89.116.143.0/24",
        "89.116.151.0/24",
        "89.116.155.0/24",
        "89.116.160.0/22",
        "89.116.172.0/24",
        "89.116.174.0/23",
        "89.116.176.0/24",
        "89.116.178.0/24",
        "89.116.180.0/24",
        "89.116.182.0/24",
        "89.116.194.0/24",
        "89.116.196.0/23",
        "89.116.199.0/24",
        "89.116.200.0/23",
        "89.116.202.0/24",
        "89.116.204.0/22",
        "89.116.209.0/24",
        "89.116.216.0/23",
        "89.116.232.0/24",
        "89.116.235.0/24",
        "89.116.236.0/24",
        "89.116.238.0/24",
        "89.116.240.0/23",
        "89.116.245.0/24",
        "89.116.249.0/24",
        "89.116.250.0/23",
        "89.116.252.0/24",
        "89.116.254.0/24",
        "89.117.10.0/23",
        "89.117.14.0/23",
        "89.117.26.0/24",
        "89.117.29.0/24",
        "89.117.31.0/24",
        "89.117.35.0/24",
        "89.117.64.0/23",
        "89.117.66.0/24",
        "89.117.69.0/24",
        "89.117.70.0/23",
        "89.117.80.0/24",
        "89.117.83.0/24",
        "89.117.84.0/24",
        "89.117.86.0/23",
        "89.117.91.0/24",
        "89.117.92.0/23",
        "89.117.100.0/24",
        "89.117.110.0/24",
        "89.117.112.0/24",
        "89.117.119.0/24",
        "89.117.125.0/24",
        "89.117.127.0/24",
        "89.117.128.0/24",
        "89.117.132.0/23",
        "89.117.137.0/24",
        "89.117.138.0/24",
        "89.117.140.0/23",
        "89.117.153.0/24",
        "89.117.154.0/23",
        "89.117.156.0/24",
        "89.117.160.0/22",
        "89.117.165.0/24",
        "89.117.166.0/24",
        "89.117.170.0/23",
        "89.117.176.0/24",
        "89.117.178.0/23",
        "89.117.181.0/24",
        "89.117.183.0/24",
        "89.117.184.0/22",
        "89.117.192.0/24",
        "89.117.194.0/23",
        "89.117.198.0/23",
        "89.117.200.0/24",
        "89.117.203.0/24",
        "89.117.204.0/24",
        "89.117.206.0/23",
        "89.117.208.0/24",
        "89.117.211.0/24",
        "89.117.212.0/22",
        "89.117.219.0/24",
        "89.117.220.0/23",
        "89.117.223.0/24",
        "89.117.224.0/23",
        "89.117.230.0/23",
        "89.117.233.0/24",
        "89.117.234.0/23",
        "89.117.236.0/22",
        "89.117.240.0/24",
        "89.117.242.0/23",
        "89.117.246.0/23",
        "89.117.248.0/22",
        "89.117.253.0/24",
        "89.117.255.0/24",
        "89.190.96.0/19",
        "89.190.148.0/22",
        "89.207.148.0/22",
        "89.213.254.0/23",
        "89.249.80.0/20",
        "90.130.74.117/32",
        "90.131.0.0/20",
        "90.131.16.0/21",
        "90.131.24.0/23",
        "90.131.26.0/25",
        "90.131.26.128/27",
        "90.131.26.160/29",
        "90.131.26.169/32",
        "90.131.26.170/31",
        "90.131.26.172/30",
        "90.131.26.176/28",
        "90.131.26.192/26",
        "90.131.27.0/24",
        "90.131.28.0/22",
        "90.131.32.0/19",
        "90.131.96.0/19",
        "90.131.160.0/20",
        "90.131.176.0/32",
        "90.134.0.0/19",
        "90.135.0.0/16",
        "90.137.0.0/17",
        "90.138.0.0/16",
        "90.140.0.0/16",
        "90.141.96.0/32",
        "90.141.112.0/32",
        "90.142.128.0/17",
        "90.143.64.0/19",
        "91.103.96.0/21",
        "91.103.108.0/23",
        "91.103.255.0/24",
        "91.108.120.0/22",
        "91.108.186.0/24",
        "91.134.254.40/30",
        "91.187.160.0/19",
        "91.188.254.0/24",
        "91.190.154.0/24",
        "91.192.82.0/24",
        "91.198.17.0/24",
        "91.198.95.0/24",
        "91.198.123.0/24",
        "91.199.55.0/24",
        "91.199.163.0/24",
        "91.199.166.0/24",
        "91.199.172.0/24",
        "91.202.60.0/22",
        "91.204.72.0/22",
        "91.206.106.0/23",
        "91.206.132.0/23",
        "91.207.144.0/23",
        "91.207.154.0/23",
        "91.211.244.0/22",
        "91.216.163.0/24",
        "91.220.8.0/24",
        "91.220.20.0/24",
        "91.220.59.0/24",
        "91.220.114.0/24",
        "91.220.209.0/24",
        "91.224.92.130/32",
        "91.224.134.0/23",
        "91.225.104.0/22",
        "91.228.84.0/22",
        "91.230.12.0/22",
        "91.230.216.0/24",
        "91.231.76.0/22",
        "91.233.176.0/22",
        "91.234.200.0/24",
        "91.240.20.0/22",
        "91.244.197.0/24",
        "91.247.40.0/21",
        "91.247.48.0/22",
        "91.247.185.0/24",
        "92.61.32.0/20",
        "92.62.128.0/20",
        "92.119.12.0/22",
        "92.242.187.0/24",
        "93.93.56.0/21",
        "93.115.11.0/24",
        "93.115.24.0/21",
        "93.123.25.0/24",
        "93.123.111.0/24",
        "93.127.186.0/23",
        "93.127.213.0/24",
        "93.127.214.0/24",
        "93.189.59.0/24",
        "94.131.13.0/24",
        "94.131.14.0/24",
        "94.156.40.0/23",
        "94.156.43.0/24",
        "94.156.62.0/23",
        "94.156.132.0/23",
        "94.156.145.0/24",
        "94.156.224.0/23",
        "94.176.188.0/23",
        "94.176.232.128/25",
        "94.176.233.0/24",
        "94.176.234.0/23",
        "94.176.236.0/22",
        "94.232.120.0/21",
        "94.232.224.0/21",
        "94.244.64.0/18",
        "95.141.247.0/24",
        "95.173.32.0/19",
        "95.215.140.0/22",
        "103.47.52.0/22",
        "103.58.43.0/24",
        "103.113.69.0/24",
        "103.190.58.0/23",
        "103.243.204.0/22",
        "103.252.111.0/24",
        "104.28.11.180/31",
        "104.28.11.182/32",
        "104.28.31.31/32",
        "104.28.31.32/32",
        "104.28.45.30/31",
        "104.28.51.138/31",
        "104.28.65.37/32",
        "104.28.65.38/32",
        "104.28.131.98/31",
        "104.28.148.63/32",
        "104.28.148.64/32",
        "104.28.149.153/32",
        "104.28.156.63/32",
        "104.28.156.64/32",
        "104.28.157.153/32",
        "104.28.223.43/32",
        "104.28.223.44/30",
        "104.28.223.48/31",
        "104.28.255.43/32",
        "104.28.255.44/30",
        "104.28.255.48/31",
        "104.30.133.209/32",
        "104.30.133.233/32",
        "104.135.196.16/30",
        "104.135.212.16/30",
        "109.172.122.0/23",
        "109.172.124.0/24",
        "109.205.232.0/21",
        "109.234.74.0/24",
        "109.235.64.0/21",
        "110.172.189.0/25",
        "110.172.189.128/29",
        "110.172.189.137/32",
        "110.172.189.138/31",
        "110.172.189.140/30",
        "110.172.189.144/28",
        "110.172.189.160/27",
        "110.172.189.192/26",
        "110.172.190.0/24",
        "110.172.191.0/30",
        "110.172.191.4/31",
        "110.172.191.7/32",
        "110.172.191.8/29",
        "110.172.191.16/28",
        "110.172.191.32/27",
        "110.172.191.64/26",
        "110.172.191.128/25",
        "115.124.33.0/24",
        "115.124.34.0/24",
        "128.77.53.192/27",
        "128.77.111.96/27",
        "128.90.173.0/24",
        "130.41.93.192/26",
        "130.41.185.96/27",
        "130.41.215.0/26",
        "130.193.75.0/24",
        "130.195.243.0/24",
        "130.255.162.224/30",
        "134.231.221.0/26",
        "134.238.48.224/27",
        "134.238.49.0/24",
        "135.125.250.147/32",
        "136.23.1.245/32",
        "136.23.4.182/32",
        "136.227.140.244/30",
        "136.227.140.248/31",
        "136.228.220.244/31",
        "136.228.220.246/32",
        "138.122.192.0/24",
        "138.122.195.0/24",
        "140.209.223.192/26",
        "140.248.34.136/30",
        "140.248.36.172/30",
        "140.248.56.132/32",
        "140.248.57.132/32",
        "140.248.58.132/32",
        "140.248.59.132/32",
        "140.248.60.132/32",
        "140.248.61.132/32",
        "140.248.62.132/32",
        "140.248.63.132/32",
        "141.8.147.120/29",
        "141.98.8.0/22",
        "141.98.56.0/22",
        "141.136.32.0/24",
        "141.136.37.0/24",
        "141.136.38.0/24",
        "141.136.40.0/24",
        "141.136.44.0/23",
        "141.193.228.0/24",
        "145.223.90.0/23",
        "145.224.107.0/25",
        "145.224.114.64/26",
        "145.239.107.39/32",
        "146.19.21.0/24",
        "146.19.23.0/24",
        "146.19.53.0/24",
        "146.75.169.136/30",
        "146.75.181.36/30",
        "146.103.25.0/24",
        "146.103.38.0/24",
        "147.78.120.0/24",
        "147.78.123.0/24",
        "147.185.217.0/24",
        "147.185.250.0/24",
        "149.14.10.0/27",
        "149.14.10.32/29",
        "149.14.10.48/28",
        "149.14.10.64/27",
        "149.14.10.104/29",
        "149.14.10.112/29",
        "149.14.10.152/29",
        "149.14.10.160/29",
        "149.14.10.184/29",
        "149.14.226.104/29",
        "149.36.8.0/21",
        "149.100.158.0/23",
        "149.202.136.228/30",
        "150.48.141.46/31",
        "150.48.141.48/28",
        "150.48.141.64/31",
        "150.48.147.84/31",
        "150.48.148.18/31",
        "151.80.187.34/32",
        "152.89.28.0/22",
        "152.89.120.0/22",
        "153.92.1.0/24",
        "153.92.3.0/24",
        "154.14.1.244/30",
        "154.14.50.156/30",
        "154.14.61.208/29",
        "154.14.224.164/30",
        "154.14.228.104/29",
        "154.14.238.84/30",
        "154.14.242.208/30",
        "154.14.247.56/30",
        "154.14.250.96/28",
        "154.41.248.0/24",
        "154.56.62.0/23",
        "154.62.104.0/24",
        "154.62.108.0/23",
        "154.219.21.0/24",
        "154.219.207.0/24",
        "155.254.251.0/24",
        "156.238.25.0/24",
        "157.5.77.44/31",
        "157.5.77.55/32",
        "157.5.100.86/31",
        "157.5.100.250/32",
        "157.5.108.86/31",
        "157.5.108.250/32",
        "157.167.44.0/24",
        "157.167.228.73/32",
        "157.167.228.74/32",
        "157.167.228.167/32",
        "157.167.229.73/32",
        "157.167.229.74/32",
        "157.167.229.167/32",
        "157.167.230.73/32",
        "157.167.230.74/32",
        "157.167.230.167/32",
        "157.167.231.125/32",
        "157.167.231.126/32",
        "157.167.231.231/32",
        "157.167.237.73/32",
        "157.167.237.74/32",
        "157.167.237.167/32",
        "157.167.238.73/32",
        "157.167.238.74/32",
        "157.167.238.167/32",
        "157.167.239.73/32",
        "157.167.239.74/32",
        "157.167.239.167/32",
        "157.167.240.73/32",
        "157.167.240.74/32",
        "157.167.240.167/32",
        "158.46.186.0/23",
        "158.120.252.0/23",
        "158.129.0.0/16",
        "158.220.69.0/24",
        "159.148.224.0/23",
        "160.19.92.0/22",
        "160.25.104.112/32",
        "162.120.206.8/32",
        "162.120.216.128/32",
        "162.218.158.0/24",
        "162.254.86.0/24",
        "163.5.176.0/24",
        "163.116.166.79/32",
        "163.116.166.106/32",
        "163.116.168.87/32",
        "163.116.168.94/32",
        "163.116.173.114/32",
        "163.116.173.121/32",
        "163.116.181.92/32",
        "163.116.181.99/32",
        "164.132.16.191/32",
        "165.1.185.128/25",
        "165.1.242.129/32",
        "165.1.242.130/31",
        "165.1.242.132/30",
        "165.1.242.136/29",
        "165.1.242.144/28",
        "165.1.242.160/27",
        "165.1.242.192/27",
        "165.1.242.224/28",
        "165.1.242.240/29",
        "165.1.242.248/30",
        "165.1.242.252/31",
        "165.1.242.254/32",
        "165.85.13.96/27",
        "166.1.2.0/24",
        "166.1.33.0/24",
        "171.22.168.0/22",
        "171.25.240.0/24",
        "172.69.52.0/24",
        "172.69.188.0/24",
        "172.94.78.0/24",
        "172.94.81.0/24",
        "172.225.34.96/28",
        "172.225.36.128/27",
        "172.225.71.96/27",
        "172.225.172.96/28",
        "172.225.210.96/28",
        "176.117.61.0/24",
        "176.118.33.0/24",
        "176.118.198.0/24",
        "176.119.223.0/24",
        "176.126.106.0/24",
        "176.223.130.251/32",
        "176.223.132.0/24",
        "176.223.136.0/21",
        "178.16.32.0/20",
        "178.19.16.0/20",
        "178.23.189.0/24",
        "178.32.87.136/29",
        "178.32.188.20/30",
        "178.33.10.52/30",
        "178.211.132.0/24",
        "178.236.196.0/22",
        "178.236.204.0/22",
        "178.250.32.0/21",
        "181.214.147.0/24",
        "185.1.113.0/24",
        "185.2.228.0/23",
        "185.3.228.0/22",
        "185.5.52.0/22",
        "185.8.104.0/23",
        "185.11.24.0/22",
        "185.23.16.0/22",
        "185.25.48.0/22",
        "185.26.132.0/22",
        "185.29.167.192/26",
        "185.34.52.0/22",
        "185.36.81.0/24",
        "185.36.82.0/24",
        "185.38.164.0/22",
        "185.44.72.0/22",
        "185.47.164.0/24",
        "185.48.52.0/22",
        "185.58.64.0/22",
        "185.61.64.0/22",
        "185.64.104.0/22",
        "185.65.48.0/22",
        "185.66.212.0/24",
        "185.67.240.0/22",
        "185.68.36.0/22",
        "185.69.52.0/22",
        "185.79.244.0/22",
        "185.80.128.0/22",
        "185.81.164.0/22",
        "185.82.92.0/22",
        "185.84.44.0/22",
        "185.97.44.0/22",
        "185.97.212.0/24",
        "185.99.24.228/30",
        "185.99.26.228/30",
        "185.104.176.0/22",
        "185.104.184.248/29",
        "185.110.135.0/24",
        "185.111.180.0/22",
        "185.113.251.0/24",
        "185.120.137.0/24",
        "185.120.138.0/23",
        "185.122.140.0/24",
        "185.127.0.0/22",
        "185.140.228.0/22",
        "185.141.160.0/22",
        "185.141.165.226/32",
        "185.142.130.0/24",
        "185.144.116.0/22",
        "185.149.152.0/22",
        "185.150.40.0/22",
        "185.150.116.0/22",
        "185.153.201.0/24",
        "185.153.202.0/23",
        "185.160.140.0/22",
        "185.164.128.0/22",
        "185.168.12.0/22",
        "185.168.64.0/22",
        "185.169.140.0/22",
        "185.170.196.0/22",
        "185.170.252.0/22",
        "185.172.156.0/22",
        "185.172.174.0/23",
        "185.175.176.0/22",
        "185.175.192.0/22",
        "185.177.150.39/32",
        "185.180.147.0/24",
        "185.181.1.0/24",
        "185.183.44.0/22",
        "185.184.144.0/22",
        "185.186.25.0/24",
        "185.189.44.0/25",
        "185.189.45.0/24",
        "185.189.46.0/23",
        "185.189.152.0/22",
        "185.191.22.0/23",
        "185.191.116.0/22",
        "185.193.24.0/22",
        "185.198.32.0/22",
        "185.198.136.0/22",
        "185.206.253.0/24",
        "185.207.188.0/22",
        "185.209.136.0/22",
        "185.210.204.0/22",
        "185.210.234.0/24",
        "185.212.113.0/24",
        "185.213.0.0/24",
        "185.213.1.0/28",
        "185.213.1.16/30",
        "185.213.1.20/31",
        "185.213.1.24/29",
        "185.213.1.32/27",
        "185.213.1.64/26",
        "185.213.1.128/25",
        "185.213.2.0/23",
        "185.214.164.0/24",
        "185.216.208.0/22",
        "185.220.179.0/24",
        "185.224.3.0/24",
        "185.224.250.0/23",
        "185.229.114.0/23",
        "185.229.135.0/24",
        "185.229.201.0/24",
        "185.230.64.0/24",
        "185.233.204.0/22",
        "185.237.92.0/22",
        "185.237.185.0/24",
        "185.240.100.0/23",
        "185.242.108.0/22",
        "185.244.107.0/24",
        "185.246.240.0/22",
        "185.251.17.0/24",
        "185.252.108.0/22",
        "185.252.204.0/22",
        "185.253.148.0/22",
        "185.254.44.0/22",
        "185.255.96.0/23",
        "188.69.0.0/16",
        "188.72.116.0/24",
        "188.93.137.0/24",
        "188.95.67.0/24",
        "188.165.25.52/32",
        "188.165.26.85/32",
        "188.212.110.0/24",
        "188.214.33.0/24",
        "188.214.38.0/24",
        "188.214.128.0/21",
        "188.215.5.0/24",
        "191.96.245.0/24",
        "191.101.2.0/24",
        "192.36.61.0/24",
        "192.109.206.0/24",
        "192.166.83.0/24",
        "192.175.2.0/24",
        "193.0.234.0/23",
        "193.0.251.0/24",
        "193.8.246.0/24",
        "193.19.99.0/24",
        "193.23.59.0/24",
        "193.24.0.0/23",
        "193.24.4.0/23",
        "193.25.167.0/24",
        "193.25.207.0/24",
        "193.29.39.0/24",
        "193.31.6.0/24",
        "193.34.84.0/22",
        "193.36.86.0/24",
        "193.36.172.0/24",
        "193.37.196.0/23",
        "193.37.239.0/24",
        "193.39.10.0/24",
        "193.41.40.0/24",
        "193.41.81.0/24",
        "193.41.197.0/24",
        "193.46.84.0/24",
        "193.47.143.0/24",
        "193.84.183.0/27",
        "193.84.183.48/28",
        "193.84.183.64/27",
        "193.84.183.96/28",
        "193.84.183.128/26",
        "193.84.183.240/28",
        "193.93.63.0/24",
        "193.104.206.0/24",
        "193.105.49.0/24",
        "193.105.146.0/24",
        "193.106.28.0/23",
        "193.106.30.0/24",
        "193.106.31.0/26",
        "193.106.31.64/27",
        "193.106.31.96/31",
        "193.106.31.99/32",
        "193.106.31.100/30",
        "193.106.31.104/29",
        "193.106.31.112/28",
        "193.106.31.128/25",
        "193.109.235.0/24",
        "193.109.252.0/24",
        "193.111.116.0/23",
        "193.111.124.0/24",
        "193.135.151.0/24",
        "193.135.157.0/24",
        "193.135.174.0/24",
        "193.138.30.0/24",
        "193.142.4.0/24",
        "193.142.18.0/24",
        "193.150.40.0/24",
        "193.160.119.0/24",
        "193.164.1.0/24",
        "193.164.10.0/24",
        "193.169.212.0/24",
        "193.176.55.0/24",
        "193.189.86.0/23",
        "193.189.144.0/24",
        "193.200.78.0/24",
        "193.200.124.0/23",
        "193.201.32.0/24",
        "193.216.0.0/18",
        "193.216.148.0/22",
        "193.216.184.0/21",
        "193.216.192.0/18",
        "193.217.0.0/19",
        "193.217.34.0/23",
        "193.217.36.0/22",
        "193.217.40.0/21",
        "193.217.48.0/20",
        "193.217.208.0/22",
        "193.217.244.0/22",
        "193.217.248.0/21",
        "193.219.1.0/24",
        "193.219.2.0/23",
        "193.219.4.0/23",
        "193.219.6.0/24",
        "193.219.8.0/22",
        "193.219.12.0/23",
        "193.219.14.0/24",
        "193.219.32.0/19",
        "193.219.64.0/19",
        "193.219.128.0/18",
        "193.222.254.0/24",
        "193.227.102.0/24",
        "194.0.3.0/24",
        "194.0.18.0/23",
        "194.0.20.0/24",
        "194.0.160.0/24",
        "194.0.194.0/24",
        "194.5.148.0/24",
        "194.5.157.0/24",
        "194.26.149.0/24",
        "194.28.232.0/22",
        "194.29.70.0/24",
        "194.29.80.0/24",
        "194.31.52.0/24",
        "194.31.55.0/24",
        "194.31.197.0/24",
        "194.32.122.0/24",
        "194.33.96.0/24",
        "194.41.113.0/24",
        "194.50.99.134/32",
        "194.59.166.0/23",
        "194.103.98.156/32",
        "194.104.131.0/24",
        "194.104.134.0/24",
        "194.104.158.0/24",
        "194.110.220.0/24",
        "194.126.252.0/24",
        "194.135.80.0/21",
        "194.135.88.0/22",
        "194.135.92.0/23",
        "194.135.94.0/24",
        "194.135.95.0/27",
        "194.135.95.32/30",
        "194.135.95.37/32",
        "194.135.95.38/31",
        "194.135.95.40/29",
        "194.135.95.48/28",
        "194.135.95.64/26",
        "194.135.95.128/25",
        "194.147.4.0/23",
        "194.149.236.0/24",
        "194.156.188.0/24",
        "194.176.32.0/19",
        "194.180.48.0/24",
        "195.8.218.0/23",
        "195.12.160.0/19",
        "195.14.160.0/19",
        "195.16.88.0/22",
        "195.20.104.0/24",
        "195.22.160.0/19",
        "195.35.56.0/22",
        "195.43.136.0/24",
        "195.64.97.0/24",
        "195.66.101.0/24",
        "195.67.197.0/30",
        "195.67.197.128/30",
        "195.149.109.0/24",
        "195.170.163.0/24",
        "195.170.181.0/24",
        "195.181.240.0/21",
        "195.182.64.0/19",
        "195.191.140.0/23",
        "195.191.176.0/23",
        "195.206.235.0/24",
        "195.211.220.0/22",
        "195.216.233.0/24",
        "195.230.98.0/24",
        "195.238.124.0/22",
        "195.244.12.0/23",
        "196.19.216.0/23",
        "196.48.29.0/24",
        "196.56.29.0/24",
        "196.57.29.0/24",
        "196.58.29.0/24",
        "196.197.29.0/24",
        "196.198.29.0/24",
        "196.199.29.0/24",
        "198.160.152.0/24",
        "199.116.172.192/27",
        "202.170.196.0/23",
        "202.170.198.0/24",
        "202.181.128.216/29",
        "203.17.237.0/24",
        "203.25.139.0/24",
        "203.78.161.0/24",
        "203.78.163.0/24",
        "203.78.164.0/24",
        "203.78.166.0/23",
        "204.225.218.0/24",
        "207.244.216.0/22",
        "208.127.171.73/32",
        "208.127.171.74/31",
        "208.127.171.76/30",
        "208.127.171.80/28",
        "208.127.171.96/29",
        "208.127.171.104/30",
        "208.127.171.108/32",
        "208.127.172.93/32",
        "208.167.192.56/29",
        "209.35.4.0/23",
        "209.35.113.0/24",
        "209.198.147.0/25",
        "209.198.156.192/26",
        "209.206.15.0/24",
        "212.12.192.0/19",
        "212.18.115.0/24",
        "212.23.219.0/24",
        "212.24.96.0/20",
        "212.27.228.80/31",
        "212.27.230.0/28",
        "212.47.96.0/19",
        "212.47.201.34/31",
        "212.47.201.38/31",
        "212.47.201.66/31",
        "212.47.201.71/32",
        "212.47.201.73/32",
        "212.47.201.119/32",
        "212.47.201.232/31",
        "212.47.203.160/28",
        "212.52.20.0/24",
        "212.52.32.0/19",
        "212.56.6.24/30",
        "212.56.6.68/30",
        "212.56.6.112/30",
        "212.56.13.232/30",
        "212.59.0.0/19",
        "212.80.216.0/22",
        "212.102.114.0/24",
        "212.102.116.0/24",
        "212.115.142.152/29",
        "212.117.0.0/19",
        "212.122.64.0/20",
        "212.122.80.0/22",
        "212.122.84.0/23",
        "212.122.86.0/24",
        "212.122.87.128/25",
        "212.122.88.0/21",
        "212.133.69.144/28",
        "212.133.69.160/28",
        "212.221.29.148/30",
        "212.221.63.0/29",
        "212.222.95.72/29",
        "212.222.156.200/29",
        "212.222.197.56/29",
        "212.222.222.0/29",
        "212.237.232.0/22",
        "213.39.1.24/29",
        "213.100.132.0/22",
        "213.100.136.0/23",
        "213.100.138.0/24",
        "213.100.188.0/22",
        "213.101.134.0/23",
        "213.101.136.0/22",
        "213.101.148.0/23",
        "213.101.150.0/32",
        "213.101.151.0/32",
        "213.103.0.0/17",
        "213.103.192.0/19",
        "213.130.202.0/23",
        "213.130.204.0/22",
        "213.159.32.0/20",
        "213.159.48.0/21",
        "213.159.56.0/22",
        "213.159.60.0/23",
        "213.159.62.0/25",
        "213.159.63.0/24",
        "213.164.96.0/19",
        "213.183.34.0/23",
        "213.183.55.0/24",
        "213.190.32.0/19",
        "213.197.128.0/18",
        "213.226.136.0/22",
        "213.226.144.0/20",
        "213.226.160.0/19",
        "213.248.108.16/28",
        "213.252.192.0/18",
        "216.25.0.0/22",
        "216.66.95.102/32",
        "216.128.1.0/24",
        "216.246.212.0/22",
        "217.9.240.0/22",
        "217.9.246.0/23",
        "217.9.248.0/23",
        "217.9.252.0/22",
        "217.17.80.0/21",
        "217.17.88.0/22",
        "217.17.92.0/23",
        "217.17.94.0/27",
        "217.17.94.32/30",
        "217.17.94.36/31",
        "217.17.94.39/32",
        "217.17.94.40/29",
        "217.17.94.48/28",
        "217.17.94.64/26",
        "217.17.94.128/25",
        "217.17.95.0/24",
        "217.28.140.0/24",
        "217.28.245.60/30",
        "217.28.245.156/30",
        "217.28.248.0/24",
        "217.28.251.64/30",
        "217.28.251.94/31",
        "217.28.251.120/30",
        "217.28.251.128/29",
        "217.28.251.144/29",
        "217.28.251.152/31",
        "217.28.251.224/29",
        "217.117.16.0/20",
        "217.147.12.0/22",
        "217.147.32.0/20",
        "217.156.144.240/29",
        "217.156.238.208/29",
        "2001:470:5:1f6::/64",
        "2001:470:b:3bb::/64",
        "2001:470:1d:48a::/64",
        "2001:470:24:18e::/64",
        "2001:470:26:2f2::/64",
        "2001:470:28:15::/64",
        "2001:470:28:167::/64",
        "2001:470:28:796::/64",
        "2001:470:28:7ee::/64",
        "2001:470:28:84e::/64",
        "2001:470:28:85e::/64",
        "2001:470:28:866::/64",
        "2001:470:28:952::/64",
        "2001:470:28:ac3::/64",
        "2001:470:28:b2a::/64",
        "2001:470:4b:98::/64",
        "2001:470:6d:329::/64",
        "2001:470:6d:1050::/64",
        "2001:470:71:5c::/64",
        "2001:470:71:7b::/64",
        "2001:470:71:ff::/64",
        "2001:470:71:10e::/64",
        "2001:470:71:11d::/64",
        "2001:470:71:12f::/64",
        "2001:470:71:15d::/64",
        "2001:470:71:165::/64",
        "2001:470:71:1a2::/64",
        "2001:470:71:1d1::/64",
        "2001:470:71:1e4::/64",
        "2001:470:71:232::/64",
        "2001:470:71:235::/64",
        "2001:470:71:23d::/64",
        "2001:470:71:25b::/64",
        "2001:470:71:27c::/64",
        "2001:470:71:285::/64",
        "2001:470:71:2a9::/64",
        "2001:470:71:2b2::/64",
        "2001:470:71:2c1::/64",
        "2001:470:71:307::/64",
        "2001:470:71:326::/64",
        "2001:470:71:340::/64",
        "2001:470:71:3ef::/64",
        "2001:470:71:3f4::/64",
        "2001:470:71:3f6::/64",
        "2001:470:71:454::/64",
        "2001:470:71:46f::/64",
        "2001:470:71:478::/64",
        "2001:470:71:483::/64",
        "2001:470:71:4b5::/64",
        "2001:470:71:4cc::/64",
        "2001:470:71:56f::/64",
        "2001:470:71:570::/64",
        "2001:470:71:589::/64",
        "2001:470:71:5a0::/64",
        "2001:470:71:610::/64",
        "2001:470:71:67a::/64",
        "2001:470:71:69c::/64",
        "2001:470:71:6af::/64",
        "2001:470:71:6b1::/64",
        "2001:470:71:77c::/64",
        "2001:470:71:7c2::/64",
        "2001:470:71:891::/64",
        "2001:470:71:d0b::/64",
        "2001:470:71:e4e::/64",
        "2001:470:1f09:19::/64",
        "2001:470:1f09:9c3::/64",
        "2001:470:1f0b:5c::/64",
        "2001:470:1f0b:126::/64",
        "2001:470:1f0b:14c::/64",
        "2001:470:1f0b:338::/64",
        "2001:470:1f0b:358::/64",
        "2001:470:1f0b:3b9::/64",
        "2001:470:1f0b:89e::/64",
        "2001:470:1f0b:a84::/64",
        "2001:470:1f0b:a9e::/64",
        "2001:470:1f0b:ae4::/64",
        "2001:470:1f0b:c44::/64",
        "2001:470:1f0b:d37::/64",
        "2001:470:1f0b:d53::/64",
        "2001:470:1f0b:1266::/64",
        "2001:470:1f0b:1605::/64",
        "2001:470:1f11:1c9::/64",
        "2001:470:1f15:107::/64",
        "2001:470:1f15:2c7::/64",
        "2001:470:1f15:53f::/64",
        "2001:470:1f15:543::/64",
        "2001:470:1f15:60d::/64",
        "2001:470:1f15:61a::/64",
        "2001:470:1f15:719::/64",
        "2001:470:1f15:950::/64",
        "2001:470:1f15:1097::/64",
        "2001:470:1f17:30::/64",
        "2001:470:1f1d:86b::/64",
        "2001:470:1f1d:8f1::/64",
        "2001:470:1f21:da::/64",
        "2001:470:1f29:67::/64",
        "2001:470:1f29:12e::/64",
        "2001:470:1f29:14b::/64",
        "2001:470:1f29:309::/64",
        "2001:470:1f29:456::/64",
        "2001:470:547d::/48",
        "2001:470:605c::/48",
        "2001:470:605e::/48",
        "2001:470:6062::/48",
        "2001:470:6074::/48",
        "2001:470:609b::/48",
        "2001:470:60f0::/48",
        "2001:470:614e::/48",
        "2001:470:616d::/48",
        "2001:470:6171::/48",
        "2001:470:61d1::/48",
        "2001:470:61de::/48",
        "2001:470:61f0::/48",
        "2001:470:6202::/48",
        "2001:470:622e::/48",
        "2001:470:623e::/48",
        "2001:470:6253::/48",
        "2001:470:6263::/48",
        "2001:470:62b3::/48",
        "2001:470:62f0::/48",
        "2001:470:6335::/48",
        "2001:470:64fe::/48",
        "2001:470:680f::/48",
        "2001:470:6b7d::/48",
        "2001:470:71c6::/48",
        "2001:470:7244::/48",
        "2001:470:72da::/48",
        "2001:470:740e::/48",
        "2001:470:74c7::/48",
        "2001:470:78b9::/48",
        "2001:470:7a95::/48",
        "2001:470:7ab7::/48",
        "2001:470:7ad1::/48",
        "2001:470:99ca::/48",
        "2001:470:dc87::/48",
        "2001:470:dca1::/48",
        "2001:470:de7b::/48",
        "2001:470:e952::/48",
        "2001:678:6::/48",
        "2001:678:19::/48",
        "2001:678:88::/48",
        "2001:678:8c::/48",
        "2001:678:fc::/48",
        "2001:67c:218::/48",
        "2001:67c:980::/48",
        "2001:67c:984::/48",
        "2001:67c:a38:f370::/64",
        "2001:67c:177c::/48",
        "2001:67c:28f8::/48",
        "2001:67c:2ffc:2e00::/56",
        "2001:778::/29",
        "2001:7f8:c4::/48",
        "2001:978:2:91::/64",
        "2001:ad0:1801::/48",
        "2001:df3:67c0::/48",
        "2001:1ab8::/30",
        "2001:2030:0:11::/64",
        "2001:3cc0::/32",
        "2001:4048::/32",
        "2001:4860:7:21b::/64",
        "2001:4860:7:61b::/64",
        "2400:8e20::/32",
        "2400:bb40:2005::/48",
        "2400:cb00:148::/48",
        "2400:cb00:550::/48",
        "2600:70ff:b027::/48",
        "2600:70ff:b02b::/48",
        "2602:2a9:e70::/44",
        "2605:6400:cbb2:a800::/54",
        "2605:6400:cbb2:f000::/55",
        "2606:40:1890::/44",
        "2606:40:18a0::/44",
        "2606:40:21c1::/51",
        "2606:40:2308::/51",
        "2606:54c0:47d0::/44",
        "2606:54c3:0:b3::/64",
        "2606:54c3:0:a57::/64",
        "2606:f4c0:23e0::/44",
        "2607:8940:352c::/46",
        "2607:8940:3530::/47",
        "2607:8940:40a0:2c00::/55",
        "2607:8940:40a0:3700::/56",
        "2607:8940:4170:5600::/55",
        "2607:8940:4170:fa00::/56",
        "2607:8940:4190:5600::/55",
        "2607:8940:4190:fa00::/56",
        "2620:0:876:9600::/56",
        "2a00:809::/38",
        "2a00:1310:404::/48",
        "2a00:1428::/29",
        "2a00:1908::/37",
        "2a00:1908:800::/38",
        "2a00:1908:c00::/39",
        "2a00:1908:e00::/42",
        "2a00:1908:e40::/46",
        "2a00:1908:e44::/47",
        "2a00:1908:e46::/48",
        "2a00:1908:e48::/45",
        "2a00:1908:e50::/44",
        "2a00:1908:e60::/43",
        "2a00:1908:e80::/41",
        "2a00:1908:f00::/40",
        "2a00:1908:1000::/36",
        "2a00:1908:2000::/35",
        "2a00:1908:4000::/34",
        "2a00:1908:8000::/34",
        "2a00:1908:c000::/35",
        "2a00:1908:e000::/36",
        "2a00:1908:f000::/37",
        "2a00:1908:f800::/38",
        "2a00:1908:fc00::/39",
        "2a00:1908:fe00::/40",
        "2a00:1908:ff00::/41",
        "2a00:1908:ff80::/42",
        "2a00:1908:ffc0::/43",
        "2a00:1908:ffe0::/44",
        "2a00:1908:fff0::/45",
        "2a00:1908:fff8::/47",
        "2a00:1908:fffa::/48",
        "2a00:1908:fffc::/48",
        "2a00:1909::/32",
        "2a00:190a::/31",
        "2a00:190c::/30",
        "2a00:1eb8::/32",
        "2a00:4c20::/32",
        "2a00:64c0::/32",
        "2a00:6880::/32",
        "2a00:6ae0::/32",
        "2a00:7600::/32",
        "2a00:79e0:2804::/48",
        "2a00:79e0:3800:800::/55",
        "2a00:79e0:ffe2:a000::/56",
        "2a00:79e1:2800:400::/56",
        "2a00:79e1:3800:400::/56",
        "2a00:8c00::/32",
        "2a00:f500::/29",
        "2a01:41a0::/47",
        "2a01:41a0:2:1::/64",
        "2a01:41a0:2:2::/63",
        "2a01:41a0:2:4::/62",
        "2a01:41a0:2:8::/61",
        "2a01:41a0:2:10::/60",
        "2a01:41a0:2:20::/59",
        "2a01:41a0:2:40::/58",
        "2a01:41a0:2:80::/57",
        "2a01:41a0:2:100::/56",
        "2a01:41a0:2:200::/55",
        "2a01:41a0:2:400::/54",
        "2a01:41a0:2:800::/53",
        "2a01:41a0:2:1000::/52",
        "2a01:41a0:2:2000::/51",
        "2a01:41a0:2:4000::/50",
        "2a01:41a0:2:8000::/49",
        "2a01:41a0:3::/48",
        "2a01:41a0:4::/46",
        "2a01:41a0:8::/45",
        "2a01:41a0:10::/44",
        "2a01:41a0:20::/43",
        "2a01:41a0:40::/42",
        "2a01:41a0:80::/41",
        "2a01:41a0:100::/40",
        "2a01:41a0:200::/39",
        "2a01:41a0:400::/38",
        "2a01:41a0:800::/37",
        "2a01:41a0:1000::/36",
        "2a01:41a0:2000::/35",
        "2a01:41a0:4000::/34",
        "2a01:41a0:8000::/33",
        "2a01:7220::/32",
        "2a01:7c80::/32",
        "2a01:8700::/32",
        "2a01:a1c0::/32",
        "2a01:ce8f:1000::/36",
        "2a01:ef40::/29",
        "2a01:efc0::/29",
        "2a01:f040::/29",
        "2a01:f0c0::/29",
        "2a01:f140::/29",
        "2a01:f1c0::/29",
        "2a01:f240::/29",
        "2a01:f2c0::/29",
        "2a01:f340::/29",
        "2a01:f3c0::/29",
        "2a01:f440::/29",
        "2a01:f4c0::/29",
        "2a01:f540::/29",
        "2a02:118::/32",
        "2a02:25d0::/32",
        "2a02:25f8::/32",
        "2a02:2630::/29",
        "2a02:26f7:cfc0:4000::/64",
        "2a02:26f7:cfc0:d500::/60",
        "2a02:26f7:cfc0:d510::/61",
        "2a02:26f7:cfc0:d518::/62",
        "2a02:26f7:cfc0:d51c::/63",
        "2a02:26f7:cfc1:4000::/64",
        "2a02:26f7:cfc4:4000::/64",
        "2a02:26f7:cfc4:d500::/60",
        "2a02:26f7:cfc4:d510::/61",
        "2a02:26f7:cfc4:d518::/62",
        "2a02:26f7:cfc4:d51c::/63",
        "2a02:26f7:cfc5:4000::/64",
        "2a02:26f7:cfc8:4000::/64",
        "2a02:26f7:cfc8:d500::/60",
        "2a02:26f7:cfc8:d510::/61",
        "2a02:26f7:cfc8:d518::/62",
        "2a02:26f7:cfc8:d51c::/63",
        "2a02:26f7:cfc9:4000::/64",
        "2a02:26f7:cfcc:4000::/64",
        "2a02:26f7:cfcc:d500::/60",
        "2a02:26f7:cfcc:d510::/61",
        "2a02:26f7:cfcc:d518::/62",
        "2a02:26f7:cfcc:d51c::/63",
        "2a02:26f7:cfcd:4000::/64",
        "2a02:26f7:cfd0:4000::/64",
        "2a02:26f7:cfd0:d500::/60",
        "2a02:26f7:cfd0:d510::/61",
        "2a02:26f7:cfd0:d518::/62",
        "2a02:26f7:cfd0:d51c::/63",
        "2a02:26f7:cfd1:4000::/64",
        "2a02:4780:4::/48",
        "2a02:4780:9::/48",
        "2a02:4780:c::/48",
        "2a02:4780:19::/48",
        "2a02:4780:1a::/48",
        "2a02:4780:30::/47",
        "2a02:5740:29::/48",
        "2a02:5741:29::/48",
        "2a02:5742:29::/48",
        "2a02:5743:29::/48",
        "2a02:5744:29::/48",
        "2a02:5745:29::/48",
        "2a02:5746:29::/48",
        "2a02:5747:29::/48",
        "2a02:6be0::/32",
        "2a02:7b40::/32",
        "2a02:ae00::/36",
        "2a02:ae00:2000::/35",
        "2a02:ae00:4000::/34",
        "2a02:ae00:8000::/33",
        "2a02:ae01:1000::/36",
        "2a02:ae01:2000::/35",
        "2a02:ae01:4000::/34",
        "2a02:ae01:8000::/33",
        "2a02:ae02:1000::/36",
        "2a02:ae02:2000::/35",
        "2a02:ae02:4000::/34",
        "2a02:ae02:8000::/33",
        "2a02:ae03::/32",
        "2a02:ae04::/30",
        "2a03:280::/32",
        "2a03:1960::/32",
        "2a03:24a0::/32",
        "2a03:6120::/32",
        "2a03:67e0::/32",
        "2a03:8b80::/29",
        "2a03:b2c0::/29",
        "2a03:e080::/29",
        "2a03:f100::/29",
        "2a04:2180::/29",
        "2a04:4e41:21:12::/63",
        "2a04:4e41:21:1800::/56",
        "2a04:4e41:4e:44::/63",
        "2a04:4e41:4e:2600::/56",
        "2a04:4e41:65:44::/63",
        "2a04:4e41:65:2600::/56",
        "2a04:4e41:66:56::/63",
        "2a04:4e41:66:3400::/56",
        "2a04:4e41:4018:4000::/52",
        "2a04:4e41:4028:4000::/52",
        "2a04:4e41:4038:4000::/52",
        "2a04:4e41:4048:4000::/52",
        "2a04:4e41:4058:4000::/52",
        "2a04:4e41:4068:4000::/52",
        "2a04:4e41:4078:4000::/52",
        "2a04:4e41:4088:4000::/52",
        "2a04:7a80::/29",
        "2a04:9640::/29",
        "2a04:ce00::/29",
        "2a04:df40::/29",
        "2a04:eb00::/29",
        "2a04:f3c0::/29",
        "2a04:f700::/29",
        "2a05:541:124::/48",
        "2a05:1580::/29",
        "2a05:5040::/29",
        "2a05:6300::/29",
        "2a05:7cc0::/29",
        "2a05:9900::/29",
        "2a05:9a40::/29",
        "2a05:b600::/29",
        "2a05:c580::/29",
        "2a05:dfc1:5a8f::/48",
        "2a05:dfc1:5efb:491::/64",
        "2a06:5fc0::/29",
        "2a06:7680::/29",
        "2a06:99c0::/29",
        "2a06:e940::/29",
        "2a06:f900:1000::/36",
        "2a06:f900:2000::/35",
        "2a06:f900:5000::/36",
        "2a06:f900:6000::/35",
        "2a06:f900:9000::/36",
        "2a06:f900:a000::/35",
        "2a06:f900:c000::/34",
        "2a06:f901:1000::/36",
        "2a06:f901:2000::/35",
        "2a06:f901:5000::/36",
        "2a06:f901:6000::/35",
        "2a06:f901:9000::/36",
        "2a06:f901:a000::/35",
        "2a06:f901:d000::/36",
        "2a06:f901:e000::/35",
        "2a06:f902:1000::/36",
        "2a06:f902:2000::/35",
        "2a06:f902:5000::/36",
        "2a06:f902:6000::/35",
        "2a06:f902:9000::/36",
        "2a06:f902:a000::/35",
        "2a06:f902:d000::/36",
        "2a06:f902:e000::/35",
        "2a06:f903:1000::/36",
        "2a06:f903:2000::/35",
        "2a06:f903:4000::/34",
        "2a06:f903:8000::/33",
        "2a06:f904:1000::/36",
        "2a06:f904:2000::/35",
        "2a06:f904:4000::/34",
        "2a06:f904:8000::/33",
        "2a06:f905:1000::/36",
        "2a06:f905:2000::/35",
        "2a06:f905:4000::/34",
        "2a06:f905:8000::/33",
        "2a06:f906:1000::/36",
        "2a06:f906:2000::/35",
        "2a06:f906:4000::/34",
        "2a06:f906:8000::/33",
        "2a06:f907::/34",
        "2a06:f907:5000::/36",
        "2a06:f907:6000::/35",
        "2a06:f907:8000::/33",
        "2a06:fe40::/29",
        "2a07:6080::/29",
        "2a07:6a40::/29",
        "2a07:6c80::/29",
        "2a07:6d00::/29",
        "2a07:8980::/31",
        "2a07:8983::/32",
        "2a07:8984::/30",
        "2a07:ab40::/29",
        "2a07:f240::/29",
        "2a07:fc40::/29",
        "2a09:40::/29",
        "2a09:c0::/29",
        "2a09:140::/29",
        "2a09:1c0::/29",
        "2a09:240::/29",
        "2a09:9c0::/29",
        "2a09:1d80::/29",
        "2a09:2240::/29",
        "2a09:22c0::/29",
        "2a09:57c0::/29",
        "2a09:59c0::/29",
        "2a09:5bc0::/29",
        "2a09:6b40::/29",
        "2a09:7240::/29",
        "2a09:9080::/29",
        "2a09:a3c0::/29",
        "2a09:a780::/29",
        "2a09:bac0:1000:25::/64",
        "2a09:bac0:1000:3d4::/64",
        "2a09:bac0:1000:3ed::/64",
        "2a09:bac1:4480::/64",
        "2a09:bac1:4480:200::/64",
        "2a09:bac1:44a0::/64",
        "2a09:bac1:44a0:200::/64",
        "2a09:bac1:44c0::/64",
        "2a09:bac1:44c0:200::/64",
        "2a09:bac1:44e0::/64",
        "2a09:bac1:44e0:200::/64",
        "2a09:bac2:47d0::/44",
        "2a09:bac3:47d0::/44",
        "2a09:bac4:418::/45",
        "2a09:bac4:1418::/45",
        "2a09:bac5:4880::/44",
        "2a09:bac6:4880::/44",
        "2a09:be42:7000::/38",
        "2a09:be44:7000::/38",
        "2a09:be46:7000::/38",
        "2a09:d640::/29",
        "2a09:e980::/29",
        "2a09:fc81::/32",
        "2a09:fc82::/31",
        "2a09:fc84::/30",
        "2a09:fe80::/29",
        "2a0a:3f00::/32",
        "2a0a:5700::/29",
        "2a0a:6042:3800::/40",
        "2a0a:6044:6572::/47",
        "2a0a:6044:6574::/46",
        "2a0a:6044:6578::/45",
        "2a0a:6044:6580::/48",
        "2a0a:6044:9007:300::/64",
        "2a0a:6044:a142:699e::/64",
        "2a0a:6044:f572::/47",
        "2a0a:6044:f574::/46",
        "2a0a:6044:f578::/45",
        "2a0a:6044:f580::/48",
        "2a0a:c280::/29",
        "2a0b:c00::/32",
        "2a0b:22c0::/29",
        "2a0b:2e40::/29",
        "2a0b:3e00::/29",
        "2a0b:4fc0::/29",
        "2a0b:5600::/32",
        "2a0b:8440::/29",
        "2a0b:a4c0::/29",
        "2a0b:b480::/29",
        "2a0b:bc40::/29",
        "2a0b:ca00::/29",
        "2a0b:ee00::/29",
        "2a0b:f500::/29",
        "2a0c:480::/32",
        "2a0c:1c00::/29",
        "2a0c:2cc0::/29",
        "2a0c:34c0::/29",
        "2a0c:36c0:8::/48",
        "2a0c:3b80:4c54::/48",
        "2a0c:3b80:6c74::/48",
        "2a0c:3d40::/32",
        "2a0c:43c0::/29",
        "2a0c:4e00::/29",
        "2a0c:6240::/29",
        "2a0c:6d80::/29",
        "2a0c:8340::/29",
        "2a0c:9a40:95b7:f000::/52",
        "2a0d:1580::/32",
        "2a0d:2200::/29",
        "2a0d:3341:c580::/42",
        "2a0d:3344:1b80::/42",
        "2a0d:4180::/29",
        "2a0d:4480::/29",
        "2a0d:5000::/29",
        "2a0d:5100::/29",
        "2a0d:5600:100::/48",
        "2a0d:6240::/29",
        "2a0d:7b00::/29",
        "2a0d:8400::/32",
        "2a0d:ab00::/29",
        "2a0d:af00::/29",
        "2a0d:df40::/29",
        "2a0d:e0c0::/29",
        "2a0e:ac0::/29",
        "2a0e:b00::/29",
        "2a0e:1b40::/29",
        "2a0e:2800::/29",
        "2a0e:2b00::/29",
        "2a0e:2c00::/29",
        "2a0e:48c3:7000::/38",
        "2a0e:5080::/29",
        "2a0e:5780::/29",
        "2a0e:8400::/29",
        "2a0e:a780::/29",
        "2a0e:be00::/29",
        "2a0e:d300::/29",
        "2a0e:ec01:5c00::/38",
        "2a0e:ec05:ad40::/42",
        "2a0e:ec05:ad80::/41",
        "2a0e:ec05:ae00::/40",
        "2a0e:ec05:af00::/42",
        "2a0e:f180::/29",
        "2a0f:c0::/29",
        "2a0f:85c1:334:1::/64",
        "2a0f:85c1:334:4::/62",
        "2a0f:85c1:334:8::/61",
        "2a0f:85c1:334:10::/60",
        "2a0f:85c1:334:20::/59",
        "2a0f:85c1:334:40::/58",
        "2a0f:85c1:334:80::/57",
        "2a0f:85c1:334:100::/56",
        "2a0f:85c1:334:200::/55",
        "2a0f:85c1:334:400::/54",
        "2a0f:85c1:334:800::/53",
        "2a0f:85c1:334:1000::/52",
        "2a0f:85c1:334:2000::/51",
        "2a0f:85c1:334:4000::/50",
        "2a0f:85c1:334:8000::/49",
        "2a0f:8a40::/29",
        "2a0f:9400:8004::/48",
        "2a0f:96c0::/29",
        "2a0f:9b40::/29",
        "2a0f:9bc0::/29",
        "2a0f:e3c0::/30",
        "2a0f:e3c6::/32",
        "2a0f:e3c7:100::/40",
        "2a0f:e3c7:200::/39",
        "2a0f:e3c7:400::/38",
        "2a0f:e3c7:800::/37",
        "2a0f:e3c7:1000::/36",
        "2a0f:e3c7:2000::/35",
        "2a0f:e3c7:4000::/34",
        "2a0f:e3c7:8000::/33",
        "2a10:240::/29",
        "2a10:4c0::/29",
        "2a10:500:8400::/40",
        "2a10:740::/29",
        "2a10:840::/29",
        "2a10:8c0::/29",
        "2a10:ac0::/29",
        "2a10:bc0::/29",
        "2a10:c40::/29",
        "2a10:f40::/29",
        "2a10:fc0::/29",
        "2a10:12c0::/29",
        "2a10:14c0::/29",
        "2a10:17c0::/29",
        "2a10:3980::/29",
        "2a10:3e80::/29",
        "2a10:3f80::/29",
        "2a10:4bc0::/29",
        "2a10:63c0::/29",
        "2a10:77c0::/29",
        "2a10:8740::/29",
        "2a10:8840::/29",
        "2a10:9600::/29",
        "2a10:a9c0::/29",
        "2a10:bdc0::/29",
        "2a10:c400::/29",
        "2a10:cc00::/29",
        "2a10:e180::/29",
        "2a10:e280::/29",
        "2a10:eac0::/29",
        "2a10:ec80::/29",
        "2a10:ed80::/29",
        "2a10:ee80::/29",
        "2a10:ef80::/29",
        "2a10:f080::/29",
        "2a10:f100::/29",
        "2a10:f180::/29",
        "2a10:f280::/29",
        "2a10:fd80::/29",
        "2a10:fe80::/29",
        "2a10:ff80::/29",
        "2a11:80::/29",
        "2a11:400::/29",
        "2a11:1440::/29",
        "2a11:2500::/29",
        "2a11:2f41:6000::/36",
        "2a11:2f45:3000::/36",
        "2a11:4200::/29",
        "2a11:4dc0::/29",
        "2a11:5280::/29",
        "2a11:58c0::/29",
        "2a11:5dc0::/29",
        "2a11:67c0::/29",
        "2a11:7240:d000::/36",
        "2a11:7245:a000::/36",
        "2a11:7d40::/29",
        "2a11:7e06::/32",
        "2a11:8240::/29",
        "2a11:9740::/29",
        "2a11:a5c0::/29",
        "2a11:b640::/29",
        "2a11:ca40::/29",
        "2a11:e800::/29",
        "2a11:e940::/29",
        "2a11:ed80::/29",
        "2a11:f7c0::/29",
        "2a12:f80::/29",
        "2a12:1340::/29",
        "2a12:2f00::/29",
        "2a12:3380::/29",
        "2a12:3900::/29",
        "2a12:3980::/29",
        "2a12:3a80::/29",
        "2a12:3f80::/29",
        "2a12:49c1:7000::/38",
        "2a12:49c3:7000::/38",
        "2a12:49c4:e00::/41",
        "2a12:49c5:7000::/38",
        "2a12:5340::/30",
        "2a12:5344::/31",
        "2a12:5346::/47",
        "2a12:5346:3::/48",
        "2a12:5346:4::/46",
        "2a12:5346:8::/45",
        "2a12:5346:10::/44",
        "2a12:5346:20::/43",
        "2a12:5346:40::/42",
        "2a12:5346:80::/41",
        "2a12:5346:100::/40",
        "2a12:5346:200::/39",
        "2a12:5346:400::/38",
        "2a12:5346:800::/37",
        "2a12:5346:1000::/36",
        "2a12:5346:2000::/35",
        "2a12:5346:4000::/34",
        "2a12:5346:8000::/33",
        "2a12:5347::/32",
        "2a12:56c0::/29",
        "2a12:6a40::/29",
        "2a12:6c80::/29",
        "2a12:6d80::/29",
        "2a12:7700::/29",
        "2a12:d500::/29",
        "2a12:dd00::/29",
        "2a12:de00::/29",
        "2a12:f180::/29",
        "2a13:240:4100::/40",
        "2a13:480::/29",
        "2a13:1780::/29",
        "2a13:36c0::/32",
        "2a13:4400::/29",
        "2a13:4a80::/29",
        "2a13:5040::/29",
        "2a13:6940::/29",
        "2a13:6bc0::/32",
        "2a13:8000::/29",
        "2a13:84c0::/32",
        "2a13:9e80::/32",
        "2a13:a5c3:d058::/46",
        "2a13:b340::/29",
        "2a13:b440::/29",
        "2a13:b4c0::/29",
        "2a13:b740::/29",
        "2a13:b7c0::/29",
        "2a13:b8c0::/29",
        "2a13:b9c0::/29",
        "2a13:c3c0::/29",
        "2a13:c440::/29",
        "2a13:c540::/29",
        "2a13:dd40::/29",
        "2a13:dfc0::/29",
        "2a13:e040::/29",
        "2a13:e240::/29",
        "2a14:1c4:d000::/37",
        "2a14:2280::/29",
        "2a14:2380::/29",
        "2a14:2400::/29",
        "2a14:2480::/29",
        "2a14:2580::/29",
        "2a14:54c0::/29",
        "2a14:5d40::/32",
        "2a14:60c0::/29"
      ]
    }
  ]
}
