{
  "version": 1,
  "rules": [
    {
      "ip_cidr": [
        "5.62.62.253/32",
        "5.62.62.254/31",
        "41.73.96.0/19",
        "41.203.192.0/20",
        "41.221.176.0/20",
        "57.82.154.0/23",
        "57.83.232.0/24",
        "85.255.21.112/28",
        "102.68.176.0/22",
        "102.130.232.0/22",
        "102.165.96.0/20",
        "102.212.72.0/22",
        "102.213.136.0/22",
        "102.217.24.0/22",
        "102.221.132.0/22",
        "102.222.204.0/22",
        "102.223.64.0/22",
        "104.28.11.216/31",
        "104.28.11.218/32",
        "104.28.34.73/32",
        "104.28.34.74/32",
        "104.28.60.109/32",
        "104.28.60.110/32",
        "104.28.87.23/32",
        "104.28.87.24/32",
        "104.28.88.39/32",
        "104.28.88.40/32",
        "104.28.96.67/32",
        "104.28.96.68/32",
        "104.28.221.233/32",
        "104.28.221.234/31",
        "104.28.221.236/31",
        "104.28.221.238/32",
        "104.28.253.233/32",
        "104.28.253.234/31",
        "104.28.253.236/31",
        "104.28.253.238/32",
        "136.23.4.98/32",
        "136.23.21.26/32",
        "140.248.24.82/31",
        "140.248.40.154/31",
        "140.248.41.82/31",
        "140.248.56.144/32",
        "140.248.57.144/32",
        "140.248.58.144/32",
        "140.248.59.144/32",
        "140.248.60.144/32",
        "140.248.61.144/32",
        "140.248.62.144/32",
        "140.248.63.144/32",
        "146.75.182.44/31",
        "154.70.192.0/22",
        "154.118.128.0/18",
        "157.5.101.123/32",
        "157.5.101.124/32",
        "157.5.109.123/32",
        "157.5.109.124/32",
        "165.90.208.0/20",
        "169.239.100.0/22",
        "172.225.118.192/27",
        "172.225.161.96/28",
        "172.225.162.160/28",
        "194.50.99.146/32",
        "196.10.216.0/21",
        "196.32.112.0/20",
        "196.48.129.0/24",
        "196.49.48.0/24",
        "196.50.16.0/22",
        "196.56.129.0/24",
        "196.57.129.0/24",
        "196.58.129.0/24",
        "196.60.46.0/24",
        "196.196.129.0/24",
        "196.197.129.0/24",
        "196.198.129.0/24",
        "196.199.129.0/24",
        "196.200.48.0/20",
        "196.200.80.0/20",
        "196.251.156.0/22",
        "197.155.128.0/18",
        "217.64.96.0/20",
        "217.170.144.0/20",
        "2001:470:26:7c9::/64",
        "2001:67c:a38:f223::/64",
        "2001:42c0::/32",
        "2001:43f8:10d0::/48",
        "2001:43f8:10e0::/48",
        "2001:43fd:9000::/48",
        "2606:40:768::/45",
        "2606:40:770::/45",
        "2606:40:10d0::/44",
        "2606:54c0:4870::/45",
        "2606:54c3:0:194::/64",
        "2607:8940:4171:7b00::/56",
        "2607:8940:4171:7c00::/56",
        "2607:8940:4191:7b00::/56",
        "2607:8940:4191:7c00::/56",
        "2a02:26f7:c2c0:4000::/64",
        "2a02:26f7:c2c0:ce80::/62",
        "2a02:26f7:c2c1:4000::/64",
        "2a02:26f7:c2c4:4000::/64",
        "2a02:26f7:c2c4:ce80::/62",
        "2a02:26f7:c2c5:4000::/64",
        "2a02:26f7:c2c8:4000::/64",
        "2a02:26f7:c2c8:ce80::/62",
        "2a02:26f7:c2c9:4000::/64",
        "2a02:5740:129::/48",
        "2a02:5741:129::/48",
        "2a02:5742:129::/48",
        "2a02:5743:129::/48",
        "2a02:5744:129::/48",
        "2a02:5745:129::/48",
        "2a02:5746:129::/48",
        "2a02:5747:129::/48",
        "2a04:4e41:11:2a00::/56",
        "2a04:4e41:13:29::/64",
        "2a04:4e41:13:2100::/56",
        "2a04:4e41:22:16::/64",
        "2a04:4e41:22:1e00::/56",
        "2a04:4e41:5d:29::/64",
        "2a04:4e41:5d:2100::/56",
        "2a04:4e41:4019::/52",
        "2a04:4e41:4029::/52",
        "2a04:4e41:4039::/52",
        "2a04:4e41:4049::/52",
        "2a04:4e41:4059::/52",
        "2a04:4e41:4069::/52",
        "2a04:4e41:4079::/52",
        "2a04:4e41:4089::/52",
        "2a05:dfc1:5a9b::/48",
        "2a09:bac1:4a80::/64",
        "2a09:bac1:4aa0::/64",
        "2a09:bac1:4ac0::/64",
        "2a09:bac1:4ae0::/64",
        "2a09:bac2:4870::/45",
        "2a09:bac3:4870::/45",
        "2a09:bac4:478::/45",
        "2a09:bac4:1478::/45",
        "2a09:bac5:4920::/45",
        "2a09:bac6:4920::/45",
        "2a0a:6044:6a89::/48",
        "2a0a:6044:6a8a::/47",
        "2a0a:6044:6a8c::/46",
        "2a0a:6044:6a90::/45",
        "2a0a:6044:fa89::/48",
        "2a0a:6044:fa8a::/47",
        "2a0a:6044:fa8c::/46",
        "2a0a:6044:fa90::/45",
        "2a0c:3b80:4d4c::/48",
        "2a0c:3b80:6d6c::/48",
        "2a0c:9a40:95b8:6000::/52",
        "2a10:500:2800::/40",
        "2a13:b487:5031::/48",
        "2a14:1c4::/37",
        "2c0f:1b00::/32",
        "2c0f:4cc0::/32",
        "2c0f:e870::/32",
        "2c0f:f900::/32"
      ]
    }
  ]
}
