{
  "version": 1,
  "rules": [
    {
      "ip_cidr": [
        "5.62.63.5/32",
        "5.62.63.6/31",
        "41.138.128.0/19",
        "41.188.64.0/18",
        "41.223.96.0/22",
        "45.42.179.0/24",
        "45.83.139.0/24",
        "57.82.168.0/23",
        "57.84.0.0/20",
        "74.118.126.144/30",
        "79.135.105.92/30",
        "82.151.64.0/19",
        "85.255.21.64/28",
        "102.36.184.0/22",
        "102.214.128.0/22",
        "102.214.208.0/22",
        "102.215.95.0/24",
        "102.216.27.0/24",
        "102.216.216.0/22",
        "102.219.207.0/24",
        "104.28.11.235/32",
        "104.28.11.236/31",
        "104.28.34.77/32",
        "104.28.34.78/32",
        "104.28.61.90/31",
        "104.28.87.25/32",
        "104.28.87.26/32",
        "104.28.88.41/32",
        "104.28.88.42/32",
        "104.28.96.71/32",
        "104.28.96.72/32",
        "104.28.199.27/32",
        "104.28.199.28/30",
        "104.28.199.32/32",
        "104.28.231.27/32",
        "104.28.231.28/30",
        "104.28.231.32/32",
        "104.167.245.0/24",
        "136.23.1.131/32",
        "136.23.21.31/32",
        "140.248.40.156/31",
        "140.248.56.150/32",
        "140.248.57.150/32",
        "140.248.58.150/32",
        "140.248.59.150/32",
        "140.248.60.150/32",
        "140.248.61.150/32",
        "140.248.62.150/32",
        "140.248.63.150/32",
        "146.75.166.114/31",
        "146.75.182.46/31",
        "157.5.101.125/32",
        "157.5.101.126/32",
        "157.5.109.125/32",
        "157.5.109.126/32",
        "162.120.204.78/32",
        "162.120.210.14/32",
        "163.116.169.153/32",
        "163.116.169.154/32",
        "163.116.190.98/31",
        "172.225.162.176/28",
        "172.225.178.160/28",
        "172.225.212.208/28",
        "172.225.243.16/28",
        "194.50.99.152/32",
        "196.48.132.0/24",
        "196.49.18.0/24",
        "196.56.132.0/24",
        "196.57.132.0/24",
        "196.58.132.0/24",
        "196.196.132.0/24",
        "196.197.132.0/24",
        "196.198.132.0/24",
        "196.199.132.0/24",
        "196.223.45.0/24",
        "197.231.0.0/19",
        "209.88.124.0/24",
        "2001:470:1f09:9d::/64",
        "2001:470:1f0b:11c3::/64",
        "2001:67c:a38:f222::/64",
        "2606:40:918::/45",
        "2606:40:920::/45",
        "2606:40:1150::/44",
        "2606:40:2241:c000::/51",
        "2606:40:22e1:c000::/51",
        "2606:54c0:48c0::/45",
        "2606:54c3:0:14c8::/64",
        "2607:8940:4171:7d00::/56",
        "2607:8940:4171:7e00::/56",
        "2607:8940:4191:7d00::/56",
        "2607:8940:4191:7e00::/56",
        "2a02:26f7:edc0:4000::/64",
        "2a02:26f7:edc0:c560::/64",
        "2a02:26f7:edc1:4000::/64",
        "2a02:26f7:edc2:4000::/64",
        "2a02:26f7:edc2:c560::/64",
        "2a02:26f7:edc3:4000::/64",
        "2a02:26f7:edc4:4000::/64",
        "2a02:26f7:edc4:c560::/64",
        "2a02:26f7:edc5:4000::/64",
        "2a02:26f7:edc8:4000::/64",
        "2a02:26f7:edc8:c560::/64",
        "2a02:26f7:edc9:4000::/64",
        "2a02:5740:132::/48",
        "2a02:5741:132::/48",
        "2a02:5742:132::/48",
        "2a02:5743:132::/48",
        "2a02:5744:132::/48",
        "2a02:5745:132::/48",
        "2a02:5746:132::/48",
        "2a02:5747:132::/48",
        "2a04:4e41:11:2b00::/56",
        "2a04:4e41:12:39::/64",
        "2a04:4e41:12:2600::/56",
        "2a04:4e41:22:17::/64",
        "2a04:4e41:22:1f00::/56",
        "2a04:4e41:4019:6000::/52",
        "2a04:4e41:4029:6000::/52",
        "2a04:4e41:4039:6000::/52",
        "2a04:4e41:4049:6000::/52",
        "2a04:4e41:4059:6000::/52",
        "2a04:4e41:4069:6000::/52",
        "2a04:4e41:4079:6000::/52",
        "2a04:4e41:4089:6000::/52",
        "2a05:dfc1:5a9f::/48",
        "2a09:bac1:4d80::/64",
        "2a09:bac1:4da0::/64",
        "2a09:bac1:4dc0::/64",
        "2a09:bac1:4de0::/64",
        "2a09:bac2:48c0::/45",
        "2a09:bac3:48c0::/45",
        "2a09:bac4:4a8::/45",
        "2a09:bac4:14a8::/45",
        "2a09:bac5:4970::/45",
        "2a09:bac6:4970::/45",
        "2a0a:6044:6a98::/45",
        "2a0a:6044:6aa0::/46",
        "2a0a:6044:6aa4::/47",
        "2a0a:6044:6aa6::/48",
        "2a0a:6044:fa98::/45",
        "2a0a:6044:faa0::/46",
        "2a0a:6044:faa4::/47",
        "2a0a:6044:faa6::/48",
        "2a0c:3b80:4d52::/48",
        "2a0c:3b80:6d72::/48",
        "2a0c:9a40:95b8:a000::/52",
        "2a10:500:2900::/40",
        "2a10:9007:2:f::/64",
        "2a13:a5c3:d168::/46",
        "2a14:1c4:5800::/37",
        "2c0f:2240::/32",
        "2c0f:2540::/32",
        "2c0f:2640::/32",
        "2c0f:4e80::/32",
        "2c0f:f998::/32"
      ]
    }
  ]
}
