{
  "version": 1,
  "rules": [
    {
      "ip_cidr": [
        "5.62.63.1/32",
        "5.62.63.2/31",
        "5.180.27.0/24",
        "5.198.248.0/21",
        "34.154.50.128/27",
        "37.75.32.0/19",
        "37.114.72.0/21",
        "37.233.120.0/21",
        "38.102.100.0/24",
        "38.108.97.0/24",
        "45.9.100.0/22",
        "45.74.19.0/25",
        "45.74.19.128/30",
        "45.74.19.132/31",
        "45.74.19.134/32",
        "45.74.19.136/30",
        "45.74.19.140/31",
        "45.74.19.143/32",
        "45.74.19.144/28",
        "45.74.19.160/28",
        "45.74.19.176/29",
        "45.74.19.184/30",
        "45.74.19.188/31",
        "45.74.19.231/32",
        "45.74.19.232/29",
        "45.74.19.240/28",
        "45.95.81.0/24",
        "45.95.83.0/24",
        "46.11.0.0/16",
        "46.54.0.0/17",
        "46.243.136.0/24",
        "46.243.241.0/24",
        "62.173.0.0/19",
        "66.84.67.0/24",
        "69.6.32.0/19",
        "74.85.218.0/24",
        "74.118.126.148/30",
        "77.25.128.0/17",
        "77.71.128.0/17",
        "77.81.118.108/30",
        "77.243.64.0/20",
        "78.110.16.0/20",
        "78.133.0.0/17",
        "79.135.108.0/22",
        "80.64.208.0/22",
        "80.71.48.0/20",
        "80.71.96.0/20",
        "80.77.192.0/20",
        "80.85.96.0/20",
        "80.93.144.0/20",
        "80.245.208.0/20",
        "80.254.80.0/20",
        "82.118.228.0/24",
        "82.149.80.0/24",
        "83.142.248.0/21",
        "84.252.112.0/24",
        "84.255.0.0/18",
        "85.119.120.0/21",
        "85.184.96.0/22",
        "85.184.106.0/23",
        "85.184.108.0/23",
        "85.184.112.0/20",
        "85.232.192.0/19",
        "85.236.136.0/21",
        "88.203.0.0/17",
        "89.149.172.48/28",
        "91.103.88.0/21",
        "91.190.157.0/24",
        "91.194.92.0/23",
        "91.199.56.0/24",
        "91.200.196.0/22",
        "91.216.153.0/24",
        "91.216.154.0/24",
        "91.220.139.0/24",
        "91.221.10.0/23",
        "91.231.10.0/24",
        "92.218.64.0/19",
        "92.251.0.0/17",
        "93.158.123.20/30",
        "94.17.0.0/16",
        "94.137.76.0/24",
        "94.138.224.0/19",
        "95.131.232.0/21",
        "98.159.226.0/28",
        "102.38.239.0/24",
        "103.77.102.0/24",
        "103.208.84.48/28",
        "103.219.212.0/23",
        "104.28.11.241/32",
        "104.28.11.242/31",
        "104.28.34.75/32",
        "104.28.34.76/32",
        "104.28.60.111/32",
        "104.28.60.112/32",
        "104.28.96.69/32",
        "104.28.96.70/32",
        "104.28.98.68/31",
        "104.28.130.98/31",
        "104.28.207.227/32",
        "104.28.207.228/30",
        "104.28.207.232/32",
        "104.28.239.227/32",
        "104.28.239.228/30",
        "104.28.239.232/32",
        "104.166.111.0/24",
        "104.243.247.0/24",
        "104.250.177.0/24",
        "109.200.32.0/19",
        "130.185.255.0/24",
        "136.23.6.99/32",
        "136.23.20.11/32",
        "140.248.17.26/31",
        "140.248.36.196/31",
        "140.248.56.152/32",
        "140.248.57.152/32",
        "140.248.58.152/32",
        "140.248.59.152/32",
        "140.248.60.152/32",
        "140.248.61.152/32",
        "140.248.62.152/32",
        "140.248.63.152/32",
        "141.8.0.0/17",
        "141.101.155.0/24",
        "141.138.208.160/29",
        "141.138.208.208/28",
        "141.138.208.224/27",
        "141.138.209.248/29",
        "141.138.210.32/28",
        "141.138.210.48/29",
        "141.138.210.80/28",
        "141.138.210.96/29",
        "141.138.210.104/30",
        "141.138.210.248/29",
        "141.138.211.0/27",
        "141.138.211.32/28",
        "141.138.211.208/28",
        "141.138.212.0/27",
        "141.138.212.32/28",
        "141.138.213.0/27",
        "141.138.213.32/28",
        "141.138.213.48/29",
        "141.138.214.224/27",
        "141.138.215.128/27",
        "141.138.215.160/28",
        "141.138.215.208/28",
        "141.138.215.224/28",
        "142.202.252.0/23",
        "142.202.254.0/24",
        "145.14.133.0/24",
        "146.75.166.116/31",
        "146.75.186.26/31",
        "147.75.148.0/24",
        "147.189.204.0/23",
        "147.189.206.0/24",
        "149.14.83.96/29",
        "150.48.141.122/31",
        "150.48.141.124/30",
        "150.48.148.168/30",
        "150.48.148.172/31",
        "150.48.148.212/30",
        "157.5.85.117/32",
        "157.5.85.118/32",
        "157.5.85.146/32",
        "157.5.99.91/32",
        "157.5.99.92/32",
        "157.5.99.243/32",
        "157.5.107.91/32",
        "157.5.107.92/32",
        "157.5.107.243/32",
        "157.167.104.0/24",
        "157.167.228.83/32",
        "157.167.228.84/32",
        "157.167.228.172/32",
        "157.167.229.83/32",
        "157.167.229.84/32",
        "157.167.229.172/32",
        "157.167.230.83/32",
        "157.167.230.84/32",
        "157.167.230.172/32",
        "157.167.231.135/32",
        "157.167.231.136/32",
        "157.167.231.236/32",
        "157.167.237.83/32",
        "157.167.237.84/32",
        "157.167.237.172/32",
        "157.167.238.83/32",
        "157.167.238.84/32",
        "157.167.238.172/32",
        "157.167.239.83/32",
        "157.167.239.84/32",
        "157.167.239.172/32",
        "157.167.240.83/32",
        "157.167.240.84/32",
        "157.167.240.172/32",
        "159.20.24.0/21",
        "162.43.193.0/25",
        "162.120.213.9/32",
        "162.120.215.3/32",
        "163.116.166.91/32",
        "163.116.166.110/32",
        "163.116.169.77/32",
        "163.116.169.79/32",
        "163.116.172.87/32",
        "163.116.172.139/32",
        "163.116.174.107/32",
        "163.116.174.111/32",
        "163.116.179.61/32",
        "163.116.179.78/32",
        "171.22.254.0/24",
        "172.225.26.128/27",
        "172.225.94.16/28",
        "172.225.145.0/27",
        "173.239.197.32/28",
        "176.99.32.0/20",
        "176.125.230.0/24",
        "176.126.66.1/32",
        "178.32.185.12/30",
        "178.170.138.0/24",
        "178.255.8.0/24",
        "181.215.138.0/28",
        "185.5.48.0/22",
        "185.9.100.0/22",
        "185.13.40.0/22",
        "185.25.168.0/22",
        "185.27.56.0/22",
        "185.36.236.0/22",
        "185.48.184.0/22",
        "185.51.236.0/22",
        "185.56.252.0/22",
        "185.63.72.0/21",
        "185.64.4.0/24",
        "185.64.56.0/22",
        "185.73.230.218/32",
        "185.76.244.0/22",
        "185.78.235.0/24",
        "185.89.136.0/22",
        "185.89.236.0/22",
        "185.91.0.0/23",
        "185.91.2.0/24",
        "185.91.3.0/27",
        "185.91.3.32/32",
        "185.91.3.34/31",
        "185.91.3.36/30",
        "185.91.3.40/29",
        "185.91.3.48/28",
        "185.91.3.64/26",
        "185.91.3.128/25",
        "185.99.24.244/30",
        "185.99.26.244/30",
        "185.115.12.0/22",
        "185.137.16.0/24",
        "185.137.17.128/25",
        "185.141.248.0/22",
        "185.157.36.0/22",
        "185.162.152.0/22",
        "185.173.227.0/24",
        "185.176.196.0/22",
        "185.177.48.0/22",
        "185.179.68.0/22",
        "185.179.102.0/24",
        "185.222.76.0/22",
        "185.230.123.0/24",
        "185.234.109.0/24",
        "185.240.107.0/24",
        "185.242.68.0/22",
        "188.65.190.128/27",
        "188.92.251.128/26",
        "188.172.0.0/18",
        "188.172.64.0/19",
        "192.136.7.0/24",
        "192.253.254.0/24",
        "193.24.232.0/23",
        "193.28.2.0/23",
        "193.28.58.0/23",
        "193.29.36.0/23",
        "193.29.40.0/23",
        "193.33.138.0/23",
        "193.34.192.128/25",
        "193.105.200.0/24",
        "193.110.155.0/24",
        "193.150.126.0/24",
        "193.188.32.0/20",
        "193.200.242.0/24",
        "193.227.99.0/24",
        "193.228.56.0/24",
        "194.50.99.154/32",
        "194.105.32.0/22",
        "194.106.64.0/19",
        "194.127.139.0/24",
        "194.158.32.0/19",
        "194.204.96.0/19",
        "195.10.192.0/24",
        "195.10.217.0/24",
        "195.38.30.0/24",
        "195.138.224.0/21",
        "195.149.126.0/24",
        "195.158.64.0/18",
        "195.160.232.0/22",
        "195.234.51.0/24",
        "195.245.251.0/24",
        "196.48.130.0/24",
        "196.56.130.0/24",
        "196.57.130.0/24",
        "196.58.130.0/24",
        "196.196.130.0/24",
        "196.197.130.0/24",
        "196.198.130.0/24",
        "196.199.130.0/24",
        "198.240.114.0/23",
        "208.167.192.88/29",
        "209.198.150.128/25",
        "209.198.158.128/26",
        "209.206.29.0/28",
        "212.56.128.0/19",
        "212.65.96.0/19",
        "212.115.172.136/30",
        "212.221.7.208/29",
        "212.222.87.212/30",
        "213.134.19.0/24",
        "213.165.160.0/19",
        "213.169.151.0/24",
        "213.187.226.0/24",
        "213.187.237.0/24",
        "213.198.107.32/29",
        "213.217.192.0/18",
        "216.19.206.0/24",
        "216.19.216.0/23",
        "216.128.4.0/24",
        "216.131.88.192/26",
        "217.15.96.0/20",
        "217.22.176.0/20",
        "217.30.96.0/20",
        "217.71.176.0/20",
        "217.145.0.0/20",
        "217.168.160.0/20",
        "217.198.186.0/24",
        "2001:470:26:633::/64",
        "2001:470:28:22::/64",
        "2001:470:28:520::/64",
        "2001:470:1808::/48",
        "2001:470:1f0f:103::/64",
        "2001:470:1f13:2ea::/64",
        "2001:470:1f13:379::/64",
        "2001:470:1f15:507::/64",
        "2001:470:1f1b:732::/64",
        "2001:470:1f1d:c::/64",
        "2001:470:1f23:3c::/64",
        "2001:470:dd9a::/48",
        "2001:67c:a38:f356::/64",
        "2001:67c:dbc::/48",
        "2001:1a70::/29",
        "2602:2a9:a60::/44",
        "2602:fd92:b00:163::/64",
        "2602:fd92:b00:187::/64",
        "2606:40:19d0::/44",
        "2606:40:19e0::/44",
        "2606:40:2190:6000::/51",
        "2606:40:22a1:2000::/51",
        "2606:54c0:48d0::/45",
        "2606:54c3:0:d03::/64",
        "2607:740:1d::/48",
        "2607:6b80:53::/48",
        "2607:8940:354a::/47",
        "2607:8940:354c::/46",
        "2607:8940:4163:5b00::/56",
        "2607:8940:4163:5c00::/56",
        "2607:8940:4163:f300::/56",
        "2607:8940:4183:5b00::/56",
        "2607:8940:4183:5c00::/56",
        "2607:8940:4183:f300::/56",
        "2607:8940:4250:7500::/56",
        "2607:8940:4250:7600::/56",
        "2607:8940:4250:9200::/56",
        "2a00:1060::/32",
        "2a00:1cc0::/32",
        "2a00:5280::/32",
        "2a00:8de0::/29",
        "2a01:a0::/32",
        "2a01:180::/29",
        "2a01:9ae0::/32",
        "2a01:abc0::/32",
        "2a02:dd0::/32",
        "2a02:26f7:bc80::/48",
        "2a02:26f7:bc81:4000::/64",
        "2a02:26f7:bc84:4000::/64",
        "2a02:26f7:bc84:cb80::/63",
        "2a02:26f7:bc85:4000::/64",
        "2a02:26f7:bc88:4000::/64",
        "2a02:26f7:bc88:cb80::/63",
        "2a02:26f7:bc89:4000::/64",
        "2a02:5320::/32",
        "2a02:5740:130::/48",
        "2a02:5741:130::/48",
        "2a02:5742:130::/48",
        "2a02:5743:130::/48",
        "2a02:5744:130::/48",
        "2a02:5745:130::/48",
        "2a02:5746:130::/48",
        "2a02:5747:130::/48",
        "2a02:79a0::/32",
        "2a03:9a0::/32",
        "2a03:b20::/32",
        "2a03:bc0::/29",
        "2a03:3bc0::/32",
        "2a03:6bc0::/29",
        "2a03:8820::/32",
        "2a03:cb00::/32",
        "2a04:4e41:12:3a::/64",
        "2a04:4e41:12:2700::/56",
        "2a04:4e41:26:d::/64",
        "2a04:4e41:26:1600::/56",
        "2a04:4e41:56:1600::/56",
        "2a04:4e41:66:62::/64",
        "2a04:4e41:66:3b00::/56",
        "2a04:4e41:4019:8000::/52",
        "2a04:4e41:4029:8000::/52",
        "2a04:4e41:4039:8000::/52",
        "2a04:4e41:4049:8000::/52",
        "2a04:4e41:4059:8000::/52",
        "2a04:4e41:4069:8000::/52",
        "2a04:4e41:4079:8000::/52",
        "2a04:4e41:4089:8000::/52",
        "2a04:6700::/29",
        "2a04:8300::/29",
        "2a04:8700::/29",
        "2a05:dfc1:5aa1::/48",
        "2a07:2740::/29",
        "2a09:54c1:163::/48",
        "2a09:54c1:187::/48",
        "2a09:7000::/29",
        "2a09:bac1:4e80::/64",
        "2a09:bac1:4ea0::/64",
        "2a09:bac1:4ec0::/64",
        "2a09:bac1:4ee0::/64",
        "2a09:bac2:48d0::/45",
        "2a09:bac3:48d0::/45",
        "2a09:bac4:4b8::/45",
        "2a09:bac4:14b8::/45",
        "2a09:bac5:4980::/45",
        "2a09:bac6:4980::/45",
        "2a09:be42:8000::/38",
        "2a09:be44:8000::/38",
        "2a09:be46:8000::/38",
        "2a0a:6044:6590::/45",
        "2a0a:6044:6598::/46",
        "2a0a:6044:659c::/47",
        "2a0a:6044:659e::/48",
        "2a0a:6044:a142:69a5::/64",
        "2a0a:6044:f590::/45",
        "2a0a:6044:f598::/46",
        "2a0a:6044:f59c::/47",
        "2a0a:6044:f59e::/48",
        "2a0c:3b80:4d54::/48",
        "2a0c:3b80:6d74::/48",
        "2a0c:9a40:95b8:7000::/52",
        "2a0c:9e06:163::/48",
        "2a0c:9e06:187::/48",
        "2a0c:c280::/29",
        "2a0d:1c40::/29",
        "2a0d:3344:1fc0::/42",
        "2a0d:3344:3740::/42",
        "2a0e:48c3:8000::/38",
        "2a0e:b107:3d0::/48",
        "2a0e:ec05:b540::/42",
        "2a0e:ec05:b580::/41",
        "2a0e:ec05:b600::/40",
        "2a0e:ec05:b700::/42",
        "2a10:500:8700::/40",
        "2a10:1f00::/31",
        "2a10:5500::/29",
        "2a10:9007:2:10::/64",
        "2a11:6480::/29",
        "2a11:9540::/32",
        "2a12:49c1:8000::/38",
        "2a12:49c3:8000::/38",
        "2a12:49c4:1000::/41",
        "2a12:49c5:8000::/38",
        "2a13:6bc2::/32",
        "2a13:a5c3:d064::/46",
        "2a14:1c3:800::/37"
      ]
    }
  ]
}
