{
  "version": 1,
  "rules": [
    {
      "ip_cidr": [
        "5.62.62.249/32",
        "5.62.62.250/31",
        "27.114.128.0/18",
        "36.255.104.0/23",
        "43.226.220.0/22",
        "43.231.28.0/22",
        "43.247.140.0/22",
        "45.42.136.0/24",
        "45.138.10.188/30",
        "45.254.246.0/24",
        "57.72.90.0/23",
        "57.92.192.0/20",
        "63.246.47.192/26",
        "69.30.251.140/32",
        "69.94.32.0/20",
        "69.94.80.0/20",
        "83.137.200.0/21",
        "103.15.52.0/22",
        "103.19.224.0/22",
        "103.31.84.0/22",
        "103.50.104.0/22",
        "103.55.161.0/24",
        "103.67.26.0/24",
        "103.71.57.0/24",
        "103.76.2.0/24",
        "103.84.132.0/24",
        "103.84.134.0/24",
        "103.87.188.0/24",
        "103.103.66.0/24",
        "103.110.40.0/24",
        "103.110.109.0/24",
        "103.110.110.0/23",
        "103.119.75.0/24",
        "103.139.108.0/25",
        "103.141.98.0/24",
        "103.143.252.0/24",
        "103.152.174.0/24",
        "103.172.31.0/24",
        "103.173.79.0/24",
        "103.182.172.0/24",
        "103.191.77.0/24",
        "103.197.164.0/22",
        "103.248.112.0/22",
        "104.28.11.247/32",
        "104.28.11.248/31",
        "104.28.38.52/31",
        "104.28.44.154/31",
        "104.28.68.87/32",
        "104.28.68.88/32",
        "104.28.71.87/32",
        "104.28.71.88/32",
        "104.28.119.81/32",
        "104.28.119.82/32",
        "104.28.122.81/32",
        "104.28.122.82/32",
        "104.28.147.6/32",
        "104.28.150.68/32",
        "104.28.155.6/32",
        "104.28.158.68/32",
        "104.28.211.210/31",
        "104.28.211.212/30",
        "104.28.211.216/31",
        "104.28.243.210/31",
        "104.28.243.212/30",
        "104.28.243.216/31",
        "115.84.128.0/19",
        "123.176.0.0/19",
        "124.195.192.0/19",
        "140.248.48.28/31",
        "140.248.56.154/32",
        "140.248.57.154/32",
        "140.248.58.154/32",
        "140.248.59.154/32",
        "140.248.60.154/32",
        "140.248.61.154/32",
        "140.248.62.154/32",
        "140.248.63.154/32",
        "146.75.146.14/31",
        "146.75.160.86/31",
        "150.107.196.0/22",
        "157.5.113.173/32",
        "157.5.113.174/32",
        "157.167.88.0/24",
        "157.167.231.139/32",
        "157.167.231.140/32",
        "157.167.231.238/32",
        "157.167.232.27/32",
        "157.167.232.28/32",
        "157.167.232.62/32",
        "157.167.233.27/32",
        "157.167.233.28/32",
        "157.167.233.62/32",
        "157.167.235.27/32",
        "157.167.235.28/32",
        "157.167.235.62/32",
        "157.167.236.27/32",
        "157.167.236.28/32",
        "157.167.236.62/32",
        "162.158.143.0/24",
        "163.116.195.80/32",
        "163.116.195.89/32",
        "163.116.204.108/32",
        "163.116.204.110/32",
        "172.71.226.0/24",
        "172.225.55.128/27",
        "172.225.77.0/27",
        "172.225.136.208/28",
        "172.226.44.64/26",
        "185.215.32.0/22",
        "194.50.99.156/32",
        "196.48.128.0/24",
        "196.56.128.0/24",
        "196.57.128.0/24",
        "196.58.128.0/24",
        "196.196.128.0/24",
        "196.197.128.0/24",
        "196.198.128.0/24",
        "196.199.128.0/24",
        "202.1.192.0/20",
        "202.21.176.0/20",
        "202.153.80.0/21",
        "203.17.86.0/24",
        "203.82.2.0/23",
        "203.104.24.0/21",
        "203.153.82.0/24",
        "209.212.192.0/19",
        "216.183.208.0/20",
        "220.158.220.0/22",
        "2001:470:28:135::/64",
        "2001:470:28:151::/64",
        "2001:470:28:256::/64",
        "2001:470:36:606::/64",
        "2001:470:4b:1ed::/64",
        "2001:470:6d:10a6::/64",
        "2001:470:1f07:8c7::/64",
        "2001:470:dc8c::/48",
        "2001:470:dc9e::/48",
        "2001:67c:a38:f960::/64",
        "2001:dde::/48",
        "2001:dec:c000::/48",
        "2001:df0:1d00::/48",
        "2001:df0:1f00::/48",
        "2001:df0:7040::/48",
        "2001:df0:8d00::/48",
        "2001:df1:5540::/48",
        "2001:df3:300::/48",
        "2001:df3:ea00::/48",
        "2001:df4:5b00::/48",
        "2001:df5:6a00::/48",
        "2001:df5:df00::/48",
        "2001:df7:9980::/48",
        "2400:cb00:214::/48",
        "2400:cb00:593::/48",
        "2401:8300::/32",
        "2404:ab80::/32",
        "2406:2d40:4540::/42",
        "2406:2d40:6000::/40",
        "2406:2d40:c000::/40",
        "2406:e400::/31",
        "2606:54c0:48e8::/45",
        "2606:54c3:0:a29::/64",
        "2607:8940:41a1:ad00::/56",
        "2607:8940:41a1:ae00::/56",
        "2620:0:877:9900::/64",
        "2a02:26f7:ba80:4000::/64",
        "2a02:26f7:ba80:c5c0::/64",
        "2a02:26f7:ba81:4000::/64",
        "2a02:26f7:ba84:4000::/64",
        "2a02:26f7:ba84:c5c0::/64",
        "2a02:26f7:ba85:4000::/64",
        "2a02:26f7:ba85:c5c0::/64",
        "2a02:26f7:ba86:4000::/64",
        "2a02:26f7:ba87:4000::/64",
        "2a02:26f7:ba88:4000::/64",
        "2a02:26f7:ba88:c5c0::/64",
        "2a02:26f7:ba89:4000::/64",
        "2a02:5740:128::/48",
        "2a02:5741:128::/48",
        "2a02:5742:128::/48",
        "2a02:5743:128::/48",
        "2a02:5744:128::/48",
        "2a02:5745:128::/48",
        "2a02:5746:128::/48",
        "2a02:5747:128::/48",
        "2a04:4e41:8:1600::/56",
        "2a04:4e41:e:1900::/56",
        "2a04:4e41:f:2300::/56",
        "2a04:4e41:4019:a000::/52",
        "2a04:4e41:4029:a000::/52",
        "2a04:4e41:4039:a000::/52",
        "2a04:4e41:4049:a000::/52",
        "2a04:4e41:4059:a000::/52",
        "2a04:4e41:4069:a000::/52",
        "2a04:4e41:4079:a000::/52",
        "2a04:4e41:4089:a000::/52",
        "2a05:dfc1:5aa3::/48",
        "2a05:dfc1:8c1d::/48",
        "2a09:bac1:4f80::/64",
        "2a09:bac1:4fa0::/64",
        "2a09:bac1:4fc0::/64",
        "2a09:bac1:4fe0::/64",
        "2a09:bac2:48e8::/45",
        "2a09:bac3:48e8::/45",
        "2a09:bac4:4c8::/45",
        "2a09:bac4:14c8::/45",
        "2a09:bac5:4998::/45",
        "2a09:bac6:4998::/45",
        "2a0a:6044:6151::/48",
        "2a0a:6044:6152::/47",
        "2a0a:6044:6154::/46",
        "2a0a:6044:6158::/45",
        "2a0a:6044:f151::/48",
        "2a0a:6044:f152::/47",
        "2a0a:6044:f154::/46",
        "2a0a:6044:f158::/45",
        "2a0c:3b80:4d56::/48",
        "2a0c:3b80:6d76::/48",
        "2a0c:9a40:95b8:5000::/52",
        "2a10:500:5700::/40",
        "2a13:a5c3:d474::/46",
        "2a14:1c5:8000::/37"
      ]
    }
  ]
}
