{
  "version": 1,
  "rules": [
    {
      "ip_cidr": [
        "5.62.56.148/30",
        "5.62.58.140/30",
        "8.243.238.184/31",
        "8.243.238.212/31",
        "45.5.216.0/22",
        "45.170.224.0/22",
        "45.182.142.0/24",
        "45.238.28.0/22",
        "57.74.72.0/22",
        "57.75.176.0/20",
        "69.167.93.48/29",
        "104.28.12.27/32",
        "104.28.12.28/31",
        "104.28.32.82/31",
        "104.28.36.110/31",
        "104.28.91.93/32",
        "104.28.91.94/32",
        "104.28.92.116/31",
        "104.28.94.116/31",
        "104.28.126.118/31",
        "104.28.195.142/31",
        "104.28.195.144/30",
        "104.28.227.142/31",
        "104.28.227.144/30",
        "131.196.35.2/32",
        "131.196.35.12/31",
        "131.255.16.0/24",
        "136.23.23.36/32",
        "136.23.27.20/32",
        "138.97.160.0/24",
        "138.97.162.0/23",
        "138.117.4.0/22",
        "138.185.28.0/22",
        "138.185.104.0/22",
        "140.248.32.8/31",
        "140.248.44.76/31",
        "140.248.56.164/32",
        "140.248.57.164/32",
        "140.248.58.164/32",
        "140.248.59.164/32",
        "140.248.60.164/32",
        "140.248.61.164/32",
        "140.248.62.164/32",
        "140.248.63.164/32",
        "143.137.24.0/22",
        "143.202.252.0/22",
        "146.75.160.98/31",
        "152.231.32.0/20",
        "157.5.124.171/32",
        "157.5.124.172/32",
        "157.167.224.37/32",
        "157.167.224.38/32",
        "157.167.224.73/32",
        "157.167.225.37/32",
        "157.167.225.38/32",
        "157.167.225.73/32",
        "157.167.227.37/32",
        "157.167.227.38/32",
        "157.167.227.73/32",
        "157.167.231.149/32",
        "157.167.231.150/32",
        "157.167.231.243/32",
        "157.167.234.37/32",
        "157.167.234.38/32",
        "157.167.234.73/32",
        "161.0.32.0/19",
        "161.69.53.16/32",
        "161.69.53.49/32",
        "161.69.54.16/32",
        "161.69.54.49/32",
        "161.69.60.16/32",
        "161.69.60.49/32",
        "162.120.194.245/32",
        "162.120.202.223/32",
        "163.116.134.162/32",
        "163.116.134.171/32",
        "163.116.250.61/32",
        "163.116.250.76/32",
        "165.98.0.0/16",
        "170.80.16.0/22",
        "170.84.132.0/22",
        "170.246.152.0/22",
        "172.225.22.48/28",
        "172.225.30.146/31",
        "172.225.33.160/27",
        "172.225.93.16/28",
        "172.225.93.176/31",
        "172.225.239.218/31",
        "172.226.11.40/31",
        "172.226.11.48/28",
        "179.60.149.0/24",
        "181.78.62.0/23",
        "181.78.102.0/23",
        "181.79.211.0/24",
        "181.119.102.0/23",
        "181.193.144.0/20",
        "181.215.138.112/28",
        "186.1.0.0/18",
        "186.32.8.0/24",
        "186.32.10.0/23",
        "186.76.0.0/15",
        "190.53.32.0/21",
        "190.53.40.0/24",
        "190.53.42.0/23",
        "190.53.44.0/23",
        "190.53.46.0/24",
        "190.61.81.0/24",
        "190.61.120.0/22",
        "190.106.0.0/19",
        "190.106.48.0/20",
        "190.107.208.0/22",
        "190.111.30.0/23",
        "190.124.32.0/21",
        "190.143.240.0/20",
        "190.181.128.0/18",
        "190.184.0.0/17",
        "190.212.0.0/16",
        "190.242.175.0/27",
        "190.242.176.36/30",
        "190.242.176.40/29",
        "190.242.176.48/28",
        "190.242.176.64/26",
        "190.242.176.128/25",
        "191.98.224.0/21",
        "191.98.232.0/22",
        "191.98.236.0/23",
        "191.98.238.0/24",
        "191.98.240.0/20",
        "191.102.48.0/21",
        "191.103.112.0/20",
        "192.107.104.0/24",
        "192.136.42.0/23",
        "192.136.44.0/22",
        "192.151.181.0/24",
        "194.50.99.166/32",
        "196.48.147.0/24",
        "196.56.147.0/24",
        "196.57.147.0/24",
        "196.58.147.0/24",
        "196.196.147.0/24",
        "196.197.147.0/24",
        "196.198.147.0/24",
        "196.199.147.0/24",
        "200.1.152.0/24",
        "200.6.55.0/24",
        "200.9.187.0/24",
        "200.9.188.0/22",
        "200.9.192.0/24",
        "200.10.205.0/24",
        "200.11.30.0/24",
        "200.30.128.0/24",
        "200.30.130.0/24",
        "200.30.132.0/24",
        "200.30.165.0/24",
        "200.30.170.0/24",
        "200.30.177.0/24",
        "200.30.182.0/24",
        "200.35.183.0/24",
        "200.35.191.0/24",
        "200.62.64.0/18",
        "200.85.160.0/20",
        "200.106.247.0/24",
        "201.131.66.0/24",
        "201.131.115.0/24",
        "207.248.86.0/24",
        "208.96.128.0/21",
        "208.96.137.0/24",
        "208.96.138.0/23",
        "209.124.100.0/23",
        "209.124.105.0/24",
        "209.124.106.0/23",
        "209.161.125.0/24",
        "216.194.96.80/28",
        "2001:470:5:39b::/64",
        "2001:470:1f1b:3fe::/64",
        "2001:470:1f1d:8c6::/64",
        "2001:470:1f29:303::/64",
        "2001:67c:a38:f505::/64",
        "2600:70ff:d069::/48",
        "2606:40:b60::/43",
        "2606:40:205e:a000::/51",
        "2606:40:214b:e000::/51",
        "2606:54c0:4d60::/44",
        "2606:54c3:0:94f::/64",
        "2606:54c3:0:177a::/64",
        "2607:8940:4200:ab00::/56",
        "2607:8940:4200:ac00::/56",
        "2800:10::/32",
        "2800:8c0::/32",
        "2801:14:5000::/48",
        "2801:15:8800::/48",
        "2801:1b:e000::/48",
        "2801:1d:6000::/48",
        "2803:180::/32",
        "2803:800::/32",
        "2803:a40::/32",
        "2803:1040::/32",
        "2803:14a0::/32",
        "2803:1640::/32",
        "2803:1c40::/32",
        "2803:1e00::/32",
        "2803:2410::/32",
        "2803:2d60::/32",
        "2803:6a80::/32",
        "2803:8610::/32",
        "2803:8880::/32",
        "2803:9140::/32",
        "2803:9840::/32",
        "2803:b780::/32",
        "2803:dfa0::/32",
        "2a01:ce94:3000::/36",
        "2a02:26f7:bd44:4000::/64",
        "2a02:26f7:bd44:4a00::/62",
        "2a02:26f7:bd45:4000::/64",
        "2a02:26f7:bd48:4000::/64",
        "2a02:26f7:bd48:4a00::/62",
        "2a02:26f7:bd49:4000::/64",
        "2a02:26f7:bd4c:4000::/64",
        "2a02:26f7:bd4c:4a00::/62",
        "2a02:26f7:bd4d:4000::/64",
        "2a02:26f7:bd50:4000::/64",
        "2a02:26f7:bd50:4a00::/62",
        "2a02:26f7:bd51:4000::/64",
        "2a02:5740:147::/48",
        "2a02:5741:147::/48",
        "2a02:5742:147::/48",
        "2a02:5743:147::/48",
        "2a02:5744:147::/48",
        "2a02:5745:147::/48",
        "2a02:5746:147::/48",
        "2a02:5747:147::/48",
        "2a04:4e41:f:2600::/56",
        "2a04:4e41:16:2c00::/56",
        "2a04:4e41:63:4::/64",
        "2a04:4e41:63:1200::/56",
        "2a04:4e41:401a:4000::/52",
        "2a04:4e41:402a:4000::/52",
        "2a04:4e41:403a:4000::/52",
        "2a04:4e41:404a:4000::/52",
        "2a04:4e41:405a:4000::/52",
        "2a04:4e41:406a:4000::/52",
        "2a04:4e41:407a:4000::/52",
        "2a04:4e41:408a:4000::/52",
        "2a05:dfc1:5aad::/48",
        "2a09:bac1:5480::/64",
        "2a09:bac1:5480:8::/64",
        "2a09:bac1:54a0::/64",
        "2a09:bac1:54a0:8::/64",
        "2a09:bac1:54c0::/64",
        "2a09:bac1:54c0:8::/64",
        "2a09:bac1:54e0::/64",
        "2a09:bac1:54e0:8::/64",
        "2a09:bac2:4d60::/44",
        "2a09:bac3:4d60::/44",
        "2a09:bac4:518::/45",
        "2a09:bac4:1518::/45",
        "2a09:bac5:4e10::/44",
        "2a09:bac6:4e10::/44",
        "2a09:be42:8800::/38",
        "2a09:be44:8800::/38",
        "2a09:be46:8800::/38",
        "2a0a:6042:9600::/40",
        "2a0a:6044:6804::/46",
        "2a0a:6044:6808::/45",
        "2a0a:6044:6810::/47",
        "2a0a:6044:6812::/48",
        "2a0a:6044:6e57::/48",
        "2a0a:6044:6e58::/45",
        "2a0a:6044:6e60::/46",
        "2a0a:6044:6e64::/47",
        "2a0a:6044:a142:69a9::/64",
        "2a0a:6044:f804::/46",
        "2a0a:6044:f808::/45",
        "2a0a:6044:f810::/47",
        "2a0a:6044:f812::/48",
        "2a0a:6044:fe57::/48",
        "2a0a:6044:fe58::/45",
        "2a0a:6044:fe60::/46",
        "2a0a:6044:fe64::/47",
        "2a0c:3b80:4e49::/48",
        "2a0c:3b80:6e69::/48",
        "2a0c:9a40:95b9:d000::/52",
        "2a0e:48c3:8800::/38",
        "2a0e:ec05:b940::/42",
        "2a0e:ec05:b980::/41",
        "2a0e:ec05:ba00::/40",
        "2a0e:ec05:bb00::/42",
        "2a10:500:aa00::/40",
        "2a12:49c1:8800::/38",
        "2a12:49c3:8800::/38",
        "2a12:49c4:1100::/41",
        "2a12:49c5:8800::/38",
        "2a12:e4c7::/32",
        "2a14:1c0:c000::/37"
      ]
    }
  ]
}
