{
  "version": 1,
  "rules": [
    {
      "ip_cidr": [
        "5.62.56.173/32",
        "5.62.56.174/31",
        "14.137.32.0/24",
        "14.137.35.0/24",
        "14.137.44.0/23",
        "14.137.46.0/24",
        "14.137.52.0/24",
        "14.192.72.0/22",
        "27.122.16.0/20",
        "34.99.16.0/22",
        "34.99.28.0/23",
        "43.245.56.0/22",
        "45.207.62.0/23",
        "57.70.172.0/23",
        "57.71.0.0/20",
        "65.181.26.0/23",
        "66.133.45.0/24",
        "103.3.168.0/22",
        "103.9.226.0/24",
        "103.11.160.0/22",
        "103.14.88.0/22",
        "103.15.112.0/22",
        "103.16.156.0/22",
        "103.20.76.0/22",
        "103.25.140.0/22",
        "103.43.144.0/22",
        "103.49.207.0/24",
        "103.53.176.0/22",
        "103.77.24.0/23",
        "103.80.43.0/24",
        "103.82.247.0/24",
        "103.83.32.0/23",
        "103.83.197.0/24",
        "103.88.79.0/24",
        "103.91.114.0/23",
        "103.96.134.0/23",
        "103.98.52.0/24",
        "103.99.174.0/23",
        "103.103.182.0/23",
        "103.106.4.0/23",
        "103.107.152.0/22",
        "103.110.30.0/23",
        "103.110.130.0/24",
        "103.112.101.0/24",
        "103.116.88.0/23",
        "103.122.72.0/23",
        "103.122.165.0/24",
        "103.123.12.0/24",
        "103.127.90.0/24",
        "103.127.172.0/22",
        "103.136.226.0/23",
        "103.138.35.0/24",
        "103.145.26.0/24",
        "103.145.49.0/24",
        "103.146.200.0/23",
        "103.152.8.0/24",
        "103.153.108.0/24",
        "103.155.112.0/24",
        "103.167.47.0/24",
        "103.172.16.0/24",
        "103.173.32.0/23",
        "103.175.149.0/24",
        "103.209.54.0/24",
        "103.212.40.0/24",
        "103.213.10.0/23",
        "103.215.92.0/23",
        "103.234.48.0/22",
        "103.242.164.0/22",
        "104.28.12.104/31",
        "104.28.12.106/32",
        "104.28.28.95/32",
        "104.28.28.96/32",
        "104.28.29.46/32",
        "104.28.29.79/32",
        "104.28.29.80/32",
        "104.28.35.92/31",
        "104.28.90.80/31",
        "104.28.125.86/31",
        "104.28.125.88/31",
        "104.28.203.3/32",
        "104.28.203.4/30",
        "104.28.203.8/32",
        "104.28.214.177/32",
        "104.28.214.178/31",
        "104.28.235.3/32",
        "104.28.235.4/30",
        "104.28.235.8/32",
        "104.28.246.177/32",
        "104.28.246.178/31",
        "119.252.224.0/20",
        "124.240.192.0/19",
        "128.77.108.96/27",
        "129.224.222.0/24",
        "130.41.156.224/27",
        "130.41.184.224/27",
        "134.231.205.64/26",
        "134.238.38.0/25",
        "134.238.38.128/26",
        "136.227.141.140/30",
        "136.227.141.144/31",
        "140.209.221.0/26",
        "140.248.20.18/31",
        "140.248.56.175/32",
        "140.248.57.175/32",
        "140.248.58.175/32",
        "140.248.59.175/32",
        "140.248.60.175/32",
        "140.248.61.175/32",
        "140.248.62.175/32",
        "140.248.63.175/32",
        "146.75.136.18/31",
        "146.75.190.20/31",
        "146.75.213.2/31",
        "154.81.51.0/24",
        "154.197.40.0/22",
        "154.198.0.0/24",
        "156.0.121.0/24",
        "157.5.113.254/31",
        "157.5.114.0/32",
        "157.167.40.0/24",
        "157.167.231.161/32",
        "157.167.231.162/32",
        "157.167.231.249/32",
        "157.167.232.33/32",
        "157.167.232.34/32",
        "157.167.232.65/32",
        "157.167.233.33/32",
        "157.167.233.34/32",
        "157.167.233.65/32",
        "157.167.235.33/32",
        "157.167.235.34/32",
        "157.167.235.65/32",
        "157.167.236.33/32",
        "157.167.236.34/32",
        "157.167.236.65/32",
        "160.20.143.0/24",
        "163.116.198.89/32",
        "163.116.198.90/32",
        "163.116.203.90/31",
        "165.1.231.1/32",
        "165.1.231.2/31",
        "165.1.231.4/30",
        "165.1.231.8/29",
        "165.1.231.16/28",
        "165.1.231.32/27",
        "165.1.231.64/27",
        "165.1.231.96/28",
        "165.1.231.112/29",
        "165.1.231.120/30",
        "165.1.231.124/31",
        "165.1.231.126/32",
        "165.1.231.129/32",
        "165.1.231.130/31",
        "165.1.231.132/30",
        "165.1.231.136/29",
        "165.1.231.144/28",
        "165.1.231.160/28",
        "165.1.231.176/29",
        "165.1.231.184/30",
        "165.1.231.188/31",
        "165.1.231.190/32",
        "165.85.183.192/26",
        "172.225.60.96/28",
        "172.225.62.64/26",
        "172.225.156.112/28",
        "172.225.156.208/28",
        "172.225.231.16/28",
        "172.225.231.32/28",
        "172.225.254.48/28",
        "180.150.252.0/22",
        "194.50.99.177/32",
        "196.48.157.0/24",
        "196.56.157.0/24",
        "196.57.157.0/24",
        "196.58.157.0/24",
        "196.197.157.0/24",
        "196.198.157.0/24",
        "196.199.157.0/24",
        "202.1.32.0/19",
        "202.5.115.0/24",
        "202.20.68.0/24",
        "202.42.184.0/22",
        "202.52.133.0/24",
        "202.58.128.0/22",
        "202.95.192.0/20",
        "202.165.192.0/20",
        "202.171.240.0/21",
        "202.181.129.232/29",
        "203.83.16.0/21",
        "210.79.31.230/32",
        "212.97.67.0/24",
        "216.139.171.0/24",
        "2001:470:26:7c5::/64",
        "2001:67c:a38:f675::/64",
        "2001:c60::/32",
        "2001:dea:8000::/48",
        "2001:df0:700::/48",
        "2001:df1:b00::/48",
        "2001:df1:bdc0::/48",
        "2001:df1:fb80::/48",
        "2001:df2:1500::/48",
        "2001:df3:4c00::/48",
        "2001:df3:c880::/48",
        "2001:df3:d840::/48",
        "2001:df4:3e80::/48",
        "2001:df4:6900::/48",
        "2001:df6:a880::/48",
        "2001:df7:5c80::/48",
        "2001:df7:8c80::/48",
        "2001:df7:b200::/48",
        "2400:9300::/32",
        "2400:94e0::/32",
        "2400:bd20::/32",
        "2401:53c0::/32",
        "2401:d540::/32",
        "2401:f680::/32",
        "2402:58c0::/32",
        "2404:2540::/32",
        "2404:6400::/32",
        "2404:f440::/32",
        "2405:9f40::/32",
        "2406:2d40:4c00::/42",
        "2407:1800::/32",
        "2407:3b00::/32",
        "2605:59c7:f0c1::/48",
        "2606:54c0:4ec8::/45",
        "2606:54c0:4ed0::/45",
        "2606:54c3:0:7b3::/64",
        "2606:54c3:0:115a::/64",
        "2606:f4c0:24a0::/44",
        "2607:8940:41a1:fe00::/55",
        "2607:8940:41a2::/56",
        "2a02:26f7:e380:4000::/64",
        "2a02:26f7:e380:cec0::/62",
        "2a02:26f7:e381:4000::/64",
        "2a02:26f7:e384:4000::/64",
        "2a02:26f7:e384:cec0::/62",
        "2a02:26f7:e385:4000::/64",
        "2a02:26f7:e388:4000::/64",
        "2a02:26f7:e388:cec0::/62",
        "2a02:26f7:e389:4000::/64",
        "2a02:26f7:e38c:4000::/64",
        "2a02:26f7:e38c:cec0::/62",
        "2a02:26f7:e38d:4000::/64",
        "2a02:26f7:fb40:4000::/64",
        "2a02:26f7:fb41:4000::/64",
        "2a02:26f7:fb44:4000::/64",
        "2a02:26f7:fb45:4000::/64",
        "2a02:26f7:fb48:4000::/64",
        "2a02:26f7:fb49:4000::/64",
        "2a02:26f7:fb4c:4000::/64",
        "2a02:26f7:fb4d:4000::/64",
        "2a02:5740:157::/48",
        "2a02:5741:157::/48",
        "2a02:5742:157::/48",
        "2a02:5743:157::/48",
        "2a02:5744:157::/48",
        "2a02:5745:157::/48",
        "2a02:5746:157::/48",
        "2a02:5747:157::/48",
        "2a04:4e41:3:1800::/56",
        "2a04:4e41:2a:a::/64",
        "2a04:4e41:2a:1600::/56",
        "2a04:4e41:41:1::/64",
        "2a04:4e41:41:1100::/56",
        "2a04:4e41:59:1800::/56",
        "2a04:4e41:401a:f000::/52",
        "2a04:4e41:402a:f000::/52",
        "2a04:4e41:403a:f000::/52",
        "2a04:4e41:404a:f000::/52",
        "2a04:4e41:405a:f000::/52",
        "2a04:4e41:406a:f000::/52",
        "2a04:4e41:407a:f000::/52",
        "2a04:4e41:408a:f000::/52",
        "2a05:dfc1:5ab8::/48",
        "2a09:bac1:5a00::/64",
        "2a09:bac1:5a00:1420::/64",
        "2a09:bac1:5a20::/64",
        "2a09:bac1:5a20:1420::/64",
        "2a09:bac1:5a40::/64",
        "2a09:bac1:5a40:1420::/64",
        "2a09:bac1:5a60::/64",
        "2a09:bac1:5a60:1420::/64",
        "2a09:bac2:4ec8::/45",
        "2a09:bac2:4ed0::/45",
        "2a09:bac3:4ec8::/45",
        "2a09:bac3:4ed0::/45",
        "2a09:bac4:570::/45",
        "2a09:bac4:1570::/45",
        "2a09:bac5:4f88::/45",
        "2a09:bac5:4f90::/45",
        "2a09:bac6:4f88::/45",
        "2a09:bac6:4f90::/45",
        "2a0a:6044:a142:69b1::/64",
        "2a0a:6044:f230::/45",
        "2a0a:6044:f238::/46",
        "2a0a:6044:f23c::/47",
        "2a0a:6044:f23e::/48",
        "2a0c:3b80:5047::/48",
        "2a0c:3b80:7067::/48",
        "2a0c:9a40:95ba:a000::/52",
        "2a10:500:b900::/40",
        "2a13:3a80::/32",
        "2a14:1c7:5800::/37"
      ]
    }
  ]
}
