{
  "version": 1,
  "rules": [
    {
      "ip_cidr": [
        "5.62.63.137/32",
        "5.62.63.138/31",
        "41.67.0.0/18",
        "41.78.108.0/22",
        "41.95.0.0/16",
        "41.202.160.0/19",
        "41.209.64.0/18",
        "41.218.0.0/18",
        "41.223.160.0/22",
        "41.223.200.0/22",
        "41.240.0.0/15",
        "45.42.149.0/24",
        "45.59.138.0/24",
        "46.36.203.148/30",
        "62.12.96.0/20",
        "66.96.119.64/26",
        "74.118.126.188/30",
        "79.135.105.148/30",
        "85.255.21.160/28",
        "102.22.232.23/32",
        "102.120.0.0/13",
        "102.130.248.0/21",
        "102.143.128.0/17",
        "102.181.0.0/17",
        "102.181.128.0/18",
        "102.181.192.0/19",
        "102.210.236.0/22",
        "102.218.68.0/22",
        "102.218.99.0/24",
        "102.220.152.0/22",
        "104.28.12.210/31",
        "104.28.12.212/32",
        "104.28.60.203/32",
        "104.28.60.204/30",
        "104.28.60.208/32",
        "104.28.80.244/30",
        "104.28.80.248/31",
        "104.28.98.95/32",
        "104.28.98.96/30",
        "104.28.98.100/32",
        "104.28.106.205/32",
        "104.28.106.206/31",
        "104.28.106.208/31",
        "104.28.106.210/32",
        "104.28.130.140/30",
        "104.28.130.144/31",
        "104.28.204.26/31",
        "104.28.204.28/31",
        "104.28.204.30/32",
        "104.28.212.188/30",
        "104.28.212.192/32",
        "104.28.236.26/31",
        "104.28.236.28/31",
        "104.28.236.30/32",
        "104.28.244.188/30",
        "104.28.244.192/32",
        "105.238.0.0/15",
        "136.23.1.166/32",
        "136.23.4.106/32",
        "140.248.37.20/31",
        "140.248.56.195/32",
        "140.248.57.195/32",
        "140.248.58.195/32",
        "140.248.59.195/32",
        "140.248.60.195/32",
        "140.248.61.195/32",
        "140.248.62.195/32",
        "140.248.63.195/32",
        "146.75.166.128/31",
        "146.75.168.168/31",
        "154.96.0.0/13",
        "155.196.0.0/16",
        "163.116.163.164/31",
        "163.116.166.183/32",
        "163.116.166.184/32",
        "172.225.161.176/28",
        "172.225.162.240/28",
        "172.225.227.224/28",
        "194.50.99.197/32",
        "196.1.192.0/18",
        "196.29.160.0/19",
        "196.48.183.0/24",
        "196.49.66.0/24",
        "196.56.183.0/24",
        "196.57.183.0/24",
        "196.58.183.0/24",
        "196.197.183.0/24",
        "196.198.183.0/24",
        "196.199.183.0/24",
        "196.202.128.0/19",
        "196.223.20.0/24",
        "196.223.152.0/21",
        "197.208.0.0/15",
        "197.251.0.0/17",
        "197.252.0.0/16",
        "197.254.192.0/18",
        "212.0.128.0/19",
        "2001:470:d:13b::/64",
        "2001:470:6d:1061::/64",
        "2001:470:1f13:e0b::/64",
        "2001:470:1f1f:33::/64",
        "2001:470:1f27:65::/64",
        "2001:67c:a38:f249::/64",
        "2001:4228::/32",
        "2001:43f8:7f0::/47",
        "2001:43f8:11d0::/48",
        "2602:fd92:b00:105::/64",
        "2602:fd92:b00:177::/64",
        "2606:40:1430::/44",
        "2606:40:1440::/44",
        "2606:54c0:5160::/44",
        "2606:54c3:0:99b::/64",
        "2606:54c3:0:1084::/64",
        "2620:0:876:3600::/56",
        "2a02:26f7:db40:4000::/64",
        "2a02:26f7:db40:cc40::/63",
        "2a02:26f7:db41:4000::/64",
        "2a02:26f7:db44:4000::/64",
        "2a02:26f7:db44:cc40::/63",
        "2a02:26f7:db45:4000::/64",
        "2a02:26f7:db48:4000::/64",
        "2a02:26f7:db48:cc40::/63",
        "2a02:26f7:db49:4000::/64",
        "2a02:5740:183::/48",
        "2a02:5741:183::/48",
        "2a02:5742:183::/48",
        "2a02:5743:183::/48",
        "2a02:5744:183::/48",
        "2a02:5745:183::/48",
        "2a02:5746:183::/48",
        "2a02:5747:183::/48",
        "2a04:4e41:12:40::/64",
        "2a04:4e41:12:2b00::/56",
        "2a04:4e41:14:2b00::/56",
        "2a04:4e41:66:8a::/64",
        "2a04:4e41:66:4500::/56",
        "2a04:4e41:401c:3000::/52",
        "2a04:4e41:402c:3000::/52",
        "2a04:4e41:403c:3000::/52",
        "2a04:4e41:404c:3000::/52",
        "2a04:4e41:405c:3000::/52",
        "2a04:4e41:406c:3000::/52",
        "2a04:4e41:407c:3000::/52",
        "2a04:4e41:408c:3000::/52",
        "2a05:dfc1:5acc::/48",
        "2a09:54c1:105::/48",
        "2a09:54c1:177::/48",
        "2a09:bac1:6400::/64",
        "2a09:bac1:6400:8::/64",
        "2a09:bac1:6420::/64",
        "2a09:bac1:6420:8::/64",
        "2a09:bac1:6440::/64",
        "2a09:bac1:6440:8::/64",
        "2a09:bac1:6460::/64",
        "2a09:bac1:6460:8::/64",
        "2a09:bac2:5160::/44",
        "2a09:bac3:5160::/44",
        "2a09:bac4:610::/45",
        "2a09:bac4:1610::/45",
        "2a09:bac5:5250::/44",
        "2a09:bac6:5250::/44",
        "2a0a:6042:9a00::/40",
        "2a0c:3b80:5344::/48",
        "2a0c:3b80:7364::/48",
        "2a0c:9a40:95bd:1000::/52",
        "2a0c:9e06:105::/48",
        "2a0c:9e06:177::/48",
        "2a10:500:3800::/40",
        "2a10:9007:2:18::/64",
        "2a13:a5c3:d1b0::/46",
        "2a13:b487:502e::/48",
        "2a14:1c3:f000::/37",
        "2c0f:1e40::/32",
        "2c0f:2200::/32",
        "2c0f:f0e0::/32",
        "2c0f:faa0::/29",
        "2c0f:fec8::/32",
        "2c0f:ff28::/32",
        "2c0f:ffb8::/32"
      ]
    }
  ]
}
