{
  "version": 1,
  "rules": [
    {
      "ip_cidr": [
        "5.62.56.237/32",
        "5.62.56.238/31",
        "5.62.58.217/32",
        "5.62.58.218/31",
        "23.94.236.132/31",
        "45.62.191.192/28",
        "45.138.10.84/30",
        "63.130.182.0/23",
        "65.255.48.0/20",
        "104.28.13.61/32",
        "104.28.13.62/31",
        "104.28.50.226/31",
        "104.28.50.228/31",
        "104.28.92.236/32",
        "104.28.197.45/32",
        "104.28.197.46/31",
        "104.28.197.48/31",
        "104.28.229.45/32",
        "104.28.229.46/31",
        "104.28.229.48/31",
        "136.23.9.34/32",
        "136.23.15.34/32",
        "140.248.4.56/31",
        "140.248.44.96/31",
        "140.248.56.213/32",
        "140.248.57.213/32",
        "140.248.58.213/32",
        "140.248.59.213/32",
        "140.248.60.213/32",
        "140.248.61.213/32",
        "140.248.62.213/32",
        "140.248.63.213/32",
        "142.54.204.0/22",
        "146.75.248.12/31",
        "157.5.67.153/32",
        "157.5.67.154/32",
        "157.5.91.152/31",
        "162.120.199.177/32",
        "162.120.202.228/32",
        "162.212.12.0/24",
        "163.116.250.118/31",
        "172.225.239.80/28",
        "172.225.250.160/27",
        "172.226.78.96/28",
        "172.226.84.96/28",
        "173.225.254.122/32",
        "175.45.181.153/32",
        "192.203.37.0/24",
        "194.50.99.215/32",
        "199.103.28.0/22",
        "199.182.192.0/23",
        "199.182.194.0/24",
        "200.50.89.0/24",
        "200.50.90.0/24",
        "204.13.104.0/22",
        "204.110.56.0/21",
        "205.214.195.0/24",
        "205.214.199.0/24",
        "207.254.138.0/24",
        "207.254.140.0/22",
        "208.138.41.0/24",
        "208.138.44.0/24",
        "208.169.70.0/23",
        "209.236.48.0/22",
        "209.236.52.0/23",
        "2001:470:1f13:5c2::/64",
        "2602:ff48::/36",
        "2604:a180:5000::/36",
        "2604:a180:a000::/35",
        "2606:40:1a90::/44",
        "2606:40:1aa0::/44",
        "2606:40:20f6:2000::/51",
        "2606:40:214c:8000::/51",
        "2606:54c0:55a8::/45",
        "2606:54c3:0:1663::/64",
        "2607:8940:4023:9900::/56",
        "2607:8940:4023:9a00::/56",
        "2607:8940:4143:9800::/55",
        "2a02:26f7:f740:4000::/64",
        "2a02:26f7:f740:c820::/64",
        "2a02:26f7:f741:4000::/64",
        "2a02:26f7:f742:4000::/64",
        "2a02:26f7:f744:4000::/64",
        "2a02:26f7:f744:c820::/64",
        "2a02:26f7:f745:4000::/64",
        "2a02:26f7:f74c:4000::/64",
        "2a02:26f7:f74c:c820::/64",
        "2a02:26f7:f750:4000::/64",
        "2a02:26f7:f750:c820::/64",
        "2a02:26f7:f751:4000::/64",
        "2a04:4e41:7:1400::/56",
        "2a04:4e41:16:3200::/56",
        "2a04:4e41:51:2300::/56",
        "2a04:4e41:401d:5000::/52",
        "2a04:4e41:402d:5000::/52",
        "2a04:4e41:403d:5000::/52",
        "2a04:4e41:404d:5000::/52",
        "2a04:4e41:405d:5000::/52",
        "2a04:4e41:406d:5000::/52",
        "2a04:4e41:407d:5000::/52",
        "2a04:4e41:408d:5000::/52",
        "2a05:dfc1:5adf::/48",
        "2a09:bac1:6d00::/64",
        "2a09:bac1:6d20::/64",
        "2a09:bac1:6d40::/64",
        "2a09:bac1:6d60::/64",
        "2a09:bac2:55a8::/45",
        "2a09:bac3:55a8::/45",
        "2a09:bac4:6a0::/45",
        "2a09:bac4:16a0::/45",
        "2a09:bac5:5698::/45",
        "2a09:bac6:5698::/45",
        "2a0a:6044:66c9::/48",
        "2a0a:6044:66ca::/47",
        "2a0a:6044:66cc::/46",
        "2a0a:6044:66d0::/45",
        "2a0a:6044:f6c9::/48",
        "2a0a:6044:f6ca::/47",
        "2a0a:6044:f6cc::/46",
        "2a0a:6044:f6d0::/45",
        "2a0c:3b80:5443::/48",
        "2a0c:3b80:7463::/48",
        "2a0c:9a40:95be:3000::/52",
        "2a14:1c2:3800::/37"
      ]
    }
  ]
}
