{
  "version": 1,
  "rules": [
    {
      "ip_cidr": [
        "14.1.71.0/24",
        "43.243.120.0/22",
        "43.243.176.0/22",
        "43.254.56.0/22",
        "45.115.72.0/22",
        "46.36.203.140/30",
        "59.153.132.0/22",
        "103.26.95.0/24",
        "103.30.112.0/22",
        "103.55.48.0/22",
        "103.94.180.0/22",
        "103.99.26.0/24",
        "103.112.36.0/22",
        "103.143.164.0/23",
        "103.148.184.0/23",
        "103.150.74.178/32",
        "103.175.148.0/24",
        "103.176.12.0/23",
        "103.176.215.0/24",
        "103.193.252.0/23",
        "103.193.254.0/24",
        "103.198.176.0/22",
        "103.208.36.0/22",
        "103.231.123.0/24",
        "103.236.128.0/23",
        "103.238.116.0/22",
        "104.28.13.94/31",
        "104.28.13.96/32",
        "104.28.28.97/32",
        "104.28.28.98/32",
        "104.28.35.94/31",
        "104.28.44.173/32",
        "104.28.44.174/32",
        "104.28.68.122/31",
        "104.28.71.122/31",
        "104.28.119.100/31",
        "104.28.122.100/31",
        "104.28.208.199/32",
        "104.28.208.200/30",
        "104.28.208.204/31",
        "104.28.208.206/32",
        "104.28.240.199/32",
        "104.28.240.200/30",
        "104.28.240.204/31",
        "104.28.240.206/32",
        "140.248.24.90/31",
        "140.248.41.90/31",
        "140.248.48.38/31",
        "140.248.56.220/32",
        "140.248.57.220/32",
        "140.248.58.220/32",
        "140.248.59.220/32",
        "140.248.60.220/32",
        "140.248.61.220/32",
        "140.248.62.220/32",
        "140.248.63.220/32",
        "146.75.160.146/31",
        "150.242.108.0/22",
        "154.18.202.0/23",
        "157.5.115.12/31",
        "157.167.30.0/24",
        "160.22.52.0/23",
        "160.30.30.0/23",
        "172.225.77.224/27",
        "172.225.114.48/28",
        "172.225.180.208/28",
        "172.225.211.64/28",
        "172.226.46.128/26",
        "180.189.160.0/20",
        "185.126.46.0/23",
        "185.242.38.0/23",
        "194.50.99.222/32",
        "196.48.79.0/24",
        "196.56.79.0/24",
        "196.57.79.0/24",
        "196.58.79.0/24",
        "196.197.79.0/24",
        "196.198.79.0/24",
        "196.199.79.0/24",
        "2001:470:26:7cb::/64",
        "2001:470:6d:1194::/64",
        "2001:470:1f09:11c::/64",
        "2001:470:688b::/48",
        "2001:67c:a38:f670::/64",
        "2001:df0:840::/48",
        "2001:df0:7a00::/48",
        "2001:df0:f980::/48",
        "2001:df7:f980::/48",
        "2401:1560::/32",
        "2401:4b80::/32",
        "2401:b660::/32",
        "2402:d080::/32",
        "2405:1f00::/32",
        "2405:d540::/32",
        "2406:2d40:4c40::/42",
        "2407:f2c0::/32",
        "2606:54c0:5788::/45",
        "2606:54c3:0:c71::/64",
        "2607:8940:41a3:c00::/55",
        "2a02:26f7:c600:4000::/64",
        "2a02:26f7:c600:c8a0::/64",
        "2a02:26f7:c601:4000::/64",
        "2a02:26f7:c602:4000::/64",
        "2a02:26f7:c602:c8a0::/64",
        "2a02:26f7:c603:4000::/64",
        "2a02:26f7:c604:4000::/64",
        "2a02:26f7:c604:c8a0::/64",
        "2a02:26f7:c605:4000::/64",
        "2a02:26f7:c608:4000::/64",
        "2a02:26f7:c608:c8a0::/64",
        "2a02:26f7:c609:4000::/64",
        "2a02:26f7:c609:c8a0::/64",
        "2a02:26f7:c60a:4000::/64",
        "2a02:26f7:c60b:4000::/64",
        "2a02:5740:79::/48",
        "2a02:5741:79::/48",
        "2a02:5742:79::/48",
        "2a02:5743:79::/48",
        "2a02:5744:79::/48",
        "2a02:5745:79::/48",
        "2a02:5746:79::/48",
        "2a02:5747:79::/48",
        "2a04:4e41:e:1d00::/56",
        "2a04:4e41:f:3500::/56",
        "2a04:4e41:13:2d::/64",
        "2a04:4e41:13:2500::/56",
        "2a04:4e41:5d:2d::/64",
        "2a04:4e41:5d:2500::/56",
        "2a04:4e41:401d:c000::/52",
        "2a04:4e41:402d:c000::/52",
        "2a04:4e41:403d:c000::/52",
        "2a04:4e41:404d:c000::/52",
        "2a04:4e41:405d:c000::/52",
        "2a04:4e41:406d:c000::/52",
        "2a04:4e41:407d:c000::/52",
        "2a04:4e41:408d:c000::/52",
        "2a05:dfc1:5a09::/48",
        "2a09:bac1:7080::/64",
        "2a09:bac1:70a0::/64",
        "2a09:bac1:70c0::/64",
        "2a09:bac1:70e0::/64",
        "2a09:bac2:5788::/45",
        "2a09:bac3:5788::/45",
        "2a09:bac4:6d8::/45",
        "2a09:bac4:16d8::/45",
        "2a09:bac5:5878::/45",
        "2a09:bac6:5878::/45",
        "2a0a:6044:6334::/46",
        "2a0a:6044:6338::/45",
        "2a0a:6044:6340::/47",
        "2a0a:6044:6342::/48",
        "2a0a:6044:f334::/46",
        "2a0a:6044:f338::/45",
        "2a0a:6044:f340::/47",
        "2a0a:6044:f342::/48",
        "2a0c:3b80:544c::/48",
        "2a0c:3b80:746c::/48",
        "2a0c:9a40:95bd:b000::/52",
        "2a0f:7803:feda::/48",
        "2a10:500:4700::/40",
        "2a13:a5c3:d4b0::/46",
        "2a13:b487:500a::/48",
        "2a14:1c0:800::/37"
      ]
    }
  ]
}
