{
  "version": 1,
  "rules": [
    {
      "domain": "hammerandchisel.ssl.zendesk.com",
      "domain_suffix": [
        "intercom.com",
        "intercom.io",
        "intercomassets.com",
        "intercomcdn.com",
        "fbmessenger.com",
        "m.me",
        "messenger.com",
        "nbabot.net",
        "signal.art",
        "signal.org",
        "signalusers.org",
        "whispersystems.org",
        "keybase.io",
        "keybaseapi.com",
        "linemobile.com",
        "lineshoppingseller.com",
        "line-apps-beta.com",
        "line-apps-rc.com",
        "line-apps.com",
        "line-beta.me",
        "line-cdn.net",
        "line.biz",
        "nhncorp.jp",
        "lin.ee",
        "line-scdn.net",
        "linecorp.com",
        "linefriends.com",
        "linetv.tw",
        "linegame.jp",
        "gcld-line.com",
        "linemyshop.com",
        "line.me",
        "arewereadyyet.com",
        "element.io",
        "matrix.org",
        "matrix.to",
        "modular.im",
        "riot.im",
        "vector.im",
        "slack-core.com",
        "slack-edge.com",
        "slack-files.com",
        "slack-imgs.com",
        "slack-msgs.com",
        "slack-redir.net",
        "slack.com",
        "slackb.com",
        "slackcertified.com",
        "slackdemo.com",
        "slackhq.com",
        "cdn-telegram.org",
        "comments.app",
        "contest.com",
        "fragment.com",
        "graph.org",
        "quiz.directory",
        "t.me",
        "tdesktop.com",
        "telega.one",
        "telegra.ph",
        "telegram-cdn.org",
        "telegram.dog",
        "telegram.me",
        "telegram.org",
        "telegram.space",
        "telesco.pe",
        "tg.dev",
        "tx.me",
        "usercontent.dev",
        "clubhouse.com",
        "clubhouseapi.com",
        "joinclubhouse.com",
        "dis.gd",
        "discord.co",
        "discord.com",
        "discord.design",
        "discord.dev",
        "discord.gg",
        "discord.gift",
        "discord.gifts",
        "discord.media",
        "discord.new",
        "discord.store",
        "discord.tools",
        "discord-activities.com",
        "discordactivities.com",
        "discordapp.com",
        "discordapp.net",
        "discordmerch.com",
        "discordpartygames.com",
        "discordsays.com",
        "discordstatus.com",
        "airhorn.solutions",
        "airhornbot.com",
        "bigbeans.solutions",
        "watchanimeattheoffice.com",
        "discordapp.io",
        "discordcdn.com",
        "freenode.net",
        "wa.me",
        "whatsapp-plus.info",
        "whatsapp-plus.me",
        "whatsapp-plus.net",
        "whatsapp.cc",
        "whatsapp.com",
        "whatsapp.info",
        "whatsapp.net",
        "whatsapp.org",
        "whatsapp.tv",
        "whatsappbrand.com",
        "linefriends.com.tw",
        "line.naver.jp",
        "graph.whatsapp.com",
        "graph.whatsapp.net"
      ]
    }
  ]
}
