{
  "version": 1,
  "rules": [
    {
      "domain": [
        "apilog-web.acfun.cn",
        "log-sdk.gifshow.com",
        "wlog.kuaishou.com",
        "e8aeb8bbdbbd7.cdn.sohucs.com",
        "643108e7617ef.cdn.sohucs.com",
        "analytics.google.com",
        "adeventtracker.spotify.com",
        "adstudio-assets.scdn.co",
        "bloodhound.spotify.com"
      ],
      "domain_suffix": [
        "applovin.com",
        "applvn.com",
        "mlog.hiido.com",
        "ylog.hiido.com",
        "a.ckm.iqiyi.com",
        "ad.m.iqiyi.com",
        "afp.iqiyi.com",
        "c.uaa.iqiyi.com",
        "cloudpush.iqiyi.com",
        "cm.passport.iqiyi.com",
        "cupid.iqiyi.com",
        "emoticon.sns.iqiyi.com",
        "gamecenter.iqiyi.com",
        "hotchat-im.iqiyi.com",
        "ifacelog.iqiyi.com",
        "mbdlog.iqiyi.com",
        "msg.71.am",
        "msg.video.qiyi.com",
        "msg2.video.qiyi.com",
        "policy.video.iqiyi.com",
        "yuedu.iqiyi.com",
        "mopub.com",
        "collector.xhamster.com",
        "onesignal.com",
        "analytics.163.com",
        "crash.163.com",
        "crashlytics.163.com",
        "g.163.com",
        "openx.net",
        "openxadexchange.com",
        "openxcdn.net",
        "openxenterprise.com",
        "openxmarket.asia",
        "fenxi.com",
        "lianmeng.360.cn",
        "mediav.com",
        "mvad.com",
        "qhupdate.com",
        "s.360.cn",
        "s.so.360.cn",
        "s.union.360.cn",
        "static.sensorsdata.cn",
        "ad.qq.com",
        "ad.qun.qq.com",
        "adfilter.imtt.qq.com",
        "adping.qq.com",
        "adpm.app.qq.com",
        "adsclick.qq.com",
        "adsfile.qq.com",
        "adshmmsg.qq.com",
        "adslvfile.qq.com",
        "adslvseed.qq.com",
        "adsmind.apdcdn.tc.qq.com",
        "adsqqclick.qq.com",
        "adstestview.qq.com",
        "adsview.qq.com",
        "adsview2.qq.com",
        "adv.app.qq.com",
        "adver.qq.com",
        "beacon.qq.com",
        "beaconcdn.qq.com",
        "btrace.qq.com",
        "e.qq.com",
        "gdt.qq.com",
        "isdspeed.qq.com",
        "log.tbs.qq.com",
        "mpush.qq.com",
        "mtrace.qq.com",
        "pgdt.gtimg.cn",
        "pingjs.qq.com",
        "push.qq.com",
        "sngmta.qq.com",
        "stat.y.qq.com",
        "tajs.qq.com",
        "tcss.qq.com",
        "trace.qq.com",
        "ugdtimg.com",
        "wit.qq.com",
        "uberads.com",
        "static.hotjar.com",
        "data.flurry.com",
        "a.market.xiaomi.com",
        "ad.intl.xiaomi.com",
        "ad.mi.com",
        "ad.xiaomi.com",
        "ad1.xiaomi.com",
        "admob.xiaomi.com",
        "adv.sec.intl.miui.com",
        "adv.sec.miui.com",
        "misc.in.duokanbox.com",
        "mistat.xiaomi.com",
        "sentry.d.mi.com",
        "sentry.d.xiaomi.net",
        "tjqonline.cn",
        "tracker.ai.xiaomi.com",
        "tracking.miui.com",
        "ad.games.dmm.com",
        "bluekai.com",
        "fout.jp",
        "gmossp-sp.jp",
        "i-mobile.co.jp",
        "im-apps.net",
        "impact-ad.jp",
        "ladsp.com",
        "microad.co.jp",
        "microad.jp",
        "socdm.com",
        "actives.youku.com",
        "ad.api.3g.youku.com",
        "ad.api.mobile.youku.com",
        "ad.mobile.youku.com",
        "a-dxk.play.api.3g.youku.com",
        "atm.youku.com",
        "b.smartvideo.youku.com",
        "c.yes.youku.com",
        "das.api.youku.com",
        "das.mobile.youku.com",
        "dev-push.m.youku.com",
        "dl.g.youku.com",
        "dmapp.youku.com",
        "e.stat.ykimg.com",
        "gamex.mobile.youku.com",
        "guanggaoad.youku.com",
        "huodong.vip.youku.com",
        "hz.youku.com",
        "iyes.youku.com",
        "l.ykimg.com",
        "lstat.youku.com",
        "mobilemsg.youku.com",
        "msg.youku.com",
        "myes.youku.com",
        "p.l.youku.com",
        "pl.youku.com",
        "passport-log.youku.com",
        "p-log.ykimg.com",
        "push.m.youku.com",
        "r.l.youku.com",
        "s.p.youku.com",
        "sdk.m.youku.com",
        "stat.youku.com",
        "statis.api.3g.youku.com",
        "store.tv.api.3g.youku.com",
        "store.xl.api.3g.youku.com",
        "tdrec.youku.com",
        "test.ott.youku.com",
        "v.l.youku.com",
        "val.api.youku.com",
        "wan.youku.com",
        "ykatr.youku.com",
        "ykrec.youku.com",
        "alog.umeng.com",
        "alog.umengcloud.com",
        "w.cnzz.com",
        "z.gds.cnzz.com",
        "assets.growingio.com",
        "cdn.pocoiq.cn",
        "oct.pocoiq.cn",
        "ads.unitychina.cn",
        "splash-ads.cdn.unity.cn",
        "splash-ads.unitychina.cn",
        "unityads.unity.cn",
        "unityads.unity3d.com",
        "unityads.unitychina.cn",
        "a.alimama.cn",
        "acjs.aliyun.com",
        "adash-c.m.taobao.com",
        "adash-c.ut.taobao.com",
        "adash-emas.cn-hangzhou.aliyuncs.com",
        "adash.m.taobao.com",
        "adash.man.aliyuncs.com",
        "adashbc.m.taobao.com",
        "adashbc.ut.taobao.com",
        "adashx.m.taobao.com",
        "adashx.ut.amap.com",
        "adashx.ut.ele.me",
        "adashx.ut.youku.com",
        "adashx4ae.ut.taobao.com",
        "adashx4yt.m.taobao.com",
        "adashxgc.ut.taobao.com",
        "adsh.m.taobao.com",
        "afp.adchina.com",
        "afp.alicdn.com",
        "agoodm.m.taobao.com",
        "agoodm.wapa.taobao.com",
        "alipaylog.com",
        "amdc.alipay.com",
        "api.wapa.taobao.com",
        "api.waptest.taobao.com",
        "apoll.m.taobao.com",
        "atanx.alicdn.com",
        "atanx2.alicdn.com",
        "c-adash.m.taobao.com",
        "cdn0.mobmore.com",
        "click.aliyun.com",
        "click.mz.simba.taobao.com",
        "cm.ipinyou.com",
        "dsp.simba.taobao.com",
        "ex.mobmore.com",
        "ex.puata.info",
        "fav.simba.taobao.com",
        "feedback.whalecloud.com",
        "ff.win.taobao.com",
        "fm.p0y.cn",
        "g.click.taobao.com",
        "g.tbcdn.cn",
        "gma.alicdn.com",
        "gtms01.alicdn.com",
        "gtms02.alicdn.com",
        "gtms03.alicdn.com",
        "gtms04.alicdn.com",
        "h-adashx.ut.ele.me",
        "h-adashx.ut.taobao.com",
        "h-adashx.ut.youku.com",
        "h-adashx4yt.ut.taobao.com",
        "hydra.alibaba.com",
        "hz.pre.tbusergw.taobao.net",
        "hz.tbusergw.taobao.net",
        "i.ipinyou.com",
        "init.phpwind.com",
        "intl.wapa.taobao.com",
        "intl.waptest.taobao.com",
        "jxlog.istreamsche.com",
        "log.umtrack.com",
        "m-adash.m.taobao.com",
        "m.intl.taobao.com",
        "m.simba.taobao.com",
        "match.p4p.1688.com",
        "material.istreamsche.com",
        "mlt01.com",
        "nbsdk-baichuan.alicdn.com",
        "nbsdk-baichuan.taobao.com",
        "osfota.cdn.aliyun.com",
        "osupdate.aliyun.com",
        "osupdateservice.yunos.com",
        "pindao.huoban.taobao.com",
        "push.wandoujia.com",
        "re.m.taobao.com",
        "re.taobao.com",
        "redirect.simba.taobao.com",
        "rj.m.taobao.co",
        "rj.m.taobao.com",
        "sdkinit.taobao.com",
        "simaba.taobao.com",
        "simba.m.taobao.com",
        "srd.simba.taobao.com",
        "stats.ipinyou.com",
        "strip.taobaocdn.com",
        "tanxlog.istreamsche.com",
        "tejia.taobao.com",
        "temai.taobao.com",
        "tns.simba.taobao.com",
        "tongji.linezing.com",
        "tvupgrade.yunos.com",
        "tyh.taobao.com",
        "userimg.qunar.com",
        "v6-adashx.ut.amap.com",
        "v6-adashx.ut.cainiao.com",
        "v6-adashx.ut.ele.me",
        "v6-adashx.ut.taobao.com",
        "w.m.taobao.com",
        "yiliao.hupan.com",
        "evt.mxplay.com",
        "ad.hpplay.cn",
        "adeng.hpplay.cn",
        "ads-uo.api.leiniao.com",
        "ads-ut.api.leiniao.com",
        "ads.api.my7v.com",
        "ads.huan.tv",
        "ads.huantest.com",
        "advapi.joyplus.tv",
        "advapikj.joyplus.tv",
        "euads-o.api.leiniao.com",
        "hwads-t.api.my7v.com",
        "kuyun.com",
        "testads.api.my7v.com",
        "emogi.com",
        "bds.snssdk.com",
        "ctobsnssdk.com",
        "dig.bdurl.net",
        "extlog.snssdk.com",
        "i.snssdk.com",
        "mcs.snssdk.com",
        "pangolin-dsp-toutiao-b.com",
        "pangolin-dsp-toutiao.com",
        "pangolin-sdk-toutiao-b.com",
        "pangolin-sdk-toutiao.com",
        "pangolin-sdk-toutiao1.com",
        "pangolin.snssdk.com",
        "panplayable-toutiao-b.com",
        "panplayable-toutiao.com",
        "pglstatp-sdk-toutiao.com",
        "pglstatp-snssdk-toutiao.com",
        "pglstatp-toutiao-b.com",
        "pglstatp-toutiao.com",
        "sf3-ttcdn-tos.pstatp.com",
        "x.clearbitjs.com",
        "2016.sina.cn",
        "ad.sina.com.cn",
        "adbox.sina.com.cn",
        "adimages.sina.com.hk",
        "adimg.mobile.sina.cn",
        "adimg.uve.weibo.com",
        "adm.leju.sina.com.cn",
        "ads.sina.com",
        "alitui.weibo.com",
        "api.apps.sina.cn",
        "appgift.sinaapp.com",
        "appsupdate.sinaapp.com",
        "atm.sina.com",
        "beacon.sina.com.cn",
        "biz.weibo.com",
        "click.uve.mobile.sina.cn",
        "click.uve.weibo.com",
        "contentrecommend-out.mobile.sina.cn",
        "count.video.sina.com.cn",
        "counter.sina.com.cn",
        "cre.dp.sina.cn",
        "cre-dp.sina.cn",
        "d00.sina.com.cn",
        "dcads.sina.com.cn",
        "dl.kjava.sina.cn",
        "dmp.sina.cn",
        "dp.im.weibo.cn",
        "game.weibo.cn",
        "game.weibo.com",
        "gw5.push.mcp.weibo.cn",
        "gw6.push.mcp.weibo.cn",
        "int.dpool.sina.com.cn",
        "interest.mix.sina.com.cn",
        "log.mix.sina.com.cn",
        "log.sina.cn",
        "mg.games.sina.com.cn",
        "newspush.sinajs.cn",
        "oascentral.sina.com",
        "oascentral.sina.com.hk",
        "p4p.sina.com.cn",
        "palmnews.sina.cn",
        "pay.mobile.sina.cn",
        "pfp.sina.com.cn",
        "pfpip.sina.com",
        "promote.biz.weibo.cn",
        "rm.sina.com.cn",
        "rs.sinajs.cn",
        "s.img.mix.sina.com.cn",
        "sapi.sina.cn",
        "sax.sina.cn",
        "sax.sina.com.cn",
        "saxn.sina.com.cn",
        "saxs.sina.com.cn",
        "sbeacon.sina.com.cn",
        "sdkapp.mobile.sina.cn",
        "sdkapp.uve.weibo.com",
        "sdkclick.mobile.sina.cn",
        "slog.sina.cn",
        "slog.sina.com.cn",
        "staticadm.leju.sina.com.cn",
        "tjs.sjs.sinajs.cn",
        "trends.mobile.sina.cn",
        "u1.img.mobile.sina.cn",
        "wapwbclick.mobile.sina.cn",
        "wbapp.mobile.sina.cn",
        "wbapp.uve.weibo.com",
        "wbclick.mobile.sina.cn",
        "wbpctips.mobile.sina.cn",
        "widget.weibo.com",
        "woocall.sina.com.cn",
        "zymo.mps.weibo.com",
        "supersonic.com",
        "supersonicads.com",
        "ssacdn.com",
        "supersonicads-a.akamaihd.net",
        "ssp.api.tappx.com",
        "ads.yahoo.com",
        "gemini.yahoo.com",
        "ysm.yahoo.com",
        "amazon-adsystem.com",
        "serving-sys.com",
        "atom-data.io",
        "analytics-data.io",
        "ironbeast.io",
        "leanplum.com",
        "api.game.letvstore.com",
        "ark.letv.com",
        "dc.letv.com",
        "fz.letv.com",
        "g3.letv.com",
        "letv.allyes.com",
        "minisite.letv.com",
        "msg.m.letv.com",
        "n.mark.letv.com",
        "pro.hoye.letv.com",
        "pro.letv.com",
        "stat.letv.com",
        "static.app.m.letv.com",
        "cdn.segment.com",
        "adnet.sohu.com",
        "ads.sohu.com",
        "adv-sv-show.focus.cn",
        "aty.sohu.com",
        "data.vod.itc.cn",
        "epro.sogou.com",
        "go.sohu.com",
        "golden1.sogou.com",
        "imp.optaim.com",
        "inte.sogou.com",
        "inte.sogoucdn.com",
        "lu.sogoucdn.com",
        "pv.sohu.com",
        "theta.sogoucdn.com",
        "track.sohu.com",
        "uranus.sogou.com",
        "v2.reachmax.cn",
        "adbehavior.ximalaya.com",
        "adse.wsa.ximalaya.com",
        "adse.ximalaya.com",
        "api-adservices.apple.com",
        "iadsdk.apple.com",
        "iad.apple.com",
        "qwapi.com",
        "2mdn-cn.net",
        "2mdn.net",
        "admob-cn.com",
        "admob.com",
        "ads.youtube.com",
        "adsense.com",
        "adsensecustomsearchads.com",
        "adsenseformobileapps.com",
        "adservice.google.com",
        "advertisercommunity.com",
        "advertiserscommunity.com",
        "adwords-community.com",
        "adwords.com",
        "adwordsexpress.com",
        "app-measurement-cn.com",
        "app-measurement.com",
        "doubleclick-cn.net",
        "doubleclick.cn",
        "doubleclick.com",
        "doubleclick.net",
        "google-analytics-cn.com",
        "google-analytics.com",
        "googleadapis.com",
        "googleads-cn.com",
        "googleads.com",
        "googleadservices-cn.com",
        "googleadservices.com",
        "googleadsserving.cn",
        "googleanalytics.com",
        "googleoptimize-cn.com",
        "googleoptimize.com",
        "googlesyndication-cn.com",
        "googlesyndication.com",
        "googletagmanager-cn.com",
        "googletagmanager.com",
        "googletagservices-cn.com",
        "googletagservices.com",
        "googletraveladservices-cn.com",
        "googletraveladservices.com",
        "googlevads-cn.com",
        "mail-ads.google.com",
        "marketingplatform.google.com",
        "urchin.com",
        "js-agent.newrelic.com",
        "adjust.com",
        "click.hunantv.com",
        "da.hunantv.com",
        "da.mgtv.com",
        "log.hunantv.com",
        "log.v2.hunantv.com",
        "res.hunantv.com",
        "decide.mixpanel.com",
        "ads.pubmatic.com",
        "a.baidu.com",
        "ad.duapps.com",
        "ad.player.baidu.com",
        "adm.baidu.com",
        "adscdn.baidu.com",
        "adx.xiaodutv.com",
        "ae.bdstatic.com",
        "afd.baidu.com",
        "als.baidu.com",
        "api.mobula.sdk.duapps.com",
        "api.tuisong.baidu.com",
        "appc.baidu.com",
        "b.bdstatic.com",
        "baichuan.baidu.com",
        "baidustatic.com",
        "baidutv.baidu.com",
        "banlv.baidu.com",
        "bar.baidu.com",
        "bdplus.baidu.com",
        "btlaunch.baidu.com",
        "c.baidu.com",
        "cb.baidu.com",
        "cbjs.baidu.com",
        "cjhq.baidu.com",
        "cleaner.baidu.com",
        "click.bes.baidu.com",
        "click.qianqian.com",
        "cm.baidu.com",
        "cpro.baidu.cn",
        "cpro.baidu.com",
        "cpro.baidustatic.com",
        "cpro.tieba.baidu.com",
        "cpro.zhidao.baidu.com",
        "cpro2.baidu.com",
        "cpro2.baidustatic.com",
        "cpu.baidu.com",
        "crs.baidu.com",
        "cstm.baidu.com",
        "datax.baidu.com",
        "dd713.bj.bcebos.com",
        "dl.client.baidu.com",
        "dl.ops.baidu.com",
        "dl1sw.baidu.com",
        "dl2.bav.baidu.com",
        "dlsw.baidu.com",
        "dlsw.br.baidu.com",
        "dlswbr.baidu.com",
        "dl-vip.bav.baidu.com",
        "dl-vip.pcfaster.baidu.co.th",
        "download.bav.baidu.com",
        "download.sd.baidu.com",
        "drmcmm.baidu.com",
        "duiwai.baidu.com",
        "dup.baidustatic.com",
        "dxp.baidu.com",
        "dzl.baidu.com",
        "e.baidu.com",
        "eclick.baidu.com",
        "ecma.bdimg.com",
        "ecmb.bdimg.com",
        "ecmc.bdimg.com",
        "eduad.baidu.com",
        "eiv.baidu.com",
        "em.baidu.com",
        "entry.baidu.com",
        "ers.baidu.com",
        "f10.baidu.com",
        "fc-feed.cdn.bcebos.com",
        "fclick.baidu.com",
        "fclog.baidu.com",
        "feed.baidu.com",
        "g.baidu.com",
        "gimg.baidu.com",
        "goutong.baidu.com",
        "gsp1.baidu.com",
        "guanjia.baidu.com",
        "hao123union.baidu.com",
        "hc.baidu.com",
        "hm.baidu.com",
        "hmma.baidu.com",
        "hpd.baidu.com",
        "idm.bce.baidu.com",
        "idm-su.baidu.com",
        "iebar.baidu.com",
        "ikcode.baidu.com",
        "img.taotaosou.cn",
        "img01.taotaosou.cn",
        "imgstat.baidu.com",
        "iwanad.baidu.com",
        "j.br.baidu.com",
        "kstj.baidu.com",
        "log.music.baidu.com",
        "lxbjs.baidu.com",
        "m1.baidu.com",
        "ma.baidu.com",
        "miao.baidu.com",
        "mobads.baidu.com",
        "mobads-logs.baidu.com",
        "mpro.baidu.com",
        "msite.baidu.com",
        "neirong.baidu.com",
        "nsclick.baidu.com",
        "nsclickvideo.baidu.com",
        "openrcv.baidu.com",
        "pc.videoclick.baidu.com",
        "pos.baidu.com",
        "pups.bdimg.com",
        "push.zhanzhang.baidu.com",
        "qianclick.baidu.com",
        "release.baidu.com",
        "res.mi.baidu.com",
        "rigel.baidustatic.com",
        "river.zhidao.baidu.com",
        "rj.baidu.com",
        "rplog.baidu.com",
        "s.baidu.com",
        "sa.tuisong.baidu.com",
        "sclick.baidu.com",
        "sestat.baidu.com",
        "shadu.baidu.com",
        "share.baidu.com",
        "sobar.baidu.com",
        "sobartop.baidu.com",
        "spcode.baidu.com",
        "stat.v.baidu.com",
        "su.bdimg.com",
        "su.bdstatic.com",
        "tk.baidu.com",
        "tkweb.baidu.com",
        "tob-cms.bj.bcebos.com",
        "tongji.baidu.com",
        "toolbar.baidu.com",
        "tracker.baidu.com",
        "tuijian.baidu.com",
        "uat1.bfsspadserver.8le8le.com",
        "ubmcmm.baidustatic.com",
        "ucstat.baidu.com",
        "ulic.baidu.com",
        "ulog.imap.baidu.com",
        "union.baidu.com",
        "unionimage.baidu.com",
        "utility.baidu.com",
        "utk.baidu.com",
        "videopush.baidu.com",
        "vv84.bj.bcebos.com",
        "w.gdown.baidu.com",
        "w.x.baidu.com",
        "wangmeng.baidu.com",
        "weishi.baidu.com",
        "wenku-cms.bj.bcebos.com",
        "wisepush.video.baidu.com",
        "wkctj.baidu.com",
        "wm.baidu.com",
        "znsv.baidu.com",
        "zz.bdstatic.com",
        "zzy1.quyaoya.com",
        "ads.wteam.xyz",
        "adcolony.com",
        "ads.service.kugou.com",
        "adserviceretry.kglink.cn",
        "adserviceretry.kugou.com",
        "ads-api.duolingo.com",
        "metrics.duolingo.com",
        "analytics.vpc.duolingo.com",
        "g1.tagtic.cn",
        "xy-log.tagtic.cn",
        "advertising.adobe.com",
        "tubemogul.com",
        "ads.union.jd.com",
        "c-nfa.jd.com",
        "cps.360buy.com",
        "jzt.jd.com",
        "stat.m.jd.com",
        "img-x.jd.com",
        "ogury.com",
        "presage.io",
        "ogury.co",
        "zynga.com",
        "zyngaplayersupport.com",
        "inner-active.mobi"
      ],
      "domain_regex": [
        "^adservice\\.google\\.([a-z]{2}|com?)(\\.[a-z]{2})?$",
        "^speed\\.(coe|open)\\.ad\\.[a-z]{2,6}\\.prod\\.hosts\\.ooklaserver\\.net$"
      ]
    }
  ]
}
