{
  "version": 1,
  "rules": [
    {
      "domain_suffix": [
        "ir",
        "xn--mgba3a4f16a",
        "xn--mgba3a4fra",
        "snapptrip.com",
        "loxblog.com",
        "niniweblog.com",
        "rozblog.com",
        "neshan.org",
        "varzesh3.com",
        "signalpardazgroup.com",
        "tgju.org",
        "karnameh.com",
        "khodro45.com",
        "saipacorp.com",
        "jobinja.com",
        "jobinjacdn.com",
        "beytoote.com",
        "setare.com",
        "tebyan.net",
        "mellatbroker.com",
        "ok-ex.io",
        "talarebourse.com",
        "abanbroker.com",
        "bahmanbroker.com",
        "bkisecurities.com",
        "bt-broker.com",
        "danabroker.com",
        "emofid.com",
        "mofidonline.com",
        "etminansahm.com",
        "hafezbourse.com",
        "irfarabi.com",
        "bmibourse.com",
        "bourseiness.com",
        "sdbhouse.com",
        "novinbourse.com",
        "oibroker.com",
        "omidsahm.com",
        "saderatbourse.com",
        "sahandbroker.com",
        "samanbourse.com",
        "arman-ati.com",
        "sepahbourse.com",
        "tadbirgar.com",
        "abantether.com",
        "bit24.cash",
        "exir.io",
        "farhad-exchange.com",
        "jibitex.com",
        "maskanbourse.com",
        "ompfinex.com",
        "ramzinex.com",
        "tabdeal.org",
        "tetherland.com",
        "agri-bank.com",
        "ansarbank.com",
        "blubank.com",
        "hibank24.com",
        "parsian-bank.com",
        "sb24.com",
        "faradars.org",
        "toplearn.com",
        "iranlms.org",
        "webinarplus.online",
        "quera.org",
        "abrha.net",
        "afranet.com",
        "arvancloud.com",
        "arzex.io",
        "cafebazaar.org",
        "datisnetwork.com",
        "ipnumberia.com",
        "iranserver.com",
        "mihanwebhost.com",
        "p30download.com",
        "parsonline.com",
        "parspack.com",
        "picofile.com",
        "pishgaman.net",
        "sarmayex.com",
        "sarzamindownload.com",
        "skyroom.online",
        "smshooshmand.com",
        "softgozar.com",
        "yasdl.com",
        "zhaket.com",
        "flightio.com",
        "mrbilit.com",
        "cdnsnapptrip.com",
        "snapp-box.com",
        "snapp.cab",
        "snapp.doctor",
        "snapp.express",
        "snapp.ninja",
        "snapp.site",
        "snapp.supply",
        "snapp.taxi",
        "snapp.tech",
        "snappcloud.io",
        "snappfood.dev",
        "snapproom.com",
        "blogfa.com",
        "blogsky.com",
        "mydigipay.com",
        "asanpardakht.net",
        "zarinpal.com",
        "weswap.digital",
        "sanjesh.org",
        "sharif.edu",
        "srttu.edu",
        "bale.ai",
        "eitaa.com",
        "divarcdn.com",
        "gap.im",
        "gaplication.com",
        "niniban.com",
        "ninisite.com",
        "virasty.com",
        "behpardakht.com",
        "agrieng.org",
        "divar.cloud",
        "digistyle.com",
        "bimeonline.com",
        "dana-insurance.com",
        "dayins.com",
        "bimehasia.com",
        "bimeh.com",
        "novininsurance.com",
        "mellatinsurance.com",
        "asanpardakht.com",
        "sinainsurance.com",
        "digikalajet.com",
        "cinematicket.org",
        "telewebion.com",
        "aparat.com",
        "aparatkids.com",
        "aparatsport.com",
        "filimo.com",
        "filimo.school",
        "asriran.com",
        "eghtesadnews.com",
        "fararu.com",
        "hawzahnews.com",
        "iraneconomist.com",
        "mehrnews.com",
        "parsine.com",
        "qodsna.com",
        "saat24.com",
        "sobhanehonline.com",
        "tasnimnews.com",
        "tejaratnews.com",
        "7sobh.com",
        "abrarnews.com",
        "donya-e-eqtesad.com",
        "ebtekarnews.com",
        "ettelaat.com",
        "financialtribune.com",
        "iran-newspaper.com",
        "khabarvarzeshi.com",
        "khorasannews.com",
        "resalat-news.com",
        "tehrantimes.com",
        "digikalabusiness.com",
        "digi-kala.com",
        "janebi.com",
        "sheypoor.com",
        "torob.com",
        "digikala.com"
      ]
    }
  ]
}
