{
  "version": 1,
  "rules": [
    {
      "domain": [
        "ai.google.dev",
        "alkalicore-pa.clients6.google.com",
        "alkalimakersuite-pa.clients6.google.com",
        "openaiapi-site.azureedge.net",
        "openaicom-api-bdcpf8c6d2e9atf6.z01.azurefd.net",
        "openaicomproductionae4b.blob.core.windows.net",
        "production-openaicom-storage.azureedge.net",
        "servd-anthropic-website.b-cdn.net",
        "o33249.ingest.sentry.io",
        "openaicom.imgix.net"
      ],
      "domain_suffix": [
        "oaiusercontent.com",
        "claudeusercontent.com",
        "claude.ai",
        "anthropic.com",
        "dify.ai",
        "x.ai",
        "meta.ai",
        "openart.ai",
        "deepmind.com",
        "deepmind.google",
        "generativeai.google",
        "poecdn.net",
        "poe.com",
        "perplexity.ai",
        "notebooklm.google",
        "openai.com",
        "jasper.ai",
        "clipdrop.co",
        "ai.com",
        "chatgpt.com",
        "oaistatic.com",
        "gemini.google.com",
        "bard.google.com",
        "proactivebackend-pa.googleapis.com",
        "generativelanguage.googleapis.com",
        "geller-pa.googleapis.com",
        "notebooklm.google.com",
        "makersuite.google.com",
        "aistudio.google.com",
        "gateway.ai.cloudflare.com",
        "openai.com.cdn.cloudflare.net"
      ],
      "domain_regex": "^chatgpt-async-webps-prod-\\S+-\\d+\\.webpubsub\\.azure\\.com$"
    }
  ]
}
