{
  "version": 1,
  "rules": [
    {
      "domain_suffix": [
        "pornhubapparel.com",
        "brazzersnetwork.com",
        "porniq.com",
        "pornmd.com",
        "seancody.com",
        "thumbzilla.com",
        "twistys.com",
        "webcams.tv",
        "whynotbi.com",
        "extremetube.com",
        "keezmovies.com",
        "youporn.com",
        "youporngay.com",
        "youpornpremium.com",
        "youpornru.com",
        "yopornshop.com",
        "babes.com",
        "gaytube.com",
        "phncdn.com",
        "phprcdn.com",
        "porngub.com",
        "pornhub-deutsch.net",
        "pornhub.org",
        "men.com",
        "ypncdn.com",
        "pornhubpremium.com",
        "digitalplayground.com",
        "digitalplaygroundnetwork.com",
        "mydirtyhobby.com",
        "mdhcdn.com",
        "nutaku.com",
        "nutaku.net",
        "realitykings.com",
        "rk.com",
        "livehdcams.com",
        "redtube.com",
        "redtubepremium.com",
        "rdtcdn.com",
        "mofos.com",
        "tube8.com",
        "tube8.fr",
        "brazzer.com",
        "brazzers.com",
        "brazzers.xxx",
        "pornhub.com",
        "redtube.com.br"
      ]
    }
  ]
}
